{
    "sequence": [
        "MB5L",
        "MB6L",
        "MB7L",
        "ZH1L",
        "ZV1L",
        "MB8L",
        "MB9L",
        "MB10L",
        "ZV2L",
        "ZH2L",
        "MB11L",
        "ML1L",
        "ML2L",
        "ZV3L",
        "ZH3L",
        "ML3L",
        "ZH4L",
        "ZV4L",
        "ZH5L",
        "ZV5L",
        "ML4L",
        "ZH6L",
        "ZV6L",
        "ML5L",
        "ZH7L",
        "ZV7L",
        "ML6L",
        "ZH8L",
        "ZV8L",
        "ML7L",
        "ZH9L",
        "ML8L",
        "ZV9L",
        "ML9L",
        "ZH10L",
        "ML10L",
        "ZV10L",
        "ML11L",
        "ZH11L",
        "ML12L",
        "ZV11L",
        "ML13L",
        "ZH12L",
        "ML14L",
        "ZV12L",
        "ML15L",
        "ZX10T",
        "ZX11T",
        "ML1T",
        "ZV13L",
        "ZX12T",
        "ML2T",
        "ZY20T",
        "ZY21T",
        "ML101T",
        "ML102T",
        "ZY22T",
        "ZY23T",
        "ML103T",
        "ZX30T",
        "ML3T",
        "ZX31T",
        "ZV30T",
        "ZH30T",
        "ML104T",
        "ZX32T",
        "ML4T",
        "ML105T",
        "ZV40T",
        "ZH40T",
        "ML5T",
        "ML6T",
        "ZX50T",
        "ML106T",
        "ZX50T",
        "ML7T",
        "ZX51T",
        "ZV50T",
        "ML8T",
        "ZH50T",
        "ZV51T",
        "ML9T",
        "MB10T",
        "MB11T"
    ],
    "correctors": {
        "names": [
            "ZH1L",
            "ZV1L",
            "ZV2L",
            "ZH2L",
            "ZV3L",
            "ZH3L",
            "ZH4L",
            "ZV4L",
            "ZH5L",
            "ZV5L",
            "ZH6L",
            "ZV6L",
            "ZH7L",
            "ZV7L",
            "ZH8L",
            "ZV8L",
            "ZH9L",
            "ZV9L",
            "ZH10L",
            "ZV10L",
            "ZH11L",
            "ZV11L",
            "ZH12L",
            "ZV12L",
            "ZX10T",
            "ZX11T",
            "ZV13L",
            "ZX12T",
            "ZY20T",
            "ZY21T",
            "ZY22T",
            "ZY23T",
            "ZX30T",
            "ZX31T",
            "ZV30T",
            "ZH30T",
            "ZX32T",
            "ZV40T",
            "ZH40T",
            "ZX50T",
            "ZX50T",
            "ZX51T",
            "ZV50T",
            "ZH50T",
            "ZV51T"
        ],
        "bdes": [
            1.6058,
            0.32324,
            -3.694e-05,
            0.05,
            -0.018255,
            -0.0023425,
            -0.63212,
            -0.51377,
            0.0067611,
            0.025597,
            -0.089344,
            -0.23399,
            -0.34279,
            0.11954336249669431,
            0.095066,
            -0.1336,
            -0.39271,
            -0.072191,
            -0.21644,
            -0.41065,
            0.09808,
            0.37969,
            0.043499,
            -1.4308,
            -0.5,
            0.81,
            -0.69,
            0.9,
            0.34,
            -0.25,
            -1.26,
            -1.47,
            0.0,
            0.0,
            0.09,
            -1.79,
            2.05,
            -1.5,
            -2.1085,
            1.29,
            1.29,
            -1.7,
            0.38,
            1.35,
            0.08
        ],
        "bact": [
            1.6047874689102173,
            0.3224230408668518,
            -0.00488519761711359,
            0.04885197803378105,
            -0.02198338881134987,
            -0.00488519761711359,
            -0.6350756883621216,
            -0.5178309679031372,
            0.00488519761711359,
            0.024425989016890526,
            -0.09281875938177109,
            -0.23693208396434784,
            -0.3468490242958069,
            0.11724473536014557,
            0.09281875938177109,
            -0.13678553700447083,
            -0.39570102095603943,
            -0.07572057098150253,
            -0.21983389556407928,
            -0.4152418076992035,
            0.0977039560675621,
            0.3786028325557709,
            0.04152418300509453,
            -1.4338055849075317,
            -0.5080605745315552,
            0.8036150336265564,
            -0.6985832452774048,
            0.898876428604126,
            0.33463606238365173,
            -0.2589154839515686,
            -1.2677088975906372,
            -1.4802148342132568,
            0.0,
            0.0,
            0.08304836601018906,
            -1.797752857208252,
            2.044455051422119,
            -1.5095261335372925,
            -2.1128480434417725,
            1.2848069667816162,
            1.2848069667816162,
            -1.7073765993118286,
            0.37371763586997986,
            1.343429446220398,
            0.07572057098150253
        ]
    },
    "bpms": {
        "names": [
            "MB5L",
            "MB6L",
            "MB7L",
            "MB8L",
            "MB9L",
            "MB10L",
            "MB11L",
            "ML1L",
            "ML2L",
            "ML3L",
            "ML4L",
            "ML5L",
            "ML6L",
            "ML7L",
            "ML8L",
            "ML9L",
            "ML10L",
            "ML11L",
            "ML12L",
            "ML13L",
            "ML14L",
            "ML15L",
            "ML1T",
            "ML2T",
            "ML101T",
            "ML102T",
            "ML103T",
            "ML3T",
            "ML104T",
            "ML4T",
            "ML105T",
            "ML5T",
            "ML6T",
            "ML106T",
            "ML7T",
            "ML8T",
            "ML9T",
            "MB10T",
            "MB11T"
        ],
        "x": [
            [
                -1.156287670135498,
                0.7756490111351013,
                0.17625436186790466,
                -7.930360794067383,
                1.4660998582839966,
                1.1526358127593994,
                -0.0028278345707803965,
                -2.436232566833496,
                -0.6789116859436035,
                0.7802706956863403,
                -0.1792752891778946,
                -0.8415480256080627,
                0.6361141800880432,
                -0.9970244765281677,
                0.6277393698692322,
                -6.3310723304748535,
                -2.784125328063965,
                -0.8325578570365906,
                -1.271640658378601,
                -0.38137808442115784,
                -0.6656524538993835,
                -1.151728868484497,
                -6.639612674713135,
                0.33997640013694763,
                -4.841658592224121,
                1.7823829650878906,
                0.9104844331741333,
                -0.619474470615387,
                -1.0971956253051758,
                -6.532495021820068,
                -7.080221652984619,
                -2.8357386589050293,
                0.6516000628471375,
                -5.265285015106201,
                -1.4218848943710327,
                -2.2695322036743164,
                -4.075273513793945,
                2.872361898422241,
                -3.3799970149993896
            ],
            [
                -1.1305075883865356,
                0.7229361534118652,
                0.1292351484298706,
                -7.97963809967041,
                1.4392943382263184,
                1.143904685974121,
                -0.00041643859003670514,
                -2.4684040546417236,
                -0.6349249482154846,
                0.8184113502502441,
                -0.15869556367397308,
                -0.6148883700370789,
                0.6602793335914612,
                -1.0003671646118164,
                0.6600860953330994,
                -6.285456657409668,
                -2.834043025970459,
                -0.8244985342025757,
                -1.2628613710403442,
                -0.30327361822128296,
                -0.5601606965065002,
                -1.1225287914276123,
                -6.633142471313477,
                0.3296743631362915,
                -4.948819160461426,
                1.7534466981887817,
                0.9600327610969543,
                -0.8274059891700745,
                -1.2284094095230103,
                -6.466121196746826,
                -7.177732467651367,
                -2.930060863494873,
                -0.8098160028457642,
                -5.275828838348389,
                -1.4434278011322021,
                -2.235947370529175,
                -4.175837516784668,
                2.9684979915618896,
                -3.3770902156829834
            ],
            [
                -1.1615064144134521,
                0.6980494856834412,
                0.16736425459384918,
                -7.984915256500244,
                1.470449686050415,
                1.144307017326355,
                0.008665855973958969,
                -2.4630656242370605,
                -0.6650358438491821,
                0.834135890007019,
                -0.18110762536525726,
                -0.8409496545791626,
                0.6334123015403748,
                -0.951174259185791,
                0.6685138940811157,
                -6.239320755004883,
                -2.6912386417388916,
                -0.8120425343513489,
                -1.2949306964874268,
                -0.3873453438282013,
                -0.6664670705795288,
                -1.171433448791504,
                -6.628016948699951,
                0.4574793577194214,
                -4.933920383453369,
                1.7527871131896973,
                0.7377319931983948,
                -0.638880729675293,
                -1.12109375,
                -6.476760387420654,
                -7.180759906768799,
                -2.832001209259033,
                0.8759773969650269,
                -5.196288108825684,
                -1.353460669517517,
                -2.128019332885742,
                -4.033004283905029,
                2.8045363426208496,
                -3.3690123558044434
            ]
        ],
        "y": [
            [
                -0.7450271844863892,
                0.8383952379226685,
                3.168687343597412,
                7.707798480987549,
                -4.695737838745117,
                -0.896375298500061,
                0.29475149512290955,
                -0.8980423212051392,
                -0.822523295879364,
                -1.5307793617248535,
                -0.19004987180233002,
                0.30108925700187683,
                -0.040885984897613525,
                -0.6642195582389832,
                -0.45603662729263306,
                0.7120149731636047,
                0.37148919701576233,
                0.582812488079071,
                -0.3578914701938629,
                -1.3735594749450684,
                0.4965795874595642,
                -0.16486822068691254,
                -0.10526011884212494,
                -1.099578857421875,
                -4.973794460296631,
                -3.711148977279663,
                1.8926035165786743,
                -1.436937689781189,
                -0.23025137186050415,
                5.12322473526001,
                3.580960273742676,
                1.4786877632141113,
                2.8264894485473633,
                -2.5404539108276367,
                -0.023787343874573708,
                -2.5741069316864014,
                -1.7565758228302002,
                -0.1302289068698883,
                1.4637033939361572
            ],
            [
                -0.735505998134613,
                0.6885085105895996,
                3.1153788566589355,
                7.706314563751221,
                -4.752466201782227,
                -0.8825103640556335,
                0.3069780766963959,
                -0.8823603391647339,
                -0.7969275116920471,
                -1.4992977380752563,
                -0.1321316808462143,
                0.3397780954837799,
                -0.02731188014149666,
                -0.6488708257675171,
                -0.48653316497802734,
                0.6755616068840027,
                0.3437070846557617,
                0.5965752601623535,
                -0.4050073027610779,
                -1.3495200872421265,
                0.5263977646827698,
                -0.11756893992424011,
                -0.07878334820270538,
                -1.084414005279541,
                -5.015154838562012,
                -3.7586305141448975,
                1.8975211381912231,
                -1.3913462162017822,
                -0.16537225246429443,
                4.9347991943359375,
                4.043989658355713,
                1.0210517644882202,
                1.2452548742294312,
                -2.6483728885650635,
                -0.0034025590866804123,
                -2.6045007705688477,
                -1.7536747455596924,
                0.12798994779586792,
                1.5834143161773682
            ],
            [
                -0.747604250907898,
                0.7932021021842957,
                3.11415433883667,
                7.714873790740967,
                -4.715898513793945,
                -0.8948733806610107,
                0.3229094445705414,
                -0.868998110294342,
                -0.7950643301010132,
                -1.5032899379730225,
                -0.15355613827705383,
                0.3312557339668274,
                -0.037572767585515976,
                -0.6386341452598572,
                -0.4520379900932312,
                0.6594306230545044,
                0.3349740505218506,
                0.5835301280021667,
                -0.33101314306259155,
                -1.3855187892913818,
                0.520298182964325,
                -0.16198129951953888,
                -0.0993158146739006,
                -1.0412163734436035,
                -4.935685634613037,
                -3.7211570739746094,
                1.8351510763168335,
                -1.5251466035842896,
                -0.21006076037883759,
                4.852303504943848,
                4.52748966217041,
                1.8908360004425049,
                3.141507625579834,
                -2.5990474224090576,
                -0.08908694237470627,
                -2.5476982593536377,
                -1.7401375770568848,
                -0.10018826276063919,
                1.3285398483276367
            ]
        ],
        "tmit": [
            [
                0.7309215664863586,
                0.8590460419654846,
                0.8497498631477356,
                0.8839062452316284,
                0.905347466468811,
                0.7758044600486755,
                0.8784142136573792,
                0.575817346572876,
                0.8511881232261658,
                1.3343099355697632,
                0.8081600666046143,
                1.307649850845337,
                1.7771599292755127,
                0.8674066066741943,
                0.9281556606292725,
                0.8545683026313782,
                0.66093909740448,
                0.8500361442565918,
                0.7063566446304321,
                0.527920663356781,
                0.4893019199371338,
                0.4986560344696045,
                0.4514574110507965,
                0.40864497423171997,
                0.05834566429257393,
                0.14222608506679535,
                0.15986455976963043,
                0.16107235848903656,
                0.15624181926250458,
                0.1459679752588272,
                0.19299279153347015,
                0.5923752784729004,
                0.20636706054210663,
                0.27463212609291077,
                0.14631783962249756,
                0.06100985035300255,
                0.13314789533615112,
                0.12106979638338089,
                0.1381939798593521
            ],
            [
                0.710523247718811,
                0.8393546342849731,
                0.8307229280471802,
                0.8643243312835693,
                0.8870706558227539,
                0.758712887763977,
                0.8596482872962952,
                0.5657082200050354,
                0.8352740406990051,
                1.316876769065857,
                0.7928224205970764,
                1.2987056970596313,
                1.7527486085891724,
                0.8484026789665222,
                0.9101184010505676,
                0.8348814845085144,
                0.648649275302887,
                0.8342693448066711,
                0.6935541033744812,
                0.5188881754875183,
                0.4812958538532257,
                0.4897680878639221,
                0.44104883074760437,
                0.3984440267086029,
                0.056606270372867584,
                0.13824665546417236,
                0.15562224388122559,
                0.1569034308195114,
                0.15350623428821564,
                0.14362989366054535,
                0.18598572909832,
                0.5821400880813599,
                0.2630336284637451,
                0.2672548294067383,
                0.14301259815692902,
                0.059580083936452866,
                0.12987565994262695,
                0.11921181529760361,
                0.13386696577072144
            ],
            [
                0.7406081557273865,
                0.8697891235351562,
                0.860666811466217,
                0.8951144218444824,
                0.915765106678009,
                0.7848069667816162,
                0.8887344598770142,
                0.5815449953079224,
                0.8581849932670593,
                1.343834400177002,
                0.8170300126075745,
                1.3185678720474243,
                1.788200855255127,
                0.876298725605011,
                0.9392818808555603,
                0.8613423109054565,
                0.6712939739227295,
                0.8608769774436951,
                0.7143389582633972,
                0.5309529304504395,
                0.4952476918697357,
                0.5056124329566956,
                0.4562516510486603,
                0.41120946407318115,
                0.06051990017294884,
                0.14782977104187012,
                0.1663290411233902,
                0.16689147055149078,
                0.1646309792995453,
                0.1501045674085617,
                0.19319887459278107,
                0.6370869874954224,
                0.19257321953773499,
                0.2774478793144226,
                0.1480770707130432,
                0.06373940408229828,
                0.13826735317707062,
                0.1263856440782547,
                0.14225055277347565
            ]
        ]
    },
    "icts": {
        "names": [
            "gun:GUNcharge",
            "l0:L0charge",
            "linacbt:LNEcharge",
            "linacbt:BTMcharge",
            "ext:EXTcharge",
            "linacbt:BTEcharge",
            "BIM:DR:nparticles",
            "BIM:IP:nparticles"
        ],
        "charge": [
            0.528970653755,
            0.5784964450000001,
            0.4103322916666667,
            0.2743975,
            0.08266906814833333,
            0.22895041666666666,
            0.05730460211634636,
            0.06543628126382828
        ]
    },
    "hcorrectors_names": [
        "ZH1L",
        "ZH2L",
        "ZH3L",
        "ZH4L",
        "ZH5L",
        "ZH6L",
        "ZH7L",
        "ZH8L",
        "ZH9L",
        "ZH10L",
        "ZH11L",
        "ZH12L",
        "ZH30T",
        "ZH40T",
        "ZH50T"
    ],
    "vcorrectors_names": [
        "ZV1L",
        "ZV2L",
        "ZV3L",
        "ZV4L",
        "ZV5L",
        "ZV6L",
        "ZV7L",
        "ZV8L",
        "ZV9L",
        "ZV10L",
        "ZV11L",
        "ZV12L",
        "ZV13L",
        "ZV30T",
        "ZV40T",
        "ZV50T",
        "ZV51T"
    ],
    "timestamp": "2024/05/24, 15:15:26"
}