{
    "sequence": [
        "MB5L",
        "MB6L",
        "MB7L",
        "ZH1L",
        "ZV1L",
        "MB8L",
        "MB9L",
        "MB10L",
        "ZV2L",
        "ZH2L",
        "MB11L",
        "ML1L",
        "ML2L",
        "ZV3L",
        "ZH3L",
        "ML3L",
        "ZH4L",
        "ZV4L",
        "ZH5L",
        "ZV5L",
        "ML4L",
        "ZH6L",
        "ZV6L",
        "ML5L",
        "ZH7L",
        "ZV7L",
        "ML6L",
        "ZH8L",
        "ZV8L",
        "ML7L",
        "ZH9L",
        "ML8L",
        "ZV9L",
        "ML9L",
        "ZH10L",
        "ML10L",
        "ZV10L",
        "ML11L",
        "ZH11L",
        "ML12L",
        "ZV11L",
        "ML13L",
        "ZH12L",
        "ML14L",
        "ZV12L",
        "ML15L",
        "ZX10T",
        "ZX11T",
        "ML1T",
        "ZV13L",
        "ZX12T",
        "ML2T",
        "ZY20T",
        "ZY21T",
        "ML101T",
        "ML102T",
        "ZY22T",
        "ZY23T",
        "ML103T",
        "ZX30T",
        "ML3T",
        "ZX31T",
        "ZV30T",
        "ZH30T",
        "ML104T",
        "ZX32T",
        "ML4T",
        "ML105T",
        "ZV40T",
        "ZH40T",
        "ML5T",
        "ML6T",
        "ZX50T",
        "ML106T",
        "ZX50T",
        "ML7T",
        "ZX51T",
        "ZV50T",
        "ML8T",
        "ZH50T",
        "ZV51T",
        "ML9T",
        "MB10T",
        "MB11T"
    ],
    "correctors": {
        "names": [
            "ZH1L",
            "ZV1L",
            "ZV2L",
            "ZH2L",
            "ZV3L",
            "ZH3L",
            "ZH4L",
            "ZV4L",
            "ZH5L",
            "ZV5L",
            "ZH6L",
            "ZV6L",
            "ZH7L",
            "ZV7L",
            "ZH8L",
            "ZV8L",
            "ZH9L",
            "ZV9L",
            "ZH10L",
            "ZV10L",
            "ZH11L",
            "ZV11L",
            "ZH12L",
            "ZV12L",
            "ZX10T",
            "ZX11T",
            "ZV13L",
            "ZX12T",
            "ZY20T",
            "ZY21T",
            "ZY22T",
            "ZY23T",
            "ZX30T",
            "ZX31T",
            "ZV30T",
            "ZH30T",
            "ZX32T",
            "ZV40T",
            "ZH40T",
            "ZX50T",
            "ZX50T",
            "ZX51T",
            "ZV50T",
            "ZH50T",
            "ZV51T"
        ],
        "bdes": [
            1.6058,
            0.32324,
            -3.694e-05,
            0.05,
            -0.018255,
            -0.0023425,
            -0.63212,
            -0.51377,
            0.0067611,
            0.025597,
            -0.089344,
            -0.23399,
            -0.34279,
            0.0008922,
            0.095066,
            -0.1336,
            -0.39271,
            -0.072191,
            -0.27937537307638466,
            -0.41065,
            0.09808,
            0.37969,
            0.043499,
            -1.4308,
            -0.5,
            0.81,
            -0.69,
            0.9,
            0.34,
            -0.25,
            -1.26,
            -1.47,
            0.0,
            0.0,
            0.09,
            -1.79,
            2.05,
            -1.5,
            -2.1085,
            1.29,
            1.29,
            -1.7,
            0.38,
            1.35,
            0.08
        ],
        "bact": [
            1.6047874689102173,
            0.3224230408668518,
            -0.00488519761711359,
            0.04885197803378105,
            -0.02198338881134987,
            -0.00488519761711359,
            -0.6350756883621216,
            -0.5178309679031372,
            0.00488519761711359,
            0.024425989016890526,
            -0.09281875938177109,
            -0.23693208396434784,
            -0.3468490242958069,
            0.0,
            0.09281875938177109,
            -0.13678553700447083,
            -0.39570102095603943,
            -0.07572057098150253,
            -0.2833414673805237,
            -0.4152418076992035,
            0.0977039560675621,
            0.3786028325557709,
            0.04152418300509453,
            -1.4338055849075317,
            -0.5080605745315552,
            0.8036150336265564,
            -0.6985832452774048,
            0.898876428604126,
            0.33463606238365173,
            -0.2589154839515686,
            -1.2677088975906372,
            -1.4802148342132568,
            0.0,
            0.0,
            0.08304836601018906,
            -1.797752857208252,
            2.044455051422119,
            -1.5095261335372925,
            -2.1128480434417725,
            1.2848069667816162,
            1.2848069667816162,
            -1.7073765993118286,
            0.37371763586997986,
            1.343429446220398,
            0.07572057098150253
        ]
    },
    "bpms": {
        "names": [
            "MB5L",
            "MB6L",
            "MB7L",
            "MB8L",
            "MB9L",
            "MB10L",
            "MB11L",
            "ML1L",
            "ML2L",
            "ML3L",
            "ML4L",
            "ML5L",
            "ML6L",
            "ML7L",
            "ML8L",
            "ML9L",
            "ML10L",
            "ML11L",
            "ML12L",
            "ML13L",
            "ML14L",
            "ML15L",
            "ML1T",
            "ML2T",
            "ML101T",
            "ML102T",
            "ML103T",
            "ML3T",
            "ML104T",
            "ML4T",
            "ML105T",
            "ML5T",
            "ML6T",
            "ML106T",
            "ML7T",
            "ML8T",
            "ML9T",
            "MB10T",
            "MB11T"
        ],
        "x": [
            [
                -1.157185673713684,
                0.7641391158103943,
                0.06093236804008484,
                -8.027894020080566,
                1.3996202945709229,
                1.1109877824783325,
                -0.03591121360659599,
                -2.490391731262207,
                -0.607078492641449,
                0.9060677886009216,
                -0.16032622754573822,
                -0.8963204026222229,
                0.6578506827354431,
                -0.9752370119094849,
                0.7240052819252014,
                -6.313490867614746,
                -2.906900644302368,
                -1.3570277690887451,
                -2.1654112339019775,
                -0.8887351751327515,
                -1.6459476947784424,
                -1.86846923828125,
                -6.779608249664307,
                1.1038248538970947,
                -5.1605706214904785,
                1.1928433179855347,
                0.5341401696205139,
                -0.08879157155752182,
                -1.1911354064941406,
                -6.439732074737549,
                -7.194693565368652,
                -2.9284191131591797,
                0.037843506783246994,
                -4.9744791984558105,
                -1.262974739074707,
                -2.256145715713501,
                -3.7716779708862305,
                1.8450428247451782,
                -3.6540517807006836
            ],
            [
                -1.1445386409759521,
                0.6766826510429382,
                0.10553285479545593,
                -8.00145149230957,
                1.4068291187286377,
                1.1043521165847778,
                0.002170081716030836,
                -2.467059850692749,
                -0.6357837915420532,
                0.852558970451355,
                -0.14119550585746765,
                -0.6888678669929504,
                0.6385384798049927,
                -0.9980946183204651,
                0.65696781873703,
                -6.355797290802002,
                -2.9745287895202637,
                -1.3616983890533447,
                -2.117154359817505,
                -0.8376916646957397,
                -1.6007546186447144,
                -1.7891501188278198,
                -6.7851481437683105,
                1.1961944103240967,
                -5.060638904571533,
                1.1877412796020508,
                0.4274786114692688,
                0.07401946932077408,
                -1.081476092338562,
                -6.581751346588135,
                -7.146647930145264,
                -2.936272382736206,
                -0.1693631261587143,
                -4.911134719848633,
                -1.2551714181900024,
                -2.2857234477996826,
                -3.722651958465576,
                1.8238142728805542,
                -3.6358137130737305
            ],
            [
                -1.2104859352111816,
                0.6952478289604187,
                0.09101198613643646,
                -7.935965538024902,
                1.4944937229156494,
                1.203241229057312,
                0.05238839611411095,
                -2.4021244049072266,
                -0.6710676550865173,
                0.7853237986564636,
                -0.17403104901313782,
                -0.8501847982406616,
                0.6195032000541687,
                -0.9779973030090332,
                0.6131255030632019,
                -6.281228542327881,
                -2.8389029502868652,
                -1.3113582134246826,
                -2.032853364944458,
                -0.8851416110992432,
                -1.616837978363037,
                -1.764949917793274,
                -6.808089733123779,
                0.9773250818252563,
                -5.249431610107422,
                1.2470521926879883,
                0.3729458153247833,
                -0.03885791078209877,
                -1.3161572217941284,
                -6.702841281890869,
                -7.00007438659668,
                -2.8788366317749023,
                0.29407382011413574,
                -5.009042263031006,
                -1.3391693830490112,
                -2.3625340461730957,
                -3.774010181427002,
                1.920125961303711,
                -3.719498872756958
            ]
        ],
        "y": [
            [
                -0.7466728687286377,
                0.6617465019226074,
                3.0579919815063477,
                7.6266045570373535,
                -4.794536590576172,
                -0.8962350487709045,
                0.33174532651901245,
                -0.8214699625968933,
                -0.73291015625,
                -1.4914560317993164,
                -0.12294655293226242,
                0.3535805344581604,
                -0.05154431238770485,
                -1.6296147108078003,
                -0.938271701335907,
                0.2749072015285492,
                0.5168774127960205,
                1.5717885494232178,
                0.3811946511268616,
                -0.6999456882476807,
                0.7219458222389221,
                -0.10028059035539627,
                -0.584488034248352,
                -1.472137689590454,
                -4.982567310333252,
                -3.619589328765869,
                1.8665205240249634,
                -1.5393959283828735,
                -0.3900288939476013,
                4.342185020446777,
                4.101354122161865,
                2.064614772796631,
                2.7783684730529785,
                -2.7133498191833496,
                -0.03475908935070038,
                -2.6179728507995605,
                -1.7213046550750732,
                0.004856230691075325,
                1.9937678575515747
            ],
            [
                -0.7913278341293335,
                0.7507840394973755,
                3.0461928844451904,
                7.642308235168457,
                -4.780226707458496,
                -0.8941117525100708,
                0.3504900634288788,
                -0.860297441482544,
                -0.7348895072937012,
                -1.4848321676254272,
                -0.1014179140329361,
                0.36070647835731506,
                -0.058577194809913635,
                -1.5893739461898804,
                -0.9350183606147766,
                0.3309638202190399,
                0.47403666377067566,
                1.5691163539886475,
                0.36922305822372437,
                -0.709663987159729,
                0.6933404207229614,
                -0.13291825354099274,
                -0.526256799697876,
                -1.4893723726272583,
                -4.963339805603027,
                -3.6082475185394287,
                1.842198371887207,
                -1.398463249206543,
                -0.4849836528301239,
                5.066615581512451,
                3.777499198913574,
                1.2391952276229858,
                2.4134278297424316,
                -2.765289545059204,
                -0.08162357658147812,
                -2.5842723846435547,
                -1.760883092880249,
                0.004464841913431883,
                2.02053165435791
            ],
            [
                -0.8016946911811829,
                0.6890077590942383,
                3.1024839878082275,
                7.674304008483887,
                -4.731539249420166,
                -0.9139696359634399,
                0.30543017387390137,
                -0.8824946284294128,
                -0.7821775674819946,
                -1.4880213737487793,
                -0.19566455483436584,
                0.3210175633430481,
                -0.0547148697078228,
                -1.4986690282821655,
                -0.8745645880699158,
                0.34205177426338196,
                0.4540340304374695,
                1.5555740594863892,
                0.4031941592693329,
                -0.6649572849273682,
                0.6775954365730286,
                -0.1461852490901947,
                -0.5697925686836243,
                -1.4516040086746216,
                -4.982567310333252,
                -3.689818859100342,
                1.8333808183670044,
                -1.5346274375915527,
                -0.519294261932373,
                4.213773727416992,
                2.3526687622070312,
                1.7458055019378662,
                3.2004873752593994,
                -2.6133975982666016,
                0.056379202753305435,
                -2.6440227031707764,
                -1.8221675157546997,
                0.1613263338804245,
                1.9322786331176758
            ]
        ],
        "tmit": [
            [
                0.7121919989585876,
                0.8410261273384094,
                0.8298054933547974,
                0.8627912998199463,
                0.8879461884498596,
                0.7590394020080566,
                0.8585711717605591,
                0.5651183724403381,
                0.8359054923057556,
                1.314048171043396,
                0.7924755811691284,
                1.2806804180145264,
                1.7502294778823853,
                0.8464678525924683,
                0.9075309634208679,
                0.8348814845085144,
                0.6482614278793335,
                0.8243863582611084,
                0.6801542639732361,
                0.5167766809463501,
                0.4796905219554901,
                0.48602619767189026,
                0.4614875018596649,
                0.3966773748397827,
                0.05608445405960083,
                0.13784059882164001,
                0.15400612354278564,
                0.15499266982078552,
                0.15545153617858887,
                0.13877388834953308,
                0.1857796460390091,
                0.6214648485183716,
                0.1970469057559967,
                0.2630312144756317,
                0.14205302298069,
                0.05914682149887085,
                0.12760621309280396,
                0.11580554395914078,
                0.13488110899925232
            ],
            [
                0.7134295701980591,
                0.8426811695098877,
                0.8320295810699463,
                0.8656579256057739,
                0.8890238404273987,
                0.7613456845283508,
                0.8618100881576538,
                0.5678661465644836,
                0.8362907767295837,
                1.3179655075073242,
                0.7953783273696899,
                1.300489902496338,
                1.757331132888794,
                0.8493297696113586,
                0.9111961722373962,
                0.835304856300354,
                0.6488216519355774,
                0.8256089091300964,
                0.684994101524353,
                0.5163355469703674,
                0.48213163018226624,
                0.4875066876411438,
                0.4603520333766937,
                0.3976461887359619,
                0.05834566429257393,
                0.14397215843200684,
                0.15915749967098236,
                0.1630699634552002,
                0.15988928079605103,
                0.14021271467208862,
                0.19113796949386597,
                0.6419351696968079,
                0.19182759523391724,
                0.2635943293571472,
                0.14263944327831268,
                0.06183304637670517,
                0.13330622017383575,
                0.12132783234119415,
                0.1400870382785797
            ],
            [
                0.7539853453636169,
                0.8853858113288879,
                0.8740034103393555,
                0.9072890877723694,
                0.9314913749694824,
                0.7964456081390381,
                0.9015516638755798,
                0.5883245468139648,
                0.8709257245063782,
                1.356387734413147,
                0.8259679079055786,
                1.3288110494613647,
                1.7975534200668335,
                0.8869094848632812,
                0.9461455941200256,
                0.8814525008201599,
                0.6751178503036499,
                0.8634201288223267,
                0.7111062407493591,
                0.5333182215690613,
                0.5009596943855286,
                0.5091029405593872,
                0.4843232333660126,
                0.41782015562057495,
                0.05595400184392929,
                0.13739392161369324,
                0.15178395807743073,
                0.1538635939359665,
                0.15204724669456482,
                0.13733507692813873,
                0.19237451255321503,
                0.6446287035942078,
                0.1679679900407791,
                0.27739155292510986,
                0.14978300034999847,
                0.059276800602674484,
                0.1273423284292221,
                0.11487656086683273,
                0.1330556422472
            ]
        ]
    },
    "icts": {
        "names": [
            "gun:GUNcharge",
            "l0:L0charge",
            "linacbt:LNEcharge",
            "linacbt:BTMcharge",
            "ext:EXTcharge",
            "linacbt:BTEcharge",
            "BIM:DR:nparticles",
            "BIM:IP:nparticles"
        ],
        "charge": [
            0.52338206058,
            0.57472733875,
            0.40713083333333333,
            0.258135,
            0.013141998140833331,
            0.21264381944444444,
            -0.0007566826534457505,
            0.007577771786600351
        ]
    },
    "hcorrectors_names": [
        "ZH1L",
        "ZH2L",
        "ZH3L",
        "ZH4L",
        "ZH5L",
        "ZH6L",
        "ZH7L",
        "ZH8L",
        "ZH9L",
        "ZH10L",
        "ZH11L",
        "ZH12L",
        "ZH30T",
        "ZH40T",
        "ZH50T"
    ],
    "vcorrectors_names": [
        "ZV1L",
        "ZV2L",
        "ZV3L",
        "ZV4L",
        "ZV5L",
        "ZV6L",
        "ZV7L",
        "ZV8L",
        "ZV9L",
        "ZV10L",
        "ZV11L",
        "ZV12L",
        "ZV13L",
        "ZV30T",
        "ZV40T",
        "ZV50T",
        "ZV51T"
    ],
    "timestamp": "2024/05/24, 15:16:19"
}