{
    "sequence": [
        "MB5L",
        "MB6L",
        "MB7L",
        "ZH1L",
        "ZV1L",
        "MB8L",
        "MB9L",
        "MB10L",
        "ZV2L",
        "ZH2L",
        "MB11L",
        "ML1L",
        "ML2L",
        "ZV3L",
        "ZH3L",
        "ML3L",
        "ZH4L",
        "ZV4L",
        "ZH5L",
        "ZV5L",
        "ML4L",
        "ZH6L",
        "ZV6L",
        "ML5L",
        "ZH7L",
        "ZV7L",
        "ML6L",
        "ZH8L",
        "ZV8L",
        "ML7L",
        "ZH9L",
        "ML8L",
        "ZV9L",
        "ML9L",
        "ZH10L",
        "ML10L",
        "ZV10L",
        "ML11L",
        "ZH11L",
        "ML12L",
        "ZV11L",
        "ML13L",
        "ZH12L",
        "ML14L",
        "ZV12L",
        "ML15L",
        "ZX10T",
        "ZX11T",
        "ML1T",
        "ZV13L",
        "ZX12T",
        "ML2T",
        "ZY20T",
        "ZY21T",
        "ML101T",
        "ML102T",
        "ZY22T",
        "ZY23T",
        "ML103T",
        "ZX30T",
        "ML3T",
        "ZX31T",
        "ZV30T",
        "ZH30T",
        "ML104T",
        "ZX32T",
        "ML4T",
        "ML105T",
        "ZV40T",
        "ZH40T",
        "ML5T",
        "ML6T",
        "ZX50T",
        "ML106T",
        "ZX50T",
        "ML7T",
        "ZX51T",
        "ZV50T",
        "ML8T",
        "ZH50T",
        "ZV51T",
        "ML9T",
        "MB10T",
        "MB11T"
    ],
    "correctors": {
        "names": [
            "ZH1L",
            "ZV1L",
            "ZV2L",
            "ZH2L",
            "ZV3L",
            "ZH3L",
            "ZH4L",
            "ZV4L",
            "ZH5L",
            "ZV5L",
            "ZH6L",
            "ZV6L",
            "ZH7L",
            "ZV7L",
            "ZH8L",
            "ZV8L",
            "ZH9L",
            "ZV9L",
            "ZH10L",
            "ZV10L",
            "ZH11L",
            "ZV11L",
            "ZH12L",
            "ZV12L",
            "ZX10T",
            "ZX11T",
            "ZV13L",
            "ZX12T",
            "ZY20T",
            "ZY21T",
            "ZY22T",
            "ZY23T",
            "ZX30T",
            "ZX31T",
            "ZV30T",
            "ZH30T",
            "ZX32T",
            "ZV40T",
            "ZH40T",
            "ZX50T",
            "ZX50T",
            "ZX51T",
            "ZV50T",
            "ZH50T",
            "ZV51T"
        ],
        "bdes": [
            1.6058,
            0.32324,
            -3.694e-05,
            0.05,
            -0.018255,
            -0.0023425,
            -0.63212,
            -0.51377,
            0.0067611,
            0.025597,
            -0.089344,
            -0.23399,
            -0.34279,
            0.0008922,
            0.095066,
            -0.2336,
            -0.39271,
            -0.072191,
            -0.21644,
            -0.41065,
            0.09808,
            0.37969,
            0.043499,
            -1.4308,
            -0.5,
            0.81,
            -0.69,
            0.9,
            0.34,
            -0.25,
            -1.26,
            -1.47,
            0.0,
            0.0,
            0.09,
            -1.79,
            2.05,
            -1.5,
            -2.1085,
            1.29,
            1.29,
            -1.7,
            0.38,
            1.35,
            0.08
        ],
        "bact": [
            1.6047874689102173,
            0.3224230408668518,
            -0.00488519761711359,
            0.04885197803378105,
            -0.02198338881134987,
            -0.00488519761711359,
            -0.6350756883621216,
            -0.5178309679031372,
            0.00488519761711359,
            0.024425989016890526,
            -0.09281875938177109,
            -0.23693208396434784,
            -0.3468490242958069,
            0.0,
            0.09281875938177109,
            -0.23693208396434784,
            -0.39570102095603943,
            -0.07572057098150253,
            -0.21983389556407928,
            -0.4152418076992035,
            0.0977039560675621,
            0.3786028325557709,
            0.04152418300509453,
            -1.4338055849075317,
            -0.5080605745315552,
            0.8036150336265564,
            -0.6985832452774048,
            0.898876428604126,
            0.33463606238365173,
            -0.2589154839515686,
            -1.2677088975906372,
            -1.4802148342132568,
            0.0,
            0.0,
            0.08304836601018906,
            -1.797752857208252,
            2.044455051422119,
            -1.5095261335372925,
            -2.1128480434417725,
            1.2848069667816162,
            1.2848069667816162,
            -1.7073765993118286,
            0.37371763586997986,
            1.343429446220398,
            0.07572057098150253
        ]
    },
    "bpms": {
        "names": [
            "MB5L",
            "MB6L",
            "MB7L",
            "MB8L",
            "MB9L",
            "MB10L",
            "MB11L",
            "ML1L",
            "ML2L",
            "ML3L",
            "ML4L",
            "ML5L",
            "ML6L",
            "ML7L",
            "ML8L",
            "ML9L",
            "ML10L",
            "ML11L",
            "ML12L",
            "ML13L",
            "ML14L",
            "ML15L",
            "ML1T",
            "ML2T",
            "ML101T",
            "ML102T",
            "ML103T",
            "ML3T",
            "ML104T",
            "ML4T",
            "ML105T",
            "ML5T",
            "ML6T",
            "ML106T",
            "ML7T",
            "ML8T",
            "ML9T",
            "MB10T",
            "MB11T"
        ],
        "x": [
            [
                -1.157785177230835,
                0.5745818614959717,
                0.08708252757787704,
                -7.9748029708862305,
                1.4812754392623901,
                1.1823540925979614,
                0.02785629965364933,
                -2.3576364517211914,
                -0.6790783405303955,
                0.7797042727470398,
                -0.18551504611968994,
                -0.8460037112236023,
                0.6243888735771179,
                -0.9409878253936768,
                0.609491765499115,
                -6.353930473327637,
                -2.60866379737854,
                -0.774311900138855,
                -1.1975115537643433,
                -0.3631804883480072,
                -0.6566568613052368,
                -1.1217814683914185,
                -6.641035556793213,
                0.4635027348995209,
                -4.599454402923584,
                1.8270000219345093,
                0.7320321202278137,
                -0.7333666086196899,
                -1.575702428817749,
                -6.663936614990234,
                -6.994757175445557,
                -2.925607442855835,
                1.1759642362594604,
                -5.205000877380371,
                -1.4102764129638672,
                -2.151332378387451,
                -4.2129364013671875,
                2.8819451332092285,
                -3.3466687202453613
            ],
            [
                -1.144413948059082,
                0.6175691485404968,
                0.07539453357458115,
                -7.987298965454102,
                1.4103217124938965,
                1.171509861946106,
                0.010581779293715954,
                -2.3833839893341064,
                -0.6705819964408875,
                0.8373399972915649,
                -0.18932633101940155,
                -0.7142122387886047,
                0.629789412021637,
                -0.9382880926132202,
                0.6378807425498962,
                -6.3015899658203125,
                -2.703174352645874,
                -0.7967699766159058,
                -1.2311972379684448,
                -0.3817964494228363,
                -0.6527858972549438,
                -1.1416597366333008,
                -6.627204895019531,
                0.6530872583389282,
                -4.6941609382629395,
                1.7656748294830322,
                0.7540009617805481,
                -0.7462140917778015,
                -1.4473918676376343,
                -6.545590400695801,
                -7.055445671081543,
                -2.8703906536102295,
                0.3764454126358032,
                -5.1280741691589355,
                -1.3561663627624512,
                -2.147677183151245,
                -4.176557540893555,
                2.8296871185302734,
                -3.336761236190796
            ],
            [
                -1.1677186489105225,
                0.6345962285995483,
                0.14187218248844147,
                -7.956899642944336,
                1.4774754047393799,
                1.2185430526733398,
                0.033883798867464066,
                -2.388312816619873,
                -0.6953293681144714,
                0.7984551191329956,
                -0.1750686913728714,
                -0.6554982662200928,
                0.6354002952575684,
                -1.0019453763961792,
                0.6200839281082153,
                -6.316731929779053,
                -2.673079252243042,
                -0.7777144312858582,
                -1.2001184225082397,
                -0.3544510006904602,
                -0.5887622833251953,
                -1.1100457906723022,
                -6.621883869171143,
                0.8284096717834473,
                -4.631165027618408,
                1.771022081375122,
                0.7637929320335388,
                -0.6973543763160706,
                -1.399734616279602,
                -6.51261568069458,
                -7.036402225494385,
                -2.8725028038024902,
                0.7502726912498474,
                -5.0582356452941895,
                -1.2872234582901,
                -2.143402338027954,
                -4.083700180053711,
                2.8588597774505615,
                -3.322511911392212
            ]
        ],
        "y": [
            [
                -0.767742395401001,
                0.8142974972724915,
                3.1973955631256104,
                7.714460849761963,
                -4.676642894744873,
                -0.9108127355575562,
                0.2958928942680359,
                -0.9328036308288574,
                -0.8589510321617126,
                -1.5109730958938599,
                -0.22054293751716614,
                0.3148893117904663,
                -0.07842390239238739,
                -1.5570271015167236,
                -1.667439579963684,
                -1.6818506717681885,
                -0.43731990456581116,
                0.25787055492401123,
                -0.23283255100250244,
                -1.1425111293792725,
                0.6673574447631836,
                0.08144009113311768,
                -0.6644899845123291,
                -1.6015323400497437,
                -5.847488880157471,
                -4.266940593719482,
                2.797977924346924,
                -1.9822218418121338,
                0.8260995149612427,
                4.551942348480225,
                3.5864713191986084,
                1.561732292175293,
                2.3823559284210205,
                -3.2700371742248535,
                -1.1611164808273315,
                -3.50228214263916,
                -3.03228497505188,
                0.6567637324333191,
                1.1267849206924438
            ],
            [
                -0.7596589922904968,
                0.7566238045692444,
                3.123824119567871,
                7.666826248168945,
                -4.686532497406006,
                -0.8855368494987488,
                0.29822054505348206,
                -0.8674547076225281,
                -0.8103415966033936,
                -1.5163649320602417,
                -0.17224204540252686,
                0.3317943811416626,
                -0.052805617451667786,
                -1.5768218040466309,
                -1.6787693500518799,
                -1.7231054306030273,
                -0.5280577540397644,
                0.22899693250656128,
                -0.2017257958650589,
                -1.1689807176589966,
                0.6921729445457458,
                0.04939216375350952,
                -0.6619293093681335,
                -1.608391523361206,
                -5.8622212409973145,
                -4.279330253601074,
                2.7581493854522705,
                -2.0207295417785645,
                0.9164625406265259,
                4.304521083831787,
                2.7591426372528076,
                1.4247418642044067,
                1.9000521898269653,
                -3.362771987915039,
                -1.2713507413864136,
                -3.550086736679077,
                -3.021416187286377,
                0.6454206705093384,
                0.970508337020874
            ],
            [
                -0.7683035731315613,
                0.7226737141609192,
                3.140195608139038,
                7.672910213470459,
                -4.681870460510254,
                -0.895067036151886,
                0.2931833565235138,
                -0.8776702284812927,
                -0.7492006421089172,
                -1.4741588830947876,
                -0.07819728553295135,
                0.3592134416103363,
                -0.054279301315546036,
                -1.6427342891693115,
                -1.7181892395019531,
                -1.7299598455429077,
                -0.48346826434135437,
                0.21768905222415924,
                -0.19971714913845062,
                -1.1493566036224365,
                0.6822267770767212,
                0.07977508753538132,
                -0.6701930165290833,
                -1.6126000881195068,
                -5.864815711975098,
                -4.26214075088501,
                2.8015263080596924,
                -2.012160301208496,
                0.9484015703201294,
                4.706209182739258,
                2.9246084690093994,
                1.4700901508331299,
                2.125182867050171,
                -3.4766504764556885,
                -1.3888697624206543,
                -3.5033392906188965,
                -2.974245071411133,
                0.6603888273239136,
                0.8467347621917725
            ]
        ],
        "tmit": [
            [
                0.7715826630592346,
                0.9093107581138611,
                0.8954785466194153,
                0.930815577507019,
                0.9540340900421143,
                0.8166313171386719,
                0.9236077666282654,
                0.5990731716156006,
                0.8878722786903381,
                1.3799270391464233,
                0.8438459038734436,
                1.3526476621627808,
                1.8233760595321655,
                0.9125692844390869,
                0.9638411402702332,
                0.9132055640220642,
                0.6960443258285522,
                0.9014270901679993,
                0.739937961101532,
                0.547731339931488,
                0.5137935280799866,
                0.5244733095169067,
                0.4719591438770294,
                0.43087056279182434,
                0.10143905133008957,
                0.22936750948429108,
                0.26188212633132935,
                0.26503482460975647,
                0.25071096420288086,
                0.2715047597885132,
                0.30077776312828064,
                0.882731556892395,
                0.2548319101333618,
                0.29344138503074646,
                0.1536746472120285,
                0.10074001550674438,
                0.2128424048423767,
                0.19765932857990265,
                0.222638338804245
            ],
            [
                0.7640157341957092,
                0.8996833562850952,
                0.8876110911369324,
                0.9226250052452087,
                0.9454486966133118,
                0.8092634677886963,
                0.9146367311477661,
                0.5935167670249939,
                0.8807193040847778,
                1.3695790767669678,
                0.837661862373352,
                1.3574304580688477,
                1.8149304389953613,
                0.9008416533470154,
                0.9568160176277161,
                0.9074900150299072,
                0.6918878555297852,
                0.8919385671615601,
                0.7343727946281433,
                0.5426463484764099,
                0.5091648697853088,
                0.5182375907897949,
                0.46741724014282227,
                0.42699530720710754,
                0.10352631658315659,
                0.23342815041542053,
                0.26713448762893677,
                0.2680746614933014,
                0.2547231614589691,
                0.27474209666252136,
                0.29686203598976135,
                0.8913506865501404,
                0.28167396783828735,
                0.2871340811252594,
                0.1517554670572281,
                0.10260304063558578,
                0.21658962965011597,
                0.20060110092163086,
                0.22608642280101776
            ],
            [
                0.7537369728088379,
                0.8882738351821899,
                0.8760729432106018,
                0.9092358946800232,
                0.9339048266410828,
                0.7991390228271484,
                0.9038729071617126,
                0.5904384851455688,
                0.8723033666610718,
                1.3590651750564575,
                0.8270909190177917,
                1.3420621156692505,
                1.798962950706482,
                0.8882055878639221,
                0.9462718963623047,
                0.8937304019927979,
                0.6821362972259521,
                0.8778320550918579,
                0.7271799445152283,
                0.5372669696807861,
                0.5028941631317139,
                0.5110905766487122,
                0.4565039873123169,
                0.4197008013725281,
                0.10535267740488052,
                0.2370421290397644,
                0.2717808485031128,
                0.2736332416534424,
                0.259464830160141,
                0.272763729095459,
                0.2999533712863922,
                0.9155919551849365,
                0.28018274903297424,
                0.2813335955142975,
                0.1496230661869049,
                0.10472603142261505,
                0.2207590788602829,
                0.20380094647407532,
                0.22973735630512238
            ]
        ]
    },
    "icts": {
        "names": [
            "gun:GUNcharge",
            "l0:L0charge",
            "linacbt:LNEcharge",
            "linacbt:BTMcharge",
            "ext:EXTcharge",
            "linacbt:BTEcharge",
            "BIM:DR:nparticles",
            "BIM:IP:nparticles"
        ],
        "charge": [
            0.499180762435,
            0.548343595,
            0.38803666666666664,
            0.34211,
            0.0074876524508333325,
            0.2913525,
            -0.007794413715600967,
            -0.0003566009982023388
        ]
    },
    "hcorrectors_names": [
        "ZH1L",
        "ZH2L",
        "ZH3L",
        "ZH4L",
        "ZH5L",
        "ZH6L",
        "ZH7L",
        "ZH8L",
        "ZH9L",
        "ZH10L",
        "ZH11L",
        "ZH12L",
        "ZH30T",
        "ZH40T",
        "ZH50T"
    ],
    "vcorrectors_names": [
        "ZV1L",
        "ZV2L",
        "ZV3L",
        "ZV4L",
        "ZV5L",
        "ZV6L",
        "ZV7L",
        "ZV8L",
        "ZV9L",
        "ZV10L",
        "ZV11L",
        "ZV12L",
        "ZV13L",
        "ZV30T",
        "ZV40T",
        "ZV50T",
        "ZV51T"
    ],
    "timestamp": "2024/05/24, 15:11:48"
}