{
    "sequence": [
        "MB5L",
        "MB6L",
        "MB7L",
        "ZH1L",
        "ZV1L",
        "MB8L",
        "MB9L",
        "MB10L",
        "ZV2L",
        "ZH2L",
        "MB11L",
        "ML1L",
        "ML2L",
        "ZV3L",
        "ZH3L",
        "ML3L",
        "ZH4L",
        "ZV4L",
        "ZH5L",
        "ZV5L",
        "ML4L",
        "ZH6L",
        "ZV6L",
        "ML5L",
        "ZH7L",
        "ZV7L",
        "ML6L",
        "ZH8L",
        "ZV8L",
        "ML7L",
        "ZH9L",
        "ML8L",
        "ZV9L",
        "ML9L",
        "ZH10L",
        "ML10L",
        "ZV10L",
        "ML11L",
        "ZH11L",
        "ML12L",
        "ZV11L",
        "ML13L",
        "ZH12L",
        "ML14L",
        "ZV12L",
        "ML15L",
        "ZX10T",
        "ZX11T",
        "ML1T",
        "ZV13L",
        "ZX12T",
        "ML2T",
        "ZY20T",
        "ZY21T",
        "ML101T",
        "ML102T",
        "ZY22T",
        "ZY23T",
        "ML103T",
        "ZX30T",
        "ML3T",
        "ZX31T",
        "ZV30T",
        "ZH30T",
        "ML104T",
        "ZX32T",
        "ML4T",
        "ML105T",
        "ZV40T",
        "ZH40T",
        "ML5T",
        "ML6T",
        "ZX50T",
        "ML106T",
        "ZX50T",
        "ML7T",
        "ZX51T",
        "ZV50T",
        "ML8T",
        "ZH50T",
        "ZV51T",
        "ML9T",
        "MB10T",
        "MB11T"
    ],
    "correctors": {
        "names": [
            "ZH1L",
            "ZV1L",
            "ZV2L",
            "ZH2L",
            "ZV3L",
            "ZH3L",
            "ZH4L",
            "ZV4L",
            "ZH5L",
            "ZV5L",
            "ZH6L",
            "ZV6L",
            "ZH7L",
            "ZV7L",
            "ZH8L",
            "ZV8L",
            "ZH9L",
            "ZV9L",
            "ZH10L",
            "ZV10L",
            "ZH11L",
            "ZV11L",
            "ZH12L",
            "ZV12L",
            "ZX10T",
            "ZX11T",
            "ZV13L",
            "ZX12T",
            "ZY20T",
            "ZY21T",
            "ZY22T",
            "ZY23T",
            "ZX30T",
            "ZX31T",
            "ZV30T",
            "ZH30T",
            "ZX32T",
            "ZV40T",
            "ZH40T",
            "ZX50T",
            "ZX50T",
            "ZX51T",
            "ZV50T",
            "ZH50T",
            "ZV51T"
        ],
        "bdes": [
            1.6058,
            0.32324,
            -3.694e-05,
            0.05,
            -0.018255,
            -0.1405489409773765,
            -0.63212,
            -0.51377,
            0.0067611,
            0.025597,
            -0.089344,
            -0.23399,
            -0.34279,
            0.0008922,
            0.095066,
            -0.1336,
            -0.39271,
            -0.072191,
            -0.21644,
            -0.41065,
            0.09808,
            0.37969,
            0.043499,
            -1.4308,
            -0.5,
            0.81,
            -0.69,
            0.9,
            0.34,
            -0.25,
            -1.26,
            -1.47,
            0.0,
            0.0,
            0.09,
            -1.79,
            2.05,
            -1.5,
            -2.1085,
            1.29,
            1.29,
            -1.7,
            0.38,
            1.35,
            0.08
        ],
        "bact": [
            1.6047874689102173,
            0.3224230408668518,
            -0.00488519761711359,
            0.04885197803378105,
            -0.02198338881134987,
            -0.14411333203315735,
            -0.6350756883621216,
            -0.5178309679031372,
            0.00488519761711359,
            0.024425989016890526,
            -0.09281875938177109,
            -0.23693208396434784,
            -0.3468490242958069,
            0.0,
            0.09281875938177109,
            -0.13678553700447083,
            -0.39570102095603943,
            -0.07572057098150253,
            -0.21983389556407928,
            -0.4152418076992035,
            0.0977039560675621,
            0.3786028325557709,
            0.04152418300509453,
            -1.4338055849075317,
            -0.5080605745315552,
            0.8036150336265564,
            -0.6985832452774048,
            0.898876428604126,
            0.33463606238365173,
            -0.2589154839515686,
            -1.2677088975906372,
            -1.4802148342132568,
            0.0,
            0.0,
            0.08304836601018906,
            -1.797752857208252,
            2.044455051422119,
            -1.5095261335372925,
            -2.1128480434417725,
            1.2848069667816162,
            1.2848069667816162,
            -1.7073765993118286,
            0.37371763586997986,
            1.343429446220398,
            0.07572057098150253
        ]
    },
    "bpms": {
        "names": [
            "MB5L",
            "MB6L",
            "MB7L",
            "MB8L",
            "MB9L",
            "MB10L",
            "MB11L",
            "ML1L",
            "ML2L",
            "ML3L",
            "ML4L",
            "ML5L",
            "ML6L",
            "ML7L",
            "ML8L",
            "ML9L",
            "ML10L",
            "ML11L",
            "ML12L",
            "ML13L",
            "ML14L",
            "ML15L",
            "ML1T",
            "ML2T",
            "ML101T",
            "ML102T",
            "ML103T",
            "ML3T",
            "ML104T",
            "ML4T",
            "ML105T",
            "ML5T",
            "ML6T",
            "ML106T",
            "ML7T",
            "ML8T",
            "ML9T",
            "MB10T",
            "MB11T"
        ],
        "x": [
            [
                -1.128483772277832,
                0.6203939318656921,
                0.09913625568151474,
                -7.9701948165893555,
                1.4765658378601074,
                1.1912051439285278,
                0.016824504360556602,
                -2.384425401687622,
                -0.6913707256317139,
                0.4363373816013336,
                -0.31472519040107727,
                -0.6222837567329407,
                0.6560549139976501,
                -1.542156457901001,
                0.06102912500500679,
                -6.6863112449646,
                -3.5772759914398193,
                -0.5427555441856384,
                -0.3797382414340973,
                0.2128925621509552,
                0.572568416595459,
                -0.32214948534965515,
                -6.544189453125,
                0.5138090252876282,
                -4.404330730438232,
                1.9809534549713135,
                1.1978085041046143,
                -0.7990188002586365,
                -0.6026736497879028,
                -6.33239221572876,
                -7.218465805053711,
                -2.8705050945281982,
                0.5104559063911438,
                -5.2744245529174805,
                -1.5868310928344727,
                -2.5672197341918945,
                -4.283570766448975,
                3.204538106918335,
                -3.450657606124878
            ],
            [
                -1.1500171422958374,
                0.7192577123641968,
                0.14721904695034027,
                -7.974951267242432,
                1.4502238035202026,
                1.151694416999817,
                -0.0035120260436087847,
                -2.452561140060425,
                -0.645378589630127,
                0.48761463165283203,
                -0.34504154324531555,
                -0.45126157999038696,
                0.6841774582862854,
                -1.530390977859497,
                0.06915174424648285,
                -6.637269496917725,
                -3.7038931846618652,
                -0.56775963306427,
                -0.2988215386867523,
                0.24085870385169983,
                0.6805835366249084,
                -0.21928322315216064,
                -6.574014663696289,
                0.08932391554117203,
                -4.5446648597717285,
                2.0690767765045166,
                1.2270127534866333,
                -0.918864369392395,
                -0.7938475608825684,
                -6.488664627075195,
                -7.184287071228027,
                -2.871157169342041,
                0.05943403020501137,
                -5.441802501678467,
                -1.76233971118927,
                -2.6498587131500244,
                -4.442612171173096,
                3.346639394760132,
                -3.5798590183258057
            ],
            [
                -1.171229362487793,
                0.6691203117370605,
                0.05609871819615364,
                -8.043990135192871,
                1.4274001121520996,
                1.1361442804336548,
                -0.007169026415795088,
                -2.4412710666656494,
                -0.6167322397232056,
                0.5562776327133179,
                -0.3159613609313965,
                -0.4619928002357483,
                0.6863484978675842,
                -1.5512566566467285,
                0.12521186470985413,
                -6.694978713989258,
                -3.661670684814453,
                -0.5635769367218018,
                -0.3108671307563782,
                0.2621106207370758,
                0.6338514089584351,
                -0.2655881941318512,
                -6.579311370849609,
                0.2574337422847748,
                -4.596485614776611,
                2.0976357460021973,
                1.3348884582519531,
                -0.860852062702179,
                -0.8519835472106934,
                -6.6020002365112305,
                -7.186745643615723,
                -2.850017786026001,
                0.47961315512657166,
                -5.390835762023926,
                -1.7382386922836304,
                -2.6817798614501953,
                -4.525064468383789,
                3.3561699390411377,
                -3.5180492401123047
            ]
        ],
        "y": [
            [
                -0.7352509498596191,
                0.7477700114250183,
                3.118748426437378,
                7.702560901641846,
                -4.697192192077637,
                -0.875590980052948,
                0.2863360643386841,
                -0.894496738910675,
                -0.7996619343757629,
                -1.5082820653915405,
                -0.1776585876941681,
                0.3166585862636566,
                -0.05355894938111305,
                -1.5239084959030151,
                -0.8751524090766907,
                0.36192020773887634,
                0.4608246386051178,
                1.5554105043411255,
                0.44273072481155396,
                -0.6347283720970154,
                0.6987279057502747,
                -0.10999505966901779,
                -0.6965012550354004,
                -1.4829084873199463,
                -4.897520065307617,
                -3.5945658683776855,
                1.759687900543213,
                -1.4678438901901245,
                -0.5031984448432922,
                4.605670928955078,
                3.0547566413879395,
                1.9025118350982666,
                2.730961561203003,
                -3.0311391353607178,
                -0.32768818736076355,
                -2.519684314727783,
                -1.7264866828918457,
                0.08986321091651917,
                1.7367764711380005
            ],
            [
                -0.7236757874488831,
                0.7687167525291443,
                3.127863883972168,
                7.691030979156494,
                -4.752678871154785,
                -0.8710775971412659,
                0.325630784034729,
                -0.8887197971343994,
                -0.8174329400062561,
                -1.534095287322998,
                -0.20509085059165955,
                0.28736183047294617,
                -0.07195545732975006,
                -1.5882830619812012,
                -0.8843321204185486,
                0.40554994344711304,
                0.615464448928833,
                1.616507887840271,
                0.4481183886528015,
                -0.6483975648880005,
                0.7323814630508423,
                -0.11181916296482086,
                -0.685568630695343,
                -1.4680800437927246,
                -4.995023727416992,
                -3.598144769668579,
                1.8076244592666626,
                -1.5608347654342651,
                -0.5010527968406677,
                4.816874980926514,
                2.233341693878174,
                1.2184040546417236,
                2.6456801891326904,
                -2.803281307220459,
                -0.059893861413002014,
                -2.579132318496704,
                -1.7564224004745483,
                0.10975310951471329,
                2.098327159881592
            ],
            [
                -0.745800256729126,
                0.7598389983177185,
                3.1005871295928955,
                7.642890930175781,
                -4.769817352294922,
                -0.9172947406768799,
                0.2988051176071167,
                -0.8432536721229553,
                -0.7513300776481628,
                -1.4838495254516602,
                -0.09385877102613449,
                0.34782639145851135,
                -0.05039067566394806,
                -1.5990650653839111,
                -0.919849157333374,
                0.3151589035987854,
                0.5663874745368958,
                1.5830943584442139,
                0.46557047963142395,
                -0.6741089820861816,
                0.7170652747154236,
                -0.11566121131181717,
                -0.684354305267334,
                -1.4782960414886475,
                -4.987505912780762,
                -3.604947328567505,
                1.9072442054748535,
                -1.4888535737991333,
                -0.3912959098815918,
                4.437231540679932,
                1.8611654043197632,
                2.018977165222168,
                2.7352893352508545,
                -2.864168405532837,
                -0.1798076182603836,
                -2.5727226734161377,
                -1.8475571870803833,
                -0.018853213638067245,
                1.8802759647369385
            ]
        ],
        "tmit": [
            [
                0.7464955449104309,
                0.8818567395210266,
                0.8687564730644226,
                0.9016830921173096,
                0.9242591857910156,
                0.7927674651145935,
                0.8966521620750427,
                0.585418701171875,
                0.8640397191047668,
                1.3554511070251465,
                0.82230544090271,
                1.3234750032424927,
                1.7960410118103027,
                0.878765344619751,
                0.9422173500061035,
                0.8871679902076721,
                0.6596305966377258,
                0.8607437014579773,
                0.726481556892395,
                0.5340017080307007,
                0.49776691198349,
                0.5089025497436523,
                0.44691550731658936,
                0.41605350375175476,
                0.06743397563695908,
                0.16208264231681824,
                0.18218719959259033,
                0.18773606419563293,
                0.1808013617992401,
                0.16233451664447784,
                0.22019661962985992,
                0.7674509882926941,
                0.22836264967918396,
                0.28026360273361206,
                0.14930321276187897,
                0.0698050782084465,
                0.15378402173519135,
                0.14207513630390167,
                0.1597614288330078
            ],
            [
                0.7257080078125,
                0.8597618937492371,
                0.8480336666107178,
                0.881466269493103,
                0.9053024649620056,
                0.7738160490989685,
                0.8768888115882874,
                0.5736021399497986,
                0.8492370247840881,
                1.3360828161239624,
                0.8080646991729736,
                1.3153914213180542,
                1.7705333232879639,
                0.8559429049491882,
                0.925563633441925,
                0.872138261795044,
                0.6438260078430176,
                0.8457327485084534,
                0.7144713997840881,
                0.5258715748786926,
                0.48950910568237305,
                0.4994423985481262,
                0.4376424252986908,
                0.40539664030075073,
                0.05808475241065025,
                0.13913999497890472,
                0.15693533420562744,
                0.15742455422878265,
                0.15399256348609924,
                0.14273063838481903,
                0.20061808824539185,
                0.6861081123352051,
                0.1989109367132187,
                0.2760399878025055,
                0.14599798619747162,
                0.06001334264874458,
                0.1318284571170807,
                0.12070851773023605,
                0.1354219913482666
            ],
            [
                0.7226492166519165,
                0.8498488068580627,
                0.8393926024436951,
                0.8734175562858582,
                0.8968320488929749,
                0.7675071358680725,
                0.8688655495643616,
                0.5702800750732422,
                0.8436132073402405,
                1.3281484842300415,
                0.8001636266708374,
                1.3101511001586914,
                1.7634949684143066,
                0.8538357615470886,
                0.9175347089767456,
                0.8609189391136169,
                0.6382606625556946,
                0.8351960778236389,
                0.7087175250053406,
                0.5215047597885132,
                0.4834361970424652,
                0.4937266707420349,
                0.4327220022678375,
                0.40203431248664856,
                0.06069383770227432,
                0.14527156949043274,
                0.16279377043247223,
                0.16515441238880157,
                0.16043639183044434,
                0.1488455981016159,
                0.20721296966075897,
                0.7178911566734314,
                0.19182759523391724,
                0.2722668945789337,
                0.14429204165935516,
                0.06248294189572334,
                0.13742290437221527,
                0.12845005095005035,
                0.1411011964082718
            ]
        ]
    },
    "icts": {
        "names": [
            "gun:GUNcharge",
            "l0:L0charge",
            "linacbt:LNEcharge",
            "linacbt:BTMcharge",
            "ext:EXTcharge",
            "linacbt:BTEcharge",
            "BIM:DR:nparticles",
            "BIM:IP:nparticles"
        ],
        "charge": [
            0.51514560989,
            0.5748568825000001,
            0.4015483333333333,
            0.26585000000000003,
            0.0066640502775000025,
            0.21413618055555556,
            -0.007794413715600967,
            8.91502495505847e-05
        ]
    },
    "hcorrectors_names": [
        "ZH1L",
        "ZH2L",
        "ZH3L",
        "ZH4L",
        "ZH5L",
        "ZH6L",
        "ZH7L",
        "ZH8L",
        "ZH9L",
        "ZH10L",
        "ZH11L",
        "ZH12L",
        "ZH30T",
        "ZH40T",
        "ZH50T"
    ],
    "vcorrectors_names": [
        "ZV1L",
        "ZV2L",
        "ZV3L",
        "ZV4L",
        "ZV5L",
        "ZV6L",
        "ZV7L",
        "ZV8L",
        "ZV9L",
        "ZV10L",
        "ZV11L",
        "ZV12L",
        "ZV13L",
        "ZV30T",
        "ZV40T",
        "ZV50T",
        "ZV51T"
    ],
    "timestamp": "2024/05/24, 15:14:13"
}