{
    "sequence": [
        "MB5L",
        "MB6L",
        "MB7L",
        "ZH1L",
        "ZV1L",
        "MB8L",
        "MB9L",
        "MB10L",
        "ZV2L",
        "ZH2L",
        "MB11L",
        "ML1L",
        "ML2L",
        "ZV3L",
        "ZH3L",
        "ML3L",
        "ZH4L",
        "ZV4L",
        "ZH5L",
        "ZV5L",
        "ML4L",
        "ZH6L",
        "ZV6L",
        "ML5L",
        "ZH7L",
        "ZV7L",
        "ML6L",
        "ZH8L",
        "ZV8L",
        "ML7L",
        "ZH9L",
        "ML8L",
        "ZV9L",
        "ML9L",
        "ZH10L",
        "ML10L",
        "ZV10L",
        "ML11L",
        "ZH11L",
        "ML12L",
        "ZV11L",
        "ML13L",
        "ZH12L",
        "ML14L",
        "ZV12L",
        "ML15L",
        "ZX10T",
        "ZX11T",
        "ML1T",
        "ZV13L",
        "ZX12T",
        "ML2T",
        "ZY20T",
        "ZY21T",
        "ML101T",
        "ML102T",
        "ZY22T",
        "ZY23T",
        "ML103T",
        "ZX30T",
        "ML3T",
        "ZX31T",
        "ZV30T",
        "ZH30T",
        "ML104T",
        "ZX32T",
        "ML4T",
        "ML105T",
        "ZV40T",
        "ZH40T",
        "ML5T",
        "ML6T",
        "ZX50T",
        "ML106T",
        "ZX50T",
        "ML7T",
        "ZX51T",
        "ZV50T",
        "ML8T",
        "ZH50T",
        "ZV51T",
        "ML9T",
        "MB10T",
        "MB11T"
    ],
    "correctors": {
        "names": [
            "ZH1L",
            "ZV1L",
            "ZV2L",
            "ZH2L",
            "ZV3L",
            "ZH3L",
            "ZH4L",
            "ZV4L",
            "ZH5L",
            "ZV5L",
            "ZH6L",
            "ZV6L",
            "ZH7L",
            "ZV7L",
            "ZH8L",
            "ZV8L",
            "ZH9L",
            "ZV9L",
            "ZH10L",
            "ZV10L",
            "ZH11L",
            "ZV11L",
            "ZH12L",
            "ZV12L",
            "ZX10T",
            "ZX11T",
            "ZV13L",
            "ZX12T",
            "ZY20T",
            "ZY21T",
            "ZY22T",
            "ZY23T",
            "ZX30T",
            "ZX31T",
            "ZV30T",
            "ZH30T",
            "ZX32T",
            "ZV40T",
            "ZH40T",
            "ZX50T",
            "ZX50T",
            "ZX51T",
            "ZV50T",
            "ZH50T",
            "ZV51T"
        ],
        "bdes": [
            1.6058,
            0.32324,
            -3.694e-05,
            0.05,
            -0.018255,
            0.09765750000000001,
            -0.63212,
            -0.51377,
            0.0067611,
            0.025597,
            -0.089344,
            -0.23399,
            -0.34279,
            0.0008922,
            0.095066,
            -0.1336,
            -0.39271,
            -0.072191,
            -0.21644,
            -0.41065,
            0.09808,
            0.37969,
            0.043499,
            -1.4308,
            -0.5,
            0.81,
            -0.69,
            0.9,
            0.34,
            -0.25,
            -1.26,
            -1.47,
            0.0,
            0.0,
            0.09,
            -1.79,
            2.05,
            -1.5,
            -2.1085,
            1.29,
            1.29,
            -1.7,
            0.38,
            1.35,
            0.08
        ],
        "bact": [
            1.6047874689102173,
            0.3224230408668518,
            -0.00488519761711359,
            0.04885197803378105,
            -0.02198338881134987,
            0.0952613577246666,
            -0.6350756883621216,
            -0.5178309679031372,
            0.00488519761711359,
            0.024425989016890526,
            -0.09281875938177109,
            -0.23693208396434784,
            -0.3468490242958069,
            0.0,
            0.09281875938177109,
            -0.13678553700447083,
            -0.39570102095603943,
            -0.07572057098150253,
            -0.21983389556407928,
            -0.4152418076992035,
            0.0977039560675621,
            0.3786028325557709,
            0.04152418300509453,
            -1.4338055849075317,
            -0.5080605745315552,
            0.8036150336265564,
            -0.6985832452774048,
            0.898876428604126,
            0.33463606238365173,
            -0.2589154839515686,
            -1.2677088975906372,
            -1.4802148342132568,
            0.0,
            0.0,
            0.08304836601018906,
            -1.797752857208252,
            2.044455051422119,
            -1.5095261335372925,
            -2.1128480434417725,
            1.2848069667816162,
            1.2848069667816162,
            -1.7073765993118286,
            0.37371763586997986,
            1.343429446220398,
            0.07572057098150253
        ]
    },
    "bpms": {
        "names": [
            "MB5L",
            "MB6L",
            "MB7L",
            "MB8L",
            "MB9L",
            "MB10L",
            "MB11L",
            "ML1L",
            "ML2L",
            "ML3L",
            "ML4L",
            "ML5L",
            "ML6L",
            "ML7L",
            "ML8L",
            "ML9L",
            "ML10L",
            "ML11L",
            "ML12L",
            "ML13L",
            "ML14L",
            "ML15L",
            "ML1T",
            "ML2T",
            "ML101T",
            "ML102T",
            "ML103T",
            "ML3T",
            "ML104T",
            "ML4T",
            "ML105T",
            "ML5T",
            "ML6T",
            "ML106T",
            "ML7T",
            "ML8T",
            "ML9T",
            "MB10T",
            "MB11T"
        ],
        "x": [
            [
                -1.1642621755599976,
                0.6521064639091492,
                0.11474446952342987,
                -7.946475505828857,
                1.4650095701217651,
                1.1918188333511353,
                -0.0073168957605957985,
                -2.37591552734375,
                -0.6751009225845337,
                1.0250465869903564,
                -0.052352629601955414,
                -0.8544929027557373,
                0.5853160619735718,
                -0.5275112390518188,
                1.030187964439392,
                -5.845753192901611,
                -1.7892351150512695,
                -0.9892920255661011,
                -2.006179094314575,
                -0.8407241106033325,
                -1.7341184616088867,
                -1.8507354259490967,
                -6.644687652587891,
                0.6855276226997375,
                -5.022789478302002,
                1.5008976459503174,
                0.6350709795951843,
                -0.4428204894065857,
                -1.370756983757019,
                -6.342342853546143,
                -7.031008720397949,
                -2.8103270530700684,
                0.9726598858833313,
                -4.984391212463379,
                -1.0492910146713257,
                -1.7713392972946167,
                -3.701301097869873,
                2.3016765117645264,
                -3.3095791339874268
            ],
            [
                -1.1253606081008911,
                0.6825627088546753,
                0.1474955976009369,
                -7.948686599731445,
                1.4484752416610718,
                1.1650224924087524,
                0.04289427772164345,
                -2.4318573474884033,
                -0.6670257449150085,
                0.9999855160713196,
                -0.039733342826366425,
                -0.8835256099700928,
                0.5974876284599304,
                -0.5816128253936768,
                1.0394282341003418,
                -5.93311071395874,
                -1.9436280727386475,
                -0.983991801738739,
                -1.94334077835083,
                -0.816599428653717,
                -1.653461217880249,
                -1.8057760000228882,
                -6.665387153625488,
                0.527931272983551,
                -5.12932014465332,
                1.5728743076324463,
                0.5541648268699646,
                -0.49734923243522644,
                -1.4496344327926636,
                -6.68696403503418,
                -7.118039608001709,
                -2.851555585861206,
                1.3333044052124023,
                -5.145018577575684,
                -1.1253809928894043,
                -1.8097978830337524,
                -3.9344253540039062,
                2.46598482131958,
                -3.3373520374298096
            ],
            [
                -1.1234880685806274,
                0.7020179629325867,
                0.12299896776676178,
                -7.915717124938965,
                1.4763725996017456,
                1.1937553882598877,
                0.03138464689254761,
                -2.3842782974243164,
                -0.6878027319908142,
                1.052390456199646,
                -0.05536969378590584,
                -0.9045171737670898,
                0.5723717212677002,
                -0.5146071910858154,
                1.04412043094635,
                -5.909060001373291,
                -1.863646388053894,
                -0.9849593639373779,
                -1.9558491706848145,
                -0.8355372548103333,
                -1.6761201620101929,
                -1.8049699068069458,
                -6.661922454833984,
                0.4593290090560913,
                -5.222975254058838,
                1.5832942724227905,
                0.5254774689674377,
                -0.4946320354938507,
                -1.4677237272262573,
                -6.469377040863037,
                -6.9958391189575195,
                -2.8318419456481934,
                0.4558265805244446,
                -5.1461005210876465,
                -1.1356141567230225,
                -1.7891439199447632,
                -3.8664186000823975,
                2.416343927383423,
                -3.2867109775543213
            ]
        ],
        "y": [
            [
                -0.7897994518280029,
                0.7049241065979004,
                3.064286708831787,
                7.64818000793457,
                -4.691205024719238,
                -0.908525288105011,
                0.30585119128227234,
                -0.8699582815170288,
                -0.8266476392745972,
                -1.5059181451797485,
                -0.1887243539094925,
                0.3280922770500183,
                -0.05550048127770424,
                -1.471276879310608,
                -0.8497783541679382,
                0.32222968339920044,
                0.2746812403202057,
                1.5131714344024658,
                0.4234793782234192,
                -0.6257111430168152,
                0.6886565685272217,
                -0.11447147279977798,
                -0.5964440703392029,
                -1.4229590892791748,
                -4.927432060241699,
                -3.624751091003418,
                1.7562907934188843,
                -1.4976340532302856,
                -0.37641218304634094,
                4.861949443817139,
                3.7859385013580322,
                1.7960127592086792,
                3.1060268878936768,
                -2.8243415355682373,
                -0.24353334307670593,
                -2.567993402481079,
                -1.7269734144210815,
                0.07359019666910172,
                1.7306275367736816
            ],
            [
                -0.688768208026886,
                0.6989249587059021,
                3.009904623031616,
                7.627130508422852,
                -4.727426528930664,
                -0.8796117305755615,
                0.34617361426353455,
                -0.8893850445747375,
                -0.7782204747200012,
                -1.4961003065109253,
                -0.1996401995420456,
                0.2962469458580017,
                -0.06831283867359161,
                -1.4832284450531006,
                -0.8842370510101318,
                0.3489113450050354,
                0.25575003027915955,
                1.552951455116272,
                0.42043980956077576,
                -0.6581991314888,
                0.7149282097816467,
                -0.16157211363315582,
                -0.514286458492279,
                -1.425444483757019,
                -4.955860614776611,
                -3.5587453842163086,
                1.8700833320617676,
                -1.4655689001083374,
                -0.542141854763031,
                5.1220526695251465,
                3.71294903755188,
                1.7133073806762695,
                3.3796427249908447,
                -2.7538938522338867,
                -0.11643374711275101,
                -2.59264874458313,
                -1.8076527118682861,
                0.03801058232784271,
                1.8137762546539307
            ],
            [
                -0.7697809338569641,
                0.7195974588394165,
                3.112793445587158,
                7.67698860168457,
                -4.674095630645752,
                -0.8666859269142151,
                0.3238149881362915,
                -0.9079937934875488,
                -0.8395829796791077,
                -1.5299153327941895,
                -0.25358763337135315,
                0.29704800248146057,
                -0.07345669716596603,
                -1.4516419172286987,
                -0.8192657232284546,
                0.32488298416137695,
                0.24713455140590668,
                1.5334393978118896,
                0.39868566393852234,
                -0.6345717310905457,
                0.665786862373352,
                -0.1276588886976242,
                -0.5890589356422424,
                -1.4511605501174927,
                -4.964019298553467,
                -3.6138641834259033,
                1.7511614561080933,
                -1.4676822423934937,
                -0.46102192997932434,
                5.084967613220215,
                2.806581974029541,
                1.6725269556045532,
                2.659209966659546,
                -2.7404634952545166,
                -0.0900329202413559,
                -2.585698127746582,
                -1.7495766878128052,
                0.025906050577759743,
                1.805722951889038
            ]
        ],
        "tmit": [
            [
                0.7723413109779358,
                0.9093593955039978,
                0.8982869982719421,
                0.9338117837905884,
                0.957554042339325,
                0.8187798261642456,
                0.9255064725875854,
                0.5993567705154419,
                0.8882817029953003,
                1.3770426511764526,
                0.8444090485572815,
                1.3625520467758179,
                1.824907660484314,
                0.9127525687217712,
                0.9688140153884888,
                0.8998692035675049,
                0.7119240760803223,
                0.8905580043792725,
                0.7282335162162781,
                0.5444392561912537,
                0.5137069225311279,
                0.5220892429351807,
                0.4785827696323395,
                0.4308135211467743,
                0.06673821806907654,
                0.1654529571533203,
                0.18531844019889832,
                0.18834403157234192,
                0.18590779602527618,
                0.17492416501045227,
                0.20865559577941895,
                0.687724232673645,
                0.24513892829418182,
                0.288035124540329,
                0.15431436896324158,
                0.07097488641738892,
                0.15547290444374084,
                0.14176549017429352,
                0.1612488478422165
            ],
            [
                0.7550134062767029,
                0.8891745209693909,
                0.8760874271392822,
                0.9089522361755371,
                0.933260440826416,
                0.799078643321991,
                0.9039768576622009,
                0.5910330414772034,
                0.8712935447692871,
                1.357086420059204,
                0.8298830389976501,
                1.341476559638977,
                1.8015097379684448,
                0.8917254209518433,
                0.9504578709602356,
                0.8723499178886414,
                0.6996737718582153,
                0.8710615038871765,
                0.7165341973304749,
                0.532943069934845,
                0.5013233423233032,
                0.5110427737236023,
                0.467543363571167,
                0.4200426936149597,
                0.06173747032880783,
                0.15355528891086578,
                0.17148041725158691,
                0.1724500209093094,
                0.17052769660949707,
                0.1596367359161377,
                0.19711457192897797,
                0.650015652179718,
                0.20413021743297577,
                0.27958786487579346,
                0.15084919333457947,
                0.06612234562635422,
                0.14180345833301544,
                0.1287081092596054,
                0.14894388616085052
            ],
            [
                0.7690570950508118,
                0.9060090780258179,
                0.8977973461151123,
                0.9316984415054321,
                0.9540984630584717,
                0.8157437443733215,
                0.9237921833992004,
                0.5989782214164734,
                0.8888550996780396,
                1.3781087398529053,
                0.8432102203369141,
                1.357116460800171,
                1.824716567993164,
                0.9120725393295288,
                0.9671527147293091,
                0.8960588574409485,
                0.7126622200012207,
                0.8899315595626831,
                0.7307872772216797,
                0.5447018146514893,
                0.5139298439025879,
                0.521267831325531,
                0.48085376620292664,
                0.43030065298080444,
                0.06217231974005699,
                0.15493589639663696,
                0.17511668801307678,
                0.1778348833322525,
                0.16973741352558136,
                0.16323378682136536,
                0.20412161946296692,
                0.6424739360809326,
                0.23880122601985931,
                0.2878098487854004,
                0.15378126502037048,
                0.06633897125720978,
                0.14349234104156494,
                0.13201116025447845,
                0.15002566576004028
            ]
        ]
    },
    "icts": {
        "names": [
            "gun:GUNcharge",
            "l0:L0charge",
            "linacbt:LNEcharge",
            "linacbt:BTMcharge",
            "ext:EXTcharge",
            "linacbt:BTEcharge",
            "BIM:DR:nparticles",
            "BIM:IP:nparticles"
        ],
        "charge": [
            0.5418154524,
            0.58646647,
            0.4159239583333333,
            0.26775000000000004,
            0.015470258130833331,
            0.22357645833333334,
            0.002762183081358671,
            0.013283386826515198
        ]
    },
    "hcorrectors_names": [
        "ZH1L",
        "ZH2L",
        "ZH3L",
        "ZH4L",
        "ZH5L",
        "ZH6L",
        "ZH7L",
        "ZH8L",
        "ZH9L",
        "ZH10L",
        "ZH11L",
        "ZH12L",
        "ZH30T",
        "ZH40T",
        "ZH50T"
    ],
    "vcorrectors_names": [
        "ZV1L",
        "ZV2L",
        "ZV3L",
        "ZV4L",
        "ZV5L",
        "ZV6L",
        "ZV7L",
        "ZV8L",
        "ZV9L",
        "ZV10L",
        "ZV11L",
        "ZV12L",
        "ZV13L",
        "ZV30T",
        "ZV40T",
        "ZV50T",
        "ZV51T"
    ],
    "timestamp": "2024/05/24, 15:10:08"
}