{
    "sequence": [
        "MB5L",
        "MB6L",
        "MB7L",
        "ZH1L",
        "ZV1L",
        "MB8L",
        "MB9L",
        "MB10L",
        "ZV2L",
        "ZH2L",
        "MB11L",
        "ML1L",
        "ML2L",
        "ZV3L",
        "ZH3L",
        "ML3L",
        "ZH4L",
        "ZV4L",
        "ZH5L",
        "ZV5L",
        "ML4L",
        "ZH6L",
        "ZV6L",
        "ML5L",
        "ZH7L",
        "ZV7L",
        "ML6L",
        "ZH8L",
        "ZV8L",
        "ML7L",
        "ZH9L",
        "ML8L",
        "ZV9L",
        "ML9L",
        "ZH10L",
        "ML10L",
        "ZV10L",
        "ML11L",
        "ZH11L",
        "ML12L",
        "ZV11L",
        "ML13L",
        "ZH12L",
        "ML14L",
        "ZV12L",
        "ML15L",
        "ZX10T",
        "ZX11T",
        "ML1T",
        "ZV13L",
        "ZX12T",
        "ML2T",
        "ZY20T",
        "ZY21T",
        "ML101T",
        "ML102T",
        "ZY22T",
        "ZY23T",
        "ML103T",
        "ZX30T",
        "ML3T",
        "ZX31T",
        "ZV30T",
        "ZH30T",
        "ML104T",
        "ZX32T",
        "ML4T",
        "ML105T",
        "ZV40T",
        "ZH40T",
        "ML5T",
        "ML6T",
        "ZX50T",
        "ML106T",
        "ZX50T",
        "ML7T",
        "ZX51T",
        "ZV50T",
        "ML8T",
        "ZH50T",
        "ZV51T",
        "ML9T",
        "MB10T",
        "MB11T"
    ],
    "correctors": {
        "names": [
            "ZH1L",
            "ZV1L",
            "ZV2L",
            "ZH2L",
            "ZV3L",
            "ZH3L",
            "ZH4L",
            "ZV4L",
            "ZH5L",
            "ZV5L",
            "ZH6L",
            "ZV6L",
            "ZH7L",
            "ZV7L",
            "ZH8L",
            "ZV8L",
            "ZH9L",
            "ZV9L",
            "ZH10L",
            "ZV10L",
            "ZH11L",
            "ZV11L",
            "ZH12L",
            "ZV12L",
            "ZX10T",
            "ZX11T",
            "ZV13L",
            "ZX12T",
            "ZY20T",
            "ZY21T",
            "ZY22T",
            "ZY23T",
            "ZX30T",
            "ZX31T",
            "ZV30T",
            "ZH30T",
            "ZX32T",
            "ZV40T",
            "ZH40T",
            "ZX50T",
            "ZX50T",
            "ZX51T",
            "ZV50T",
            "ZH50T",
            "ZV51T"
        ],
        "bdes": [
            1.6058,
            0.32324,
            -3.694e-05,
            0.05,
            -0.018255,
            -0.0023425,
            -0.63212,
            -0.51377,
            0.0067611,
            0.025597,
            -0.089344,
            -0.23399,
            -0.34279,
            0.0008922,
            0.095066,
            -0.1336,
            -0.39271,
            -0.072191,
            -0.21644,
            -0.41065,
            0.19808,
            0.37969,
            0.043499,
            -1.4308,
            -0.5,
            0.81,
            -0.69,
            0.9,
            0.34,
            -0.25,
            -1.26,
            -1.47,
            0.0,
            0.0,
            0.09,
            -1.79,
            2.05,
            -1.5,
            -2.1085,
            1.29,
            1.29,
            -1.7,
            0.38,
            1.35,
            0.08
        ],
        "bact": [
            1.6047874689102173,
            0.3224230408668518,
            -0.00488519761711359,
            0.04885197803378105,
            -0.02198338881134987,
            -0.00488519761711359,
            -0.6350756883621216,
            -0.5178309679031372,
            0.00488519761711359,
            0.024425989016890526,
            -0.09281875938177109,
            -0.23693208396434784,
            -0.3468490242958069,
            0.0,
            0.09281875938177109,
            -0.13678553700447083,
            -0.39570102095603943,
            -0.07572057098150253,
            -0.21983389556407928,
            -0.4152418076992035,
            0.19785051047801971,
            0.3786028325557709,
            0.04152418300509453,
            -1.4338055849075317,
            -0.5080605745315552,
            0.8036150336265564,
            -0.6985832452774048,
            0.898876428604126,
            0.33463606238365173,
            -0.2589154839515686,
            -1.2677088975906372,
            -1.4802148342132568,
            0.0,
            0.0,
            0.08304836601018906,
            -1.797752857208252,
            2.044455051422119,
            -1.5095261335372925,
            -2.1128480434417725,
            1.2848069667816162,
            1.2848069667816162,
            -1.7073765993118286,
            0.37371763586997986,
            1.343429446220398,
            0.07572057098150253
        ]
    },
    "bpms": {
        "names": [
            "MB5L",
            "MB6L",
            "MB7L",
            "MB8L",
            "MB9L",
            "MB10L",
            "MB11L",
            "ML1L",
            "ML2L",
            "ML3L",
            "ML4L",
            "ML5L",
            "ML6L",
            "ML7L",
            "ML8L",
            "ML9L",
            "ML10L",
            "ML11L",
            "ML12L",
            "ML13L",
            "ML14L",
            "ML15L",
            "ML1T",
            "ML2T",
            "ML101T",
            "ML102T",
            "ML103T",
            "ML3T",
            "ML104T",
            "ML4T",
            "ML105T",
            "ML5T",
            "ML6T",
            "ML106T",
            "ML7T",
            "ML8T",
            "ML9T",
            "MB10T",
            "MB11T"
        ],
        "x": [
            [
                -1.132465124130249,
                0.614614725112915,
                0.11523749679327011,
                -7.928284168243408,
                1.4765785932540894,
                1.2066104412078857,
                0.029274679720401764,
                -2.3421967029571533,
                -0.7090184092521667,
                0.7799290418624878,
                -0.17407208681106567,
                -0.7043094038963318,
                0.6157216429710388,
                -0.9108008742332458,
                0.5776669979095459,
                -6.234747409820557,
                -2.588071823120117,
                -0.7707493305206299,
                -1.1940603256225586,
                -0.3313806653022766,
                -0.44102275371551514,
                -0.9169861674308777,
                -6.80415678024292,
                1.7067469358444214,
                -4.658300876617432,
                1.2197555303573608,
                0.838131844997406,
                0.03261227905750275,
                -0.5837975740432739,
                -5.909684181213379,
                -7.133178234100342,
                -2.887538433074951,
                0.34967851638793945,
                -4.825361728668213,
                -1.4642983675003052,
                -2.951293706893921,
                -3.8306899070739746,
                1.9486795663833618,
                -3.973557472229004
            ],
            [
                -1.1418306827545166,
                0.5727284550666809,
                0.16116735339164734,
                -7.869317531585693,
                1.5065484046936035,
                1.241728663444519,
                0.085288405418396,
                -2.297780752182007,
                -0.7724331617355347,
                0.7157383561134338,
                -0.2245810627937317,
                -0.7344880104064941,
                0.5833404064178467,
                -0.9377715587615967,
                0.5201890468597412,
                -6.23922061920166,
                -2.4515795707702637,
                -0.7080740928649902,
                -1.1406738758087158,
                -0.33642226457595825,
                -0.45262065529823303,
                -0.8847568035125732,
                -6.791401386260986,
                1.6112239360809326,
                -4.745427131652832,
                1.2426927089691162,
                0.7681417465209961,
                0.0026023893151432276,
                -0.6629354357719421,
                -6.216755390167236,
                -7.09552526473999,
                -2.8274970054626465,
                0.5856348276138306,
                -4.848447799682617,
                -1.530824065208435,
                -2.9396424293518066,
                -3.9217541217803955,
                2.015552282333374,
                -3.914846420288086
            ],
            [
                -1.1306113004684448,
                0.6428320407867432,
                0.13937321305274963,
                -7.951351642608643,
                1.4642459154129028,
                1.2219221591949463,
                0.04442000016570091,
                -2.3496789932250977,
                -0.6985839009284973,
                0.7762875556945801,
                -0.1758088767528534,
                -0.7351142764091492,
                0.6227461099624634,
                -0.9827427864074707,
                0.5777025818824768,
                -6.292732238769531,
                -2.6201887130737305,
                -0.7911530137062073,
                -1.1617368459701538,
                -0.29539164900779724,
                -0.37817269563674927,
                -0.88558429479599,
                -6.812501907348633,
                1.7461202144622803,
                -4.717297077178955,
                1.181288480758667,
                0.8494877815246582,
                0.13532179594039917,
                -0.4732873737812042,
                -6.1838884353637695,
                -7.204105854034424,
                -2.911024570465088,
                0.04187978431582451,
                -4.76570987701416,
                -1.5247660875320435,
                -2.973139762878418,
                -3.8471474647521973,
                1.912591814994812,
                -3.921720027923584
            ]
        ],
        "y": [
            [
                -0.7379744648933411,
                0.6953029036521912,
                3.1303770542144775,
                7.681645393371582,
                -4.659610271453857,
                -0.877135694026947,
                0.3184918165206909,
                -0.9333723783493042,
                -0.8793851733207703,
                -1.554307460784912,
                -0.29192668199539185,
                0.25922518968582153,
                -0.06551501154899597,
                -1.4566645622253418,
                -0.8129766583442688,
                0.409658819437027,
                0.3887452185153961,
                1.5323677062988281,
                0.4327906370162964,
                -0.6034468412399292,
                0.675251841545105,
                -0.13607606291770935,
                -0.46242862939834595,
                -1.4119399785995483,
                -4.912320613861084,
                -3.5913503170013428,
                1.720609188079834,
                -1.4496614933013916,
                -0.43564680218696594,
                4.357307434082031,
                5.372099876403809,
                1.5725481510162354,
                3.2785720825195312,
                -2.720343828201294,
                -0.10789642482995987,
                -2.541738271713257,
                -1.7489451169967651,
                0.14485952258110046,
                1.939475655555725
            ],
            [
                -0.7780817747116089,
                0.8046645522117615,
                3.205186605453491,
                7.732990741729736,
                -4.624536514282227,
                -0.9027416706085205,
                0.26566821336746216,
                -0.9346610307693481,
                -0.9000979661941528,
                -1.5325758457183838,
                -0.2254369705915451,
                0.2959434688091278,
                -0.06633546948432922,
                -1.4133449792861938,
                -0.8176555633544922,
                0.36374616622924805,
                0.40730342268943787,
                1.5086963176727295,
                0.4666186273097992,
                -0.596085250377655,
                0.6525595784187317,
                -0.14482665061950684,
                -0.5533700585365295,
                -1.4543511867523193,
                -4.982188701629639,
                -3.636953592300415,
                1.8604915142059326,
                -1.454843521118164,
                -0.35621318221092224,
                5.303764820098877,
                2.2102580070495605,
                2.1448259353637695,
                3.504495620727539,
                -2.6880910396575928,
                -0.06798853725194931,
                -2.566119909286499,
                -1.7698208093643188,
                0.16353468596935272,
                1.7919752597808838
            ],
            [
                -0.7450800538063049,
                0.8434838652610779,
                3.177978992462158,
                7.7084879875183105,
                -4.643348693847656,
                -0.8831276297569275,
                0.288278192281723,
                -0.9321271181106567,
                -0.8641258478164673,
                -1.5300320386886597,
                -0.21871204674243927,
                0.27650749683380127,
                -0.062260352075099945,
                -1.43649160861969,
                -0.8432014584541321,
                0.37738820910453796,
                0.4506639242172241,
                1.5565930604934692,
                0.44765958189964294,
                -0.5902937054634094,
                0.7012576460838318,
                -0.13566899299621582,
                -0.5169652700424194,
                -1.4239200353622437,
                -4.915118217468262,
                -3.6124210357666016,
                1.7795274257659912,
                -1.4988176822662354,
                -0.48452550172805786,
                4.222464084625244,
                2.750361442565918,
                1.0235284566879272,
                2.958172559738159,
                -2.7611653804779053,
                -0.1350189447402954,
                -2.5740344524383545,
                -1.688810110092163,
                0.025299351662397385,
                1.8370180130004883
            ]
        ],
        "tmit": [
            [
                0.7874824404716492,
                0.9233618974685669,
                0.9095953702926636,
                0.9458154439926147,
                0.9682468771934509,
                0.8275863528251648,
                0.9362656474113464,
                0.6063598990440369,
                0.8990463018417358,
                1.390604853630066,
                0.8547927737236023,
                1.3754466772079468,
                1.840535044670105,
                0.9229922890663147,
                0.9824123382568359,
                0.9170158505439758,
                0.7056233882904053,
                0.9032192230224609,
                0.7482852339744568,
                0.5505852699279785,
                0.5193790793418884,
                0.5313900709152222,
                0.5067805051803589,
                0.43770915269851685,
                0.0633029192686081,
                0.15375831723213196,
                0.17218747735023499,
                0.17175520956516266,
                0.17089244723320007,
                0.15028442442417145,
                0.21937225759029388,
                0.8056982755661011,
                0.17095044255256653,
                0.2896682620048523,
                0.15692657232284546,
                0.06590571254491806,
                0.1416451334953308,
                0.12829521298408508,
                0.15076935291290283
            ],
            [
                0.808075487613678,
                0.9506341218948364,
                0.9397835731506348,
                0.975204348564148,
                0.9957110285758972,
                0.8524193167686462,
                0.9633120894432068,
                0.6197232007980347,
                0.922862708568573,
                1.4192277193069458,
                0.875208854675293,
                1.396820068359375,
                1.8682132959365845,
                0.9482420086860657,
                1.0055173635482788,
                0.9447467923164368,
                0.7218983173370361,
                0.9272578358650208,
                0.7656533718109131,
                0.5618446469306946,
                0.5317733287811279,
                0.5425568222999573,
                0.5204063057899475,
                0.45013266801834106,
                0.06286808103322983,
                0.15184980630874634,
                0.17016732692718506,
                0.17340540885925293,
                0.16900791227817535,
                0.14992472529411316,
                0.2296767681837082,
                0.7841505408287048,
                0.1761697232723236,
                0.2980028986930847,
                0.161298006772995,
                0.06586238741874695,
                0.1421201229095459,
                0.12839843332767487,
                0.15144546329975128
            ],
            [
                0.7695480585098267,
                0.9050650000572205,
                0.8931225538253784,
                0.9286534786224365,
                0.9500075578689575,
                0.8137556910514832,
                0.92085200548172,
                0.5967052578926086,
                0.884048581123352,
                1.375991702079773,
                0.8402758836746216,
                1.3563446998596191,
                1.820925235748291,
                0.903880774974823,
                0.9664111733436584,
                0.9013510346412659,
                0.6924448609352112,
                0.8869296908378601,
                0.73708575963974,
                0.5447547435760498,
                0.5096800327301025,
                0.5217487215995789,
                0.49466875195503235,
                0.4280781149864197,
                0.06286808103322983,
                0.15245892107486725,
                0.17107638716697693,
                0.17436078190803528,
                0.16949424147605896,
                0.1459679752588272,
                0.21854791045188904,
                0.7895374894142151,
                0.18698112666606903,
                0.28257253766059875,
                0.1531948447227478,
                0.06547245383262634,
                0.1421729028224945,
                0.1293790340423584,
                0.15171588957309723
            ]
        ]
    },
    "icts": {
        "names": [
            "gun:GUNcharge",
            "l0:L0charge",
            "linacbt:LNEcharge",
            "linacbt:BTMcharge",
            "ext:EXTcharge",
            "linacbt:BTEcharge",
            "BIM:DR:nparticles",
            "BIM:IP:nparticles"
        ],
        "charge": [
            0.5297058376699999,
            0.57765132625,
            0.4106233333333333,
            0.2723775,
            0.008556751425833333,
            0.22682124999999997,
            -0.007794413715600967,
            0.003922611009329557
        ]
    },
    "hcorrectors_names": [
        "ZH1L",
        "ZH2L",
        "ZH3L",
        "ZH4L",
        "ZH5L",
        "ZH6L",
        "ZH7L",
        "ZH8L",
        "ZH9L",
        "ZH10L",
        "ZH11L",
        "ZH12L",
        "ZH30T",
        "ZH40T",
        "ZH50T"
    ],
    "vcorrectors_names": [
        "ZV1L",
        "ZV2L",
        "ZV3L",
        "ZV4L",
        "ZV5L",
        "ZV6L",
        "ZV7L",
        "ZV8L",
        "ZV9L",
        "ZV10L",
        "ZV11L",
        "ZV12L",
        "ZV13L",
        "ZV30T",
        "ZV40T",
        "ZV50T",
        "ZV51T"
    ],
    "timestamp": "2024/05/24, 15:12:32"
}