{
    "sequence": [
        "MB5L",
        "MB6L",
        "MB7L",
        "ZH1L",
        "ZV1L",
        "MB8L",
        "MB9L",
        "MB10L",
        "ZV2L",
        "ZH2L",
        "MB11L",
        "ML1L",
        "ML2L",
        "ZV3L",
        "ZH3L",
        "ML3L",
        "ZH4L",
        "ZV4L",
        "ZH5L",
        "ZV5L",
        "ML4L",
        "ZH6L",
        "ZV6L",
        "ML5L",
        "ZH7L",
        "ZV7L",
        "ML6L",
        "ZH8L",
        "ZV8L",
        "ML7L",
        "ZH9L",
        "ML8L",
        "ZV9L",
        "ML9L",
        "ZH10L",
        "ML10L",
        "ZV10L",
        "ML11L",
        "ZH11L",
        "ML12L",
        "ZV11L",
        "ML13L",
        "ZH12L",
        "ML14L",
        "ZV12L",
        "ML15L",
        "ZX10T",
        "ZX11T",
        "ML1T",
        "ZV13L",
        "ZX12T",
        "ML2T",
        "ZY20T",
        "ZY21T",
        "ML101T",
        "ML102T",
        "ZY22T",
        "ZY23T",
        "ML103T",
        "ZX30T",
        "ML3T",
        "ZX31T",
        "ZV30T",
        "ZH30T",
        "ML104T",
        "ZX32T",
        "ML4T",
        "ML105T",
        "ZV40T",
        "ZH40T",
        "ML5T",
        "ML6T",
        "ZX50T",
        "ML106T",
        "ZX50T",
        "ML7T",
        "ZX51T",
        "ZV50T",
        "ML8T",
        "ZH50T",
        "ZV51T",
        "ML9T",
        "MB10T",
        "MB11T"
    ],
    "correctors": {
        "names": [
            "ZH1L",
            "ZV1L",
            "ZV2L",
            "ZH2L",
            "ZV3L",
            "ZH3L",
            "ZH4L",
            "ZV4L",
            "ZH5L",
            "ZV5L",
            "ZH6L",
            "ZV6L",
            "ZH7L",
            "ZV7L",
            "ZH8L",
            "ZV8L",
            "ZH9L",
            "ZV9L",
            "ZH10L",
            "ZV10L",
            "ZH11L",
            "ZV11L",
            "ZH12L",
            "ZV12L",
            "ZX10T",
            "ZX11T",
            "ZV13L",
            "ZX12T",
            "ZY20T",
            "ZY21T",
            "ZY22T",
            "ZY23T",
            "ZX30T",
            "ZX31T",
            "ZV30T",
            "ZH30T",
            "ZX32T",
            "ZV40T",
            "ZH40T",
            "ZX50T",
            "ZX50T",
            "ZX51T",
            "ZV50T",
            "ZH50T",
            "ZV51T"
        ],
        "bdes": [
            1.6058,
            0.32324,
            0.08750347347187859,
            0.05,
            -0.018255,
            -0.0023425,
            -0.63212,
            -0.51377,
            0.0067611,
            0.025597,
            -0.089344,
            -0.23399,
            -0.34279,
            0.0008922,
            0.095066,
            -0.1336,
            -0.39271,
            -0.072191,
            -0.21644,
            -0.41065,
            0.09808,
            0.37969,
            0.043499,
            -1.4308,
            -0.5,
            0.81,
            -0.69,
            0.9,
            0.34,
            -0.25,
            -1.26,
            -1.47,
            0.0,
            0.0,
            0.09,
            -1.79,
            2.05,
            -1.5,
            -2.1085,
            1.29,
            1.29,
            -1.7,
            0.38,
            1.35,
            0.08
        ],
        "bact": [
            1.6047874689102173,
            0.3224230408668518,
            0.08549095690250397,
            0.04885197803378105,
            -0.02198338881134987,
            -0.00488519761711359,
            -0.6350756883621216,
            -0.5178309679031372,
            0.00488519761711359,
            0.024425989016890526,
            -0.09281875938177109,
            -0.23693208396434784,
            -0.3468490242958069,
            0.0,
            0.09281875938177109,
            -0.13678553700447083,
            -0.39570102095603943,
            -0.07572057098150253,
            -0.21983389556407928,
            -0.4152418076992035,
            0.0977039560675621,
            0.3786028325557709,
            0.04152418300509453,
            -1.4338055849075317,
            -0.5080605745315552,
            0.8036150336265564,
            -0.6985832452774048,
            0.898876428604126,
            0.33463606238365173,
            -0.2589154839515686,
            -1.2677088975906372,
            -1.4802148342132568,
            0.0,
            0.0,
            0.08304836601018906,
            -1.797752857208252,
            2.044455051422119,
            -1.5095261335372925,
            -2.1128480434417725,
            1.2848069667816162,
            1.2848069667816162,
            -1.7073765993118286,
            0.37371763586997986,
            1.343429446220398,
            0.07572057098150253
        ]
    },
    "bpms": {
        "names": [
            "MB5L",
            "MB6L",
            "MB7L",
            "MB8L",
            "MB9L",
            "MB10L",
            "MB11L",
            "ML1L",
            "ML2L",
            "ML3L",
            "ML4L",
            "ML5L",
            "ML6L",
            "ML7L",
            "ML8L",
            "ML9L",
            "ML10L",
            "ML11L",
            "ML12L",
            "ML13L",
            "ML14L",
            "ML15L",
            "ML1T",
            "ML2T",
            "ML101T",
            "ML102T",
            "ML103T",
            "ML3T",
            "ML104T",
            "ML4T",
            "ML105T",
            "ML5T",
            "ML6T",
            "ML106T",
            "ML7T",
            "ML8T",
            "ML9T",
            "MB10T",
            "MB11T"
        ],
        "x": [
            [
                -1.1269270181655884,
                0.5765226483345032,
                0.07160007953643799,
                -8.008155822753906,
                1.453212022781372,
                1.1653234958648682,
                0.0344853475689888,
                -2.4120492935180664,
                -0.6605736613273621,
                0.826068639755249,
                -0.15712998807430267,
                -0.6447768211364746,
                0.6414784789085388,
                -0.9223902821540833,
                0.654028058052063,
                -6.289842128753662,
                -2.6285581588745117,
                -0.8285532593727112,
                -1.293686032295227,
                -0.4077313244342804,
                -0.7043730020523071,
                -1.185669183731079,
                -6.647740840911865,
                0.37356773018836975,
                -4.923715114593506,
                1.7496682405471802,
                0.7925378680229187,
                -0.6847984790802002,
                -1.3900775909423828,
                -6.655966758728027,
                -7.062036991119385,
                -2.8199329376220703,
                0.5696813464164734,
                -5.223937511444092,
                -1.4308863878250122,
                -2.1473920345306396,
                -4.106729984283447,
                2.859005928039551,
                -3.3489816188812256
            ],
            [
                -1.1240686178207397,
                0.6689413189888,
                0.09027077257633209,
                -7.989129543304443,
                1.4481408596038818,
                1.1621174812316895,
                -0.0007182497065514326,
                -2.4566025733947754,
                -0.6429823040962219,
                0.8274558782577515,
                -0.15309591591358185,
                -0.6670730710029602,
                0.6416897177696228,
                -0.9350335001945496,
                0.6643713116645813,
                -6.3177595138549805,
                -2.7769412994384766,
                -0.8216043710708618,
                -1.2633445262908936,
                -0.3290567100048065,
                -0.6215075850486755,
                -1.105635643005371,
                -6.662478446960449,
                0.18589568138122559,
                -4.7610883712768555,
                1.9695219993591309,
                0.7607882022857666,
                -0.7603756189346313,
                -1.5399152040481567,
                -6.7732834815979,
                -7.120578765869141,
                -2.8522825241088867,
                0.4975998103618622,
                -5.3377366065979,
                -1.4932063817977905,
                -2.230881929397583,
                -4.272920608520508,
                2.9574782848358154,
                -3.3590407371520996
            ],
            [
                -1.1293472051620483,
                0.6155362129211426,
                0.10792706906795502,
                -7.95173454284668,
                1.5057889223098755,
                1.2102234363555908,
                0.033452872186899185,
                -2.386556625366211,
                -0.7072539329528809,
                0.7560387849807739,
                -0.1421370953321457,
                -0.8028911352157593,
                0.6251933574676514,
                -0.9942929744720459,
                0.6558343172073364,
                -6.296221733093262,
                -2.650416851043701,
                -0.8102234601974487,
                -1.2819387912750244,
                -0.40413570404052734,
                -0.7054101228713989,
                -1.1620489358901978,
                -6.640561580657959,
                0.3139670491218567,
                -4.836804389953613,
                1.8065094947814941,
                0.9261449575424194,
                -0.7558300495147705,
                -1.4124796390533447,
                -6.581377029418945,
                -7.087223529815674,
                -2.846806526184082,
                1.074781894683838,
                -5.266983509063721,
                -1.4458167552947998,
                -2.137071371078491,
                -4.152790546417236,
                2.939727783203125,
                -3.329212188720703
            ]
        ],
        "y": [
            [
                -0.7412707805633545,
                0.6972876787185669,
                3.06624174118042,
                7.6553497314453125,
                -4.767982482910156,
                -0.9027979373931885,
                0.32062968611717224,
                -0.7292224168777466,
                -0.15299297869205475,
                -1.0846978425979614,
                0.8367106318473816,
                1.0410618782043457,
                0.2624026834964752,
                -1.5610448122024536,
                -1.188294529914856,
                -0.4562622010707855,
                0.14778584241867065,
                1.0756081342697144,
                0.24305647611618042,
                -0.8189574480056763,
                0.7076253890991211,
                -0.053476862609386444,
                -0.6863932609558105,
                -1.5388628244400024,
                -5.3814005851745605,
                -3.9015181064605713,
                2.1479344367980957,
                -1.6496050357818604,
                0.05493840202689171,
                4.9498724937438965,
                3.290472984313965,
                1.3036139011383057,
                2.4847147464752197,
                -2.9968936443328857,
                -0.497902512550354,
                -2.980499744415283,
                -2.3026044368743896,
                0.3537207841873169,
                1.6069916486740112
            ],
            [
                -0.7246623635292053,
                0.7731104493141174,
                3.1027867794036865,
                7.67424201965332,
                -4.7245306968688965,
                -0.9143266081809998,
                0.32920825481414795,
                -0.7247703671455383,
                -0.08860044926404953,
                -1.0587875843048096,
                0.9164454936981201,
                1.122012972831726,
                0.26981690526008606,
                -1.5715672969818115,
                -1.247902274131775,
                -0.5625935196876526,
                0.03562048077583313,
                1.0818616151809692,
                0.2077282816171646,
                -0.8484734296798706,
                0.7106937170028687,
                -0.054548997431993484,
                -0.7136271595954895,
                -1.5640814304351807,
                -5.441393852233887,
                -3.936485767364502,
                2.2373552322387695,
                -1.759043574333191,
                0.1304025799036026,
                3.7858521938323975,
                2.9628422260284424,
                1.3792201280593872,
                2.5330638885498047,
                -2.8874270915985107,
                -0.3955928385257721,
                -3.0430126190185547,
                -2.4167091846466064,
                0.5223871469497681,
                1.8122321367263794
            ],
            [
                -0.7828012108802795,
                0.6984745860099792,
                3.140448570251465,
                7.682589530944824,
                -4.696050643920898,
                -0.8631963729858398,
                0.33954495191574097,
                -0.7460879683494568,
                -0.08467645198106766,
                -1.058681845664978,
                0.918083131313324,
                1.0874162912368774,
                0.27003946900367737,
                -1.5462795495986938,
                -1.2496129274368286,
                -0.5332914590835571,
                0.0996541678905487,
                1.073189377784729,
                0.2062005251646042,
                -0.8560759425163269,
                0.6891447901725769,
                -0.03652869910001755,
                -0.6956581473350525,
                -1.568782091140747,
                -5.416855812072754,
                -3.9367740154266357,
                2.258789539337158,
                -1.6866205930709839,
                0.13852599263191223,
                5.139326095581055,
                2.0341246128082275,
                1.5338906049728394,
                3.2018797397613525,
                -3.020996570587158,
                -0.5025042295455933,
                -3.0121402740478516,
                -2.3180267810821533,
                0.37149733304977417,
                1.4254745244979858
            ]
        ],
        "tmit": [
            [
                0.7530207633972168,
                0.8894055485725403,
                0.8767915964126587,
                0.9104601740837097,
                0.9341931939125061,
                0.7997422814369202,
                0.904964029788971,
                0.5899383425712585,
                0.872623860836029,
                1.3595318794250488,
                0.8220943212509155,
                1.3283520936965942,
                1.7968294620513916,
                0.8847872614860535,
                0.9470486640930176,
                0.8776422142982483,
                0.6777111291885376,
                0.8718225359916687,
                0.723289966583252,
                0.5350866913795471,
                0.5020643472671509,
                0.5115846395492554,
                0.4595319330692291,
                0.41856101155281067,
                0.07691364735364914,
                0.1835634410381317,
                0.20976224541664124,
                0.20988346636295319,
                0.20365875959396362,
                0.20352065563201904,
                0.2542014420032501,
                0.8137786984443665,
                0.2522222697734833,
                0.28234729170799255,
                0.15004955232143402,
                0.07855697721242905,
                0.1717812567949295,
                0.15869362652301788,
                0.1795710325241089
            ],
            [
                0.7419701814651489,
                0.875400185585022,
                0.8627748489379883,
                0.8990218043327332,
                0.9217737913131714,
                0.7879945039749146,
                0.8915067315101624,
                0.582545280456543,
                0.8624410629272461,
                1.3476428985595703,
                0.812984824180603,
                1.3183245658874512,
                1.7852697372436523,
                0.8724351525306702,
                0.9350672364234924,
                0.8659994006156921,
                0.6717613935470581,
                0.8606841564178467,
                0.7150827050209045,
                0.532500147819519,
                0.4968474805355072,
                0.5065229535102844,
                0.45530545711517334,
                0.41160839796066284,
                0.07413062453269958,
                0.17365548014640808,
                0.1968332976102829,
                0.19972172379493713,
                0.19004158675670624,
                0.1970459669828415,
                0.24843093752861023,
                0.7755314111709595,
                0.22910825908184052,
                0.2797567844390869,
                0.1480770707130432,
                0.07444097846746445,
                0.16333681344985962,
                0.1496102213859558,
                0.16882111132144928
            ],
            [
                0.7513753771781921,
                0.8845188021659851,
                0.8736773133277893,
                0.9097854495048523,
                0.9306215643882751,
                0.7969430685043335,
                0.9016753435134888,
                0.5869970321655273,
                0.8706505298614502,
                1.3584579229354858,
                0.8206862211227417,
                1.3193200826644897,
                1.7983814477920532,
                0.8833616375923157,
                0.9433559775352478,
                0.8787006735801697,
                0.6756943464279175,
                0.8654493689537048,
                0.7210463881492615,
                0.5347731709480286,
                0.5004251599311829,
                0.5103336572647095,
                0.4581441581249237,
                0.4187319874763489,
                0.07756592333316803,
                0.18275131285190582,
                0.20976224541664124,
                0.21005716919898987,
                0.20031525194644928,
                0.20424006879329681,
                0.25688061118125916,
                0.7943857312202454,
                0.2391740381717682,
                0.28234729170799255,
                0.14988961815834045,
                0.07890358567237854,
                0.1717284768819809,
                0.1567840427160263,
                0.1781512349843979
            ]
        ]
    },
    "icts": {
        "names": [
            "gun:GUNcharge",
            "l0:L0charge",
            "linacbt:LNEcharge",
            "linacbt:BTMcharge",
            "ext:EXTcharge",
            "linacbt:BTEcharge",
            "BIM:DR:nparticles",
            "BIM:IP:nparticles"
        ],
        "charge": [
            0.5241232215999999,
            0.5775402887500001,
            0.4043281249999999,
            0.31123500000000004,
            0.005594951302499999,
            0.2629757638888889,
            -0.007794413715600967,
            -0.00659711891785264
        ]
    },
    "hcorrectors_names": [
        "ZH1L",
        "ZH2L",
        "ZH3L",
        "ZH4L",
        "ZH5L",
        "ZH6L",
        "ZH7L",
        "ZH8L",
        "ZH9L",
        "ZH10L",
        "ZH11L",
        "ZH12L",
        "ZH30T",
        "ZH40T",
        "ZH50T"
    ],
    "vcorrectors_names": [
        "ZV1L",
        "ZV2L",
        "ZV3L",
        "ZV4L",
        "ZV5L",
        "ZV6L",
        "ZV7L",
        "ZV8L",
        "ZV9L",
        "ZV10L",
        "ZV11L",
        "ZV12L",
        "ZV13L",
        "ZV30T",
        "ZV40T",
        "ZV50T",
        "ZV51T"
    ],
    "timestamp": "2024/05/24, 15:13:40"
}