{
    "sequence": [
        "MB5L",
        "MB6L",
        "MB7L",
        "ZH1L",
        "ZV1L",
        "MB8L",
        "MB9L",
        "MB10L",
        "ZV2L",
        "ZH2L",
        "MB11L",
        "ML1L",
        "ML2L",
        "ZV3L",
        "ZH3L",
        "ML3L",
        "ZH4L",
        "ZV4L",
        "ZH5L",
        "ZV5L",
        "ML4L",
        "ZH6L",
        "ZV6L",
        "ML5L",
        "ZH7L",
        "ZV7L",
        "ML6L",
        "ZH8L",
        "ZV8L",
        "ML7L",
        "ZH9L",
        "ML8L",
        "ZV9L",
        "ML9L",
        "ZH10L",
        "ML10L",
        "ZV10L",
        "ML11L",
        "ZH11L",
        "ML12L",
        "ZV11L",
        "ML13L",
        "ZH12L",
        "ML14L",
        "ZV12L",
        "ML15L",
        "ZX10T",
        "ZX11T",
        "ML1T",
        "ZV13L",
        "ZX12T",
        "ML2T",
        "ZY20T",
        "ZY21T",
        "ML101T",
        "ML102T",
        "ZY22T",
        "ZY23T",
        "ML103T",
        "ZX30T",
        "ML3T",
        "ZX31T",
        "ZV30T",
        "ZH30T",
        "ML104T",
        "ZX32T",
        "ML4T",
        "ML105T",
        "ZV40T",
        "ZH40T",
        "ML5T",
        "ML6T",
        "ZX50T",
        "ML106T",
        "ZX50T",
        "ML7T",
        "ZX51T",
        "ZV50T",
        "ML8T",
        "ZH50T",
        "ZV51T",
        "ML9T",
        "MB10T",
        "MB11T"
    ],
    "correctors": {
        "names": [
            "ZH1L",
            "ZV1L",
            "ZV2L",
            "ZH2L",
            "ZV3L",
            "ZH3L",
            "ZH4L",
            "ZV4L",
            "ZH5L",
            "ZV5L",
            "ZH6L",
            "ZV6L",
            "ZH7L",
            "ZV7L",
            "ZH8L",
            "ZV8L",
            "ZH9L",
            "ZV9L",
            "ZH10L",
            "ZV10L",
            "ZH11L",
            "ZV11L",
            "ZH12L",
            "ZV12L",
            "ZX10T",
            "ZX11T",
            "ZV13L",
            "ZX12T",
            "ZY20T",
            "ZY21T",
            "ZY22T",
            "ZY23T",
            "ZX30T",
            "ZX31T",
            "ZV30T",
            "ZH30T",
            "ZX32T",
            "ZV40T",
            "ZH40T",
            "ZX50T",
            "ZX50T",
            "ZX51T",
            "ZV50T",
            "ZH50T",
            "ZV51T"
        ],
        "bdes": [
            1.6058,
            0.32324,
            -3.694e-05,
            0.05,
            -0.018255,
            -0.0023425,
            -0.63212,
            -0.51377,
            0.0067611,
            0.025597,
            -0.089344,
            -0.23399,
            -0.34279,
            0.0008922,
            0.095066,
            -0.1336,
            -0.39271,
            0.027809,
            -0.21644,
            -0.41065,
            0.09808,
            0.37969,
            0.043499,
            -1.4308,
            -0.5,
            0.81,
            -0.69,
            0.9,
            0.34,
            -0.25,
            -1.26,
            -1.47,
            0.0,
            0.0,
            0.09,
            -1.79,
            2.05,
            -1.5,
            -2.1085,
            1.29,
            1.29,
            -1.7,
            0.38,
            1.35,
            0.08
        ],
        "bact": [
            1.6047874689102173,
            0.3224230408668518,
            -0.00488519761711359,
            0.04885197803378105,
            -0.02198338881134987,
            -0.00488519761711359,
            -0.6350756883621216,
            -0.5178309679031372,
            0.00488519761711359,
            0.024425989016890526,
            -0.09281875938177109,
            -0.23693208396434784,
            -0.3468490242958069,
            0.0,
            0.09281875938177109,
            -0.13678553700447083,
            -0.39570102095603943,
            0.026868587359786034,
            -0.21983389556407928,
            -0.4152418076992035,
            0.0977039560675621,
            0.3786028325557709,
            0.04152418300509453,
            -1.4338055849075317,
            -0.5080605745315552,
            0.8036150336265564,
            -0.6985832452774048,
            0.898876428604126,
            0.33463606238365173,
            -0.2589154839515686,
            -1.2677088975906372,
            -1.4802148342132568,
            0.0,
            0.0,
            0.08304836601018906,
            -1.797752857208252,
            2.044455051422119,
            -1.5095261335372925,
            -2.1128480434417725,
            1.2848069667816162,
            1.2848069667816162,
            -1.7073765993118286,
            0.37371763586997986,
            1.343429446220398,
            0.07572057098150253
        ]
    },
    "bpms": {
        "names": [
            "MB5L",
            "MB6L",
            "MB7L",
            "MB8L",
            "MB9L",
            "MB10L",
            "MB11L",
            "ML1L",
            "ML2L",
            "ML3L",
            "ML4L",
            "ML5L",
            "ML6L",
            "ML7L",
            "ML8L",
            "ML9L",
            "ML10L",
            "ML11L",
            "ML12L",
            "ML13L",
            "ML14L",
            "ML15L",
            "ML1T",
            "ML2T",
            "ML101T",
            "ML102T",
            "ML103T",
            "ML3T",
            "ML104T",
            "ML4T",
            "ML105T",
            "ML5T",
            "ML6T",
            "ML106T",
            "ML7T",
            "ML8T",
            "ML9T",
            "MB10T",
            "MB11T"
        ],
        "x": [
            [
                -1.0992107391357422,
                0.7053481340408325,
                0.08277589082717896,
                -8.003249168395996,
                1.438551664352417,
                1.131745457649231,
                -0.015793245285749435,
                -2.441420555114746,
                -0.6096490025520325,
                0.8562960624694824,
                -0.13685376942157745,
                -0.7545751333236694,
                0.6452059149742126,
                -0.944057822227478,
                0.6718233227729797,
                -6.234485626220703,
                -2.720000982284546,
                -0.8865534067153931,
                -1.3841679096221924,
                -0.3917502462863922,
                -0.739684522151947,
                -1.2117937803268433,
                -6.676789283752441,
                0.3183014392852783,
                -5.08610200881958,
                1.8710658550262451,
                0.9082525968551636,
                -0.6673847436904907,
                -1.4163908958435059,
                -6.640552520751953,
                -7.24550199508667,
                -2.8334288597106934,
                5.211628437042236,
                -5.30687952041626,
                -1.4364585876464844,
                -2.199023962020874,
                -4.316537380218506,
                2.9857680797576904,
                -3.4945201873779297
            ],
            [
                -1.1468085050582886,
                0.7997459769248962,
                0.10883399099111557,
                -8.00301456451416,
                1.361565113067627,
                1.0994226932525635,
                -0.08551546186208725,
                -2.510735511779785,
                -0.6274107098579407,
                0.9116729497909546,
                -0.16832324862480164,
                -0.8216244578361511,
                0.6445362567901611,
                -0.9295095205307007,
                0.7570110559463501,
                -6.260796070098877,
                -2.696916341781616,
                -0.9233476519584656,
                -1.4868844747543335,
                -0.48894935846328735,
                -0.8514176607131958,
                -1.269760012626648,
                -6.667131423950195,
                0.4451039433479309,
                -4.899721145629883,
                1.7467846870422363,
                0.7888162732124329,
                -0.55840665102005,
                -1.262381911277771,
                -6.5225749015808105,
                -7.132704734802246,
                -2.843834161758423,
                0.04119163751602173,
                -5.267523288726807,
                -1.357675552368164,
                -2.189826250076294,
                -4.102398872375488,
                2.8067739009857178,
                -3.3787972927093506
            ],
            [
                -1.1128860712051392,
                0.7206845283508301,
                0.06275182217359543,
                -7.93872594833374,
                1.408971905708313,
                1.1474742889404297,
                -0.0175116416066885,
                -2.4239094257354736,
                -0.6515559554100037,
                0.8574515581130981,
                -0.15875627100467682,
                -0.8169192671775818,
                0.630997359752655,
                -0.8923055529594421,
                0.685808539390564,
                -6.206260681152344,
                -2.617521286010742,
                -0.8720424771308899,
                -1.3849806785583496,
                -0.42360618710517883,
                -0.8275398015975952,
                -1.2226735353469849,
                -6.658894062042236,
                0.44597241282463074,
                -4.888012886047363,
                1.688225269317627,
                0.7519193291664124,
                -0.5556685924530029,
                -1.1893258094787598,
                -6.409604549407959,
                -7.04921293258667,
                -2.7624354362487793,
                0.6298593878746033,
                -5.24619197845459,
                -1.337396264076233,
                -2.159539222717285,
                -4.003711700439453,
                2.768172264099121,
                -3.461693048477173
            ]
        ],
        "y": [
            [
                -0.7583051919937134,
                0.8195009231567383,
                3.148013114929199,
                7.72573709487915,
                -4.734395980834961,
                -0.9234879612922668,
                0.275886595249176,
                -0.8863388895988464,
                -0.7965998649597168,
                -1.495184063911438,
                -0.11598437279462814,
                0.36113762855529785,
                -0.05091342702507973,
                -1.5721408128738403,
                -0.8967575430870056,
                0.3441019356250763,
                1.4275522232055664,
                4.237025260925293,
                2.6753129959106445,
                1.3207567930221558,
                1.13868248462677,
                -0.1694633513689041,
                -1.9301586151123047,
                -2.3243277072906494,
                -4.64978551864624,
                -3.0360941886901855,
                1.2690317630767822,
                -1.4435337781906128,
                -1.550288200378418,
                3.303506851196289,
                0.6496927738189697,
                1.8232249021530151,
                8.244133949279785,
                -3.04878568649292,
                0.09556689858436584,
                -2.480910539627075,
                -1.2503743171691895,
                0.34921765327453613,
                3.0026183128356934
            ],
            [
                -0.7648904323577881,
                0.7008012533187866,
                3.079078435897827,
                7.665585517883301,
                -4.720046520233154,
                -0.8841234445571899,
                0.3142082691192627,
                -0.8770905137062073,
                -0.7899333834648132,
                -1.5204637050628662,
                -0.18681688606739044,
                0.32078462839126587,
                -0.05789395421743393,
                -1.5580549240112305,
                -0.8855693936347961,
                0.3933027684688568,
                1.3046858310699463,
                4.292438507080078,
                2.7282862663269043,
                1.344588041305542,
                1.165519118309021,
                -0.18281100690364838,
                -1.9389909505844116,
                -2.3433566093444824,
                -4.66049861907959,
                -3.0597522258758545,
                1.3990384340286255,
                -1.366971731185913,
                -1.31870436668396,
                3.1462576389312744,
                2.2442402839660645,
                1.609835147857666,
                3.1665353775024414,
                -3.1076037883758545,
                0.043739818036556244,
                -2.49235200881958,
                -1.2174592018127441,
                0.18814826011657715,
                3.1689343452453613
            ],
            [
                -0.7228344082832336,
                0.7323941588401794,
                3.1369922161102295,
                7.692856788635254,
                -4.691969394683838,
                -0.8844791650772095,
                0.3060116469860077,
                -0.8946020007133484,
                -0.822699785232544,
                -1.5191855430603027,
                -0.22955168783664703,
                0.2973983883857727,
                -0.06819602847099304,
                -1.5134714841842651,
                -0.8637224435806274,
                0.42781731486320496,
                1.2343546152114868,
                4.242033958435059,
                2.743290424346924,
                1.3896063566207886,
                1.1428825855255127,
                -0.13894042372703552,
                -1.9789434671401978,
                -2.345644235610962,
                -4.633891582489014,
                -3.068618059158325,
                1.361656665802002,
                -1.437570333480835,
                -1.4011180400848389,
                3.3599746227264404,
                0.4918735921382904,
                1.3597981929779053,
                3.4480178356170654,
                -3.1125614643096924,
                -0.038344092667102814,
                -2.4732587337493896,
                -1.2216103076934814,
                0.1315876990556717,
                3.1513025760650635
            ]
        ],
        "tmit": [
            [
                0.7276381254196167,
                0.854627788066864,
                0.843654990196228,
                0.8794176578521729,
                0.9001091122627258,
                0.7719431519508362,
                0.87332683801651,
                0.5739321708679199,
                0.8457366824150085,
                1.3283449411392212,
                0.8036351203918457,
                1.3102916479110718,
                1.769010305404663,
                0.8636621832847595,
                0.921950101852417,
                0.8526631593704224,
                0.6520206928253174,
                0.8092836141586304,
                0.6936875581741333,
                0.5230945944786072,
                0.48241254687309265,
                0.49195119738578796,
                0.42849549651145935,
                0.39599353075027466,
                0.049779169261455536,
                0.12228832393884659,
                0.13663282990455627,
                0.13927236199378967,
                0.13739663362503052,
                0.1292417347431183,
                0.163934126496315,
                0.5578988790512085,
                0.11092859506607056,
                0.2655653655529022,
                0.14183977246284485,
                0.053557734936475754,
                0.11636453866958618,
                0.10481257736682892,
                0.12284660339355469
            ],
            [
                0.7180628180503845,
                0.8461438417434692,
                0.837605357170105,
                0.8735993504524231,
                0.8927981853485107,
                0.7650189995765686,
                0.8665645122528076,
                0.5694224238395691,
                0.8405637741088867,
                1.3227494955062866,
                0.8007455468177795,
                1.3028967380523682,
                1.7643669843673706,
                0.8543776273727417,
                0.9149290919303894,
                0.8376333713531494,
                0.6535282731056213,
                0.8016260266304016,
                0.6890699863433838,
                0.5208361744880676,
                0.4799100160598755,
                0.48922199010849,
                0.42571988701820374,
                0.3931441009044647,
                0.05199688673019409,
                0.12732352316379547,
                0.1442083865404129,
                0.14691539108753204,
                0.14572498202323914,
                0.13193951547145844,
                0.16846808791160583,
                0.5584375262260437,
                0.18660831451416016,
                0.2627496123313904,
                0.14024047553539276,
                0.05537743493914604,
                0.12190621346235275,
                0.11085096746683121,
                0.12805254757404327
            ],
            [
                0.7542497515678406,
                0.8849079012870789,
                0.8741534948348999,
                0.9103236198425293,
                0.9310877323150635,
                0.7969157695770264,
                0.9017673134803772,
                0.586162269115448,
                0.8704072833061218,
                1.3557319641113281,
                0.827756404876709,
                1.337479591369629,
                1.8024253845214844,
                0.8875616192817688,
                0.949013352394104,
                0.8810290694236755,
                0.6791654229164124,
                0.8332139253616333,
                0.7144116759300232,
                0.5359640121459961,
                0.4968020021915436,
                0.5068536400794983,
                0.4421212375164032,
                0.41063958406448364,
                0.0553017295897007,
                0.13552603125572205,
                0.1521879881620407,
                0.15620861947536469,
                0.15289831161499023,
                0.13877388834953308,
                0.17732995748519897,
                0.5923752784729004,
                0.2018933743238449,
                0.274181604385376,
                0.1465843915939331,
                0.05919014662504196,
                0.1296645551919937,
                0.11657970398664474,
                0.1345430612564087
            ]
        ]
    },
    "icts": {
        "names": [
            "gun:GUNcharge",
            "l0:L0charge",
            "linacbt:LNEcharge",
            "linacbt:BTMcharge",
            "ext:EXTcharge",
            "linacbt:BTEcharge",
            "BIM:DR:nparticles",
            "BIM:IP:nparticles"
        ],
        "charge": [
            0.5245236876349999,
            0.56699172625,
            0.4043716666666667,
            0.23127750000000002,
            0.0046090044700000015,
            0.18746326388888887,
            -0.007794413715600967,
            8.91502495505847e-05
        ]
    },
    "hcorrectors_names": [
        "ZH1L",
        "ZH2L",
        "ZH3L",
        "ZH4L",
        "ZH5L",
        "ZH6L",
        "ZH7L",
        "ZH8L",
        "ZH9L",
        "ZH10L",
        "ZH11L",
        "ZH12L",
        "ZH30T",
        "ZH40T",
        "ZH50T"
    ],
    "vcorrectors_names": [
        "ZV1L",
        "ZV2L",
        "ZV3L",
        "ZV4L",
        "ZV5L",
        "ZV6L",
        "ZV7L",
        "ZV8L",
        "ZV9L",
        "ZV10L",
        "ZV11L",
        "ZV12L",
        "ZV13L",
        "ZV30T",
        "ZV40T",
        "ZV50T",
        "ZV51T"
    ],
    "timestamp": "2024/05/24, 15:12:03"
}