{
    "sequence": [
        "MB5L",
        "MB6L",
        "MB7L",
        "ZH1L",
        "ZV1L",
        "MB8L",
        "MB9L",
        "MB10L",
        "ZV2L",
        "ZH2L",
        "MB11L",
        "ML1L",
        "ML2L",
        "ZV3L",
        "ZH3L",
        "ML3L",
        "ZH4L",
        "ZV4L",
        "ZH5L",
        "ZV5L",
        "ML4L",
        "ZH6L",
        "ZV6L",
        "ML5L",
        "ZH7L",
        "ZV7L",
        "ML6L",
        "ZH8L",
        "ZV8L",
        "ML7L",
        "ZH9L",
        "ML8L",
        "ZV9L",
        "ML9L",
        "ZH10L",
        "ML10L",
        "ZV10L",
        "ML11L",
        "ZH11L",
        "ML12L",
        "ZV11L",
        "ML13L",
        "ZH12L",
        "ML14L",
        "ZV12L",
        "ML15L",
        "ZX10T",
        "ZX11T",
        "ML1T",
        "ZV13L",
        "ZX12T",
        "ML2T",
        "ZY20T",
        "ZY21T",
        "ML101T",
        "ML102T",
        "ZY22T",
        "ZY23T",
        "ML103T",
        "ZX30T",
        "ML3T",
        "ZX31T",
        "ZV30T",
        "ZH30T",
        "ML104T",
        "ZX32T",
        "ML4T",
        "ML105T",
        "ZV40T",
        "ZH40T",
        "ML5T",
        "ML6T",
        "ZX50T",
        "ML106T",
        "ZX50T",
        "ML7T",
        "ZX51T",
        "ZV50T",
        "ML8T",
        "ZH50T",
        "ZV51T",
        "ML9T",
        "MB10T",
        "MB11T"
    ],
    "correctors": {
        "names": [
            "ZH1L",
            "ZV1L",
            "ZV2L",
            "ZH2L",
            "ZV3L",
            "ZH3L",
            "ZH4L",
            "ZV4L",
            "ZH5L",
            "ZV5L",
            "ZH6L",
            "ZV6L",
            "ZH7L",
            "ZV7L",
            "ZH8L",
            "ZV8L",
            "ZH9L",
            "ZV9L",
            "ZH10L",
            "ZV10L",
            "ZH11L",
            "ZV11L",
            "ZH12L",
            "ZV12L",
            "ZX10T",
            "ZX11T",
            "ZV13L",
            "ZX12T",
            "ZY20T",
            "ZY21T",
            "ZY22T",
            "ZY23T",
            "ZX30T",
            "ZX31T",
            "ZV30T",
            "ZH30T",
            "ZX32T",
            "ZV40T",
            "ZH40T",
            "ZX50T",
            "ZX50T",
            "ZX51T",
            "ZV50T",
            "ZH50T",
            "ZV51T"
        ],
        "bdes": [
            1.6058,
            0.32324,
            -3.694e-05,
            0.05,
            -0.018255,
            -0.0023425,
            -0.63212,
            -0.51377,
            0.0067611,
            0.025597,
            -0.089344,
            -0.1705207660638088,
            -0.34279,
            0.0008922,
            0.095066,
            -0.1336,
            -0.39271,
            -0.072191,
            -0.21644,
            -0.41065,
            0.09808,
            0.37969,
            0.043499,
            -1.4308,
            -0.5,
            0.81,
            -0.69,
            0.9,
            0.34,
            -0.25,
            -1.26,
            -1.47,
            0.0,
            0.0,
            0.09,
            -1.79,
            2.05,
            -1.5,
            -2.1085,
            1.29,
            1.29,
            -1.7,
            0.38,
            1.35,
            0.08
        ],
        "bact": [
            1.6047874689102173,
            0.3224230408668518,
            -0.00488519761711359,
            0.04885197803378105,
            -0.02198338881134987,
            -0.00488519761711359,
            -0.6350756883621216,
            -0.5178309679031372,
            0.00488519761711359,
            0.024425989016890526,
            -0.09281875938177109,
            -0.17342451214790344,
            -0.3468490242958069,
            0.0,
            0.09281875938177109,
            -0.13678553700447083,
            -0.39570102095603943,
            -0.07572057098150253,
            -0.21983389556407928,
            -0.4152418076992035,
            0.0977039560675621,
            0.3786028325557709,
            0.04152418300509453,
            -1.4338055849075317,
            -0.5080605745315552,
            0.8036150336265564,
            -0.6985832452774048,
            0.898876428604126,
            0.33463606238365173,
            -0.2589154839515686,
            -1.2677088975906372,
            -1.4802148342132568,
            0.0,
            0.0,
            0.08304836601018906,
            -1.797752857208252,
            2.044455051422119,
            -1.5095261335372925,
            -2.1128480434417725,
            1.2848069667816162,
            1.2848069667816162,
            -1.7073765993118286,
            0.37371763586997986,
            1.343429446220398,
            0.07572057098150253
        ]
    },
    "bpms": {
        "names": [
            "MB5L",
            "MB6L",
            "MB7L",
            "MB8L",
            "MB9L",
            "MB10L",
            "MB11L",
            "ML1L",
            "ML2L",
            "ML3L",
            "ML4L",
            "ML5L",
            "ML6L",
            "ML7L",
            "ML8L",
            "ML9L",
            "ML10L",
            "ML11L",
            "ML12L",
            "ML13L",
            "ML14L",
            "ML15L",
            "ML1T",
            "ML2T",
            "ML101T",
            "ML102T",
            "ML103T",
            "ML3T",
            "ML104T",
            "ML4T",
            "ML105T",
            "ML5T",
            "ML6T",
            "ML106T",
            "ML7T",
            "ML8T",
            "ML9T",
            "MB10T",
            "MB11T"
        ],
        "x": [
            [
                -1.1880334615707397,
                0.6629388928413391,
                0.14456559717655182,
                -7.9404425621032715,
                1.4693968296051025,
                1.1456409692764282,
                0.053963642567396164,
                -2.3906633853912354,
                -0.6709449291229248,
                0.799303412437439,
                -0.16442987322807312,
                -0.6955862045288086,
                0.6348223686218262,
                -0.9889047145843506,
                0.613701581954956,
                -6.28518009185791,
                -2.6911842823028564,
                -0.7833704948425293,
                -1.204716444015503,
                -0.34529197216033936,
                -0.5867242813110352,
                -1.0996187925338745,
                -6.6426520347595215,
                0.2423158586025238,
                -4.860591888427734,
                1.7899844646453857,
                0.988463282585144,
                -0.728763222694397,
                -1.3257404565811157,
                -6.460055828094482,
                -7.18833065032959,
                -2.842151403427124,
                0.6694592833518982,
                -5.303923606872559,
                -1.4756624698638916,
                -2.167323350906372,
                -4.205371379852295,
                2.9517369270324707,
                -3.4442758560180664
            ],
            [
                -1.1605863571166992,
                0.7388703227043152,
                0.2076745182275772,
                -7.949495792388916,
                1.5016006231307983,
                1.1717193126678467,
                0.006783530116081238,
                -2.4656765460968018,
                -0.7034050822257996,
                0.8003315329551697,
                -0.18576544523239136,
                -0.8421313762664795,
                0.6352455615997314,
                -0.982361912727356,
                0.5932055711746216,
                -6.347400665283203,
                -2.793055534362793,
                -0.7917733788490295,
                -1.2221369743347168,
                -0.3036471903324127,
                -0.6039104461669922,
                -1.107473611831665,
                -6.6425628662109375,
                0.1415749341249466,
                -4.805275917053223,
                1.8164819478988647,
                0.7971659302711487,
                -0.6407918930053711,
                -1.296291470527649,
                -6.540341377258301,
                -7.094973564147949,
                -2.8290584087371826,
                0.7320336699485779,
                -5.341152191162109,
                -1.5167688131332397,
                -2.2085118293762207,
                -4.148623943328857,
                2.9390387535095215,
                -3.4419944286346436
            ],
            [
                -1.163672924041748,
                0.6977100372314453,
                0.09091103076934814,
                -8.02265453338623,
                1.4084129333496094,
                1.1160038709640503,
                -0.01156903151422739,
                -2.467059850692749,
                -0.6047002077102661,
                0.8685104846954346,
                -0.16603273153305054,
                -0.9388721585273743,
                0.6576491594314575,
                -0.9812657237052917,
                0.6507668495178223,
                -6.362496852874756,
                -2.88755202293396,
                -0.8030328750610352,
                -1.239928960800171,
                -0.31053626537323,
                -0.5338969230651855,
                -1.0833038091659546,
                -6.650755405426025,
                0.23655320703983307,
                -4.944690227508545,
                1.853251576423645,
                0.8246088027954102,
                -0.8186509013175964,
                -1.333423376083374,
                -6.607881546020508,
                -7.201136112213135,
                -2.864208936691284,
                -0.8377135992050171,
                -5.3274006843566895,
                -1.4987380504608154,
                -2.264183521270752,
                -4.177046298980713,
                2.9966237545013428,
                -3.4018280506134033
            ]
        ],
        "y": [
            [
                -0.7693831920623779,
                0.8244103789329529,
                3.1044676303863525,
                7.68839168548584,
                -4.724681854248047,
                -0.8968014717102051,
                0.2823392450809479,
                -0.9041210412979126,
                -0.821272075176239,
                -1.5101385116577148,
                -0.191703662276268,
                0.31945016980171204,
                0.07936564832925797,
                -0.6407399773597717,
                -0.5917598009109497,
                0.34819090366363525,
                0.1472536027431488,
                0.36168697476387024,
                -0.4594859778881073,
                -1.4417006969451904,
                0.5262200236320496,
                -0.09324567764997482,
                -0.14106936752796173,
                -1.1022294759750366,
                -5.185349464416504,
                -3.8509480953216553,
                2.0413246154785156,
                -1.5266849994659424,
                0.01981825940310955,
                4.296481132507324,
                3.7220823764801025,
                1.5575121641159058,
                2.6450302600860596,
                -2.60250186920166,
                -0.12803058326244354,
                -2.7138853073120117,
                -2.089172124862671,
                0.02606229856610298,
                1.357053518295288
            ],
            [
                -0.8252068758010864,
                0.70128333568573,
                3.0909852981567383,
                7.664834022521973,
                -4.719175815582275,
                -0.8904218077659607,
                0.31425511837005615,
                -0.871673583984375,
                -0.8190332055091858,
                -1.518635869026184,
                -0.22268088161945343,
                0.3010614514350891,
                0.08952979743480682,
                -0.6144059300422668,
                -0.5740280151367188,
                0.3032887578010559,
                0.2605147659778595,
                0.32992443442344666,
                -0.48997506499290466,
                -1.4286787509918213,
                0.5076440572738647,
                -0.11406951397657394,
                -0.037670861929655075,
                -1.1021043062210083,
                -5.164851188659668,
                -3.839160680770874,
                2.1027891635894775,
                -1.6042060852050781,
                -0.020466893911361694,
                4.852303504943848,
                3.290472984313965,
                1.7492949962615967,
                2.8334171772003174,
                -2.6378345489501953,
                -0.0792141854763031,
                -2.6929852962493896,
                -2.1001498699188232,
                0.11980120837688446,
                1.324671983718872
            ],
            [
                -0.727264404296875,
                0.7523401975631714,
                3.0961403846740723,
                7.661069393157959,
                -4.763337135314941,
                -0.9156880974769592,
                0.31053560972213745,
                -0.8384981751441956,
                -0.7401182055473328,
                -1.4749059677124023,
                -0.08551765978336334,
                0.3872445225715637,
                0.10741046071052551,
                -0.69048011302948,
                -0.6178645491600037,
                0.25171273946762085,
                0.11805912107229233,
                0.336868554353714,
                -0.5352210402488708,
                -1.466604232788086,
                0.5108075141906738,
                -0.07524494081735611,
                -0.10757052153348923,
                -1.1144793033599854,
                -5.21122407913208,
                -3.9201130867004395,
                2.020707368850708,
                -1.5285266637802124,
                0.025837551802396774,
                5.379550457000732,
                2.711538553237915,
                1.4405523538589478,
                1.3989746570587158,
                -2.6102795600891113,
                -0.14888669550418854,
                -2.7866241931915283,
                -2.1209404468536377,
                0.1262713223695755,
                1.3294316530227661
            ]
        ],
        "tmit": [
            [
                0.7432824373245239,
                0.8741347193717957,
                0.8677918910980225,
                0.9020030498504639,
                0.9239801168441772,
                0.790692925453186,
                0.8948278427124023,
                0.5836433172225952,
                0.8624491691589355,
                1.3511906862258911,
                0.8211789131164551,
                1.3311107158660889,
                1.7935634851455688,
                0.8832604885101318,
                0.9433040618896484,
                0.8704447746276855,
                0.6743395924568176,
                0.8709116578102112,
                0.7204837799072266,
                0.5349379777908325,
                0.4996258616447449,
                0.5092470049858093,
                0.46117207407951355,
                0.416566401720047,
                0.06478140503168106,
                0.15684440732002258,
                0.1747126579284668,
                0.17879027128219604,
                0.17229063808918,
                0.16808977723121643,
                0.214013934135437,
                0.6990368366241455,
                0.2212793081998825,
                0.2812210023403168,
                0.14951644837856293,
                0.06703219562768936,
                0.14602568745613098,
                0.13490132987499237,
                0.15002566576004028
            ],
            [
                0.734191358089447,
                0.8661000728607178,
                0.8557631969451904,
                0.8897702097892761,
                0.912541925907135,
                0.7801907062530518,
                0.8850407004356384,
                0.5777291059494019,
                0.8549869060516357,
                1.340643286705017,
                0.813587486743927,
                1.3111340999603271,
                1.7827616930007935,
                0.8725300431251526,
                0.9355541467666626,
                0.8640941977500916,
                0.6647245287895203,
                0.8610860705375671,
                0.7129388451576233,
                0.5308717489242554,
                0.49477964639663696,
                0.503880500793457,
                0.4561885893344879,
                0.4108675420284271,
                0.06273762136697769,
                0.15148435533046722,
                0.16855119168758392,
                0.17149466276168823,
                0.1657252013683319,
                0.16143526136875153,
                0.2096860557794571,
                0.6548638939857483,
                0.21195916831493378,
                0.27806735038757324,
                0.14775721728801727,
                0.06516917049884796,
                0.14085344970226288,
                0.12917259335517883,
                0.1466451734304428
            ],
            [
                0.7150871753692627,
                0.8438742756843567,
                0.832848072052002,
                0.8672897219657898,
                0.88991379737854,
                0.7609594464302063,
                0.8630053400993347,
                0.567269504070282,
                0.8382025361061096,
                1.3183773756027222,
                0.7957156896591187,
                1.2857755422592163,
                1.7567481994628906,
                0.8502278923988342,
                0.9126762747764587,
                0.8378450870513916,
                0.6509034037590027,
                0.8392911553382874,
                0.6950523853302002,
                0.5206838250160217,
                0.48259228467941284,
                0.4917949438095093,
                0.44287824630737305,
                0.39992573857307434,
                0.0632159560918808,
                0.15229648351669312,
                0.17107638716697693,
                0.17158150672912598,
                0.16840001940727234,
                0.16197481751441956,
                0.207625150680542,
                0.667792558670044,
                0.2634064555168152,
                0.27012690901756287,
                0.14381226897239685,
                0.06542912125587463,
                0.14196179807186127,
                0.13159826397895813,
                0.1452253758907318
            ]
        ]
    },
    "icts": {
        "names": [
            "gun:GUNcharge",
            "l0:L0charge",
            "linacbt:LNEcharge",
            "linacbt:BTMcharge",
            "ext:EXTcharge",
            "linacbt:BTEcharge",
            "BIM:DR:nparticles",
            "BIM:IP:nparticles"
        ],
        "charge": [
            0.51895900288,
            0.5715504325,
            0.40350312499999996,
            0.267625,
            0.028204414810833335,
            0.22214,
            0.027394242584705353,
            0.04056336358189583
        ]
    },
    "hcorrectors_names": [
        "ZH1L",
        "ZH2L",
        "ZH3L",
        "ZH4L",
        "ZH5L",
        "ZH6L",
        "ZH7L",
        "ZH8L",
        "ZH9L",
        "ZH10L",
        "ZH11L",
        "ZH12L",
        "ZH30T",
        "ZH40T",
        "ZH50T"
    ],
    "vcorrectors_names": [
        "ZV1L",
        "ZV2L",
        "ZV3L",
        "ZV4L",
        "ZV5L",
        "ZV6L",
        "ZV7L",
        "ZV8L",
        "ZV9L",
        "ZV10L",
        "ZV11L",
        "ZV12L",
        "ZV13L",
        "ZV30T",
        "ZV40T",
        "ZV50T",
        "ZV51T"
    ],
    "timestamp": "2024/05/24, 15:15:07"
}