{
    "sequence": [
        "MB5L",
        "MB6L",
        "MB7L",
        "ZH1L",
        "ZV1L",
        "MB8L",
        "MB9L",
        "MB10L",
        "ZV2L",
        "ZH2L",
        "MB11L",
        "ML1L",
        "ML2L",
        "ZV3L",
        "ZH3L",
        "ML3L",
        "ZH4L",
        "ZV4L",
        "ZH5L",
        "ZV5L",
        "ML4L",
        "ZH6L",
        "ZV6L",
        "ML5L",
        "ZH7L",
        "ZV7L",
        "ML6L",
        "ZH8L",
        "ZV8L",
        "ML7L",
        "ZH9L",
        "ML8L",
        "ZV9L",
        "ML9L",
        "ZH10L",
        "ML10L",
        "ZV10L",
        "ML11L",
        "ZH11L",
        "ML12L",
        "ZV11L",
        "ML13L",
        "ZH12L",
        "ML14L",
        "ZV12L",
        "ML15L",
        "ZX10T",
        "ZX11T",
        "ML1T",
        "ZV13L",
        "ZX12T",
        "ML2T",
        "ZY20T",
        "ZY21T",
        "ML101T",
        "ML102T",
        "ZY22T",
        "ZY23T",
        "ML103T",
        "ZX30T",
        "ML3T",
        "ZX31T",
        "ZV30T",
        "ZH30T",
        "ML104T",
        "ZX32T",
        "ML4T",
        "ML105T",
        "ZV40T",
        "ZH40T",
        "ML5T",
        "ML6T",
        "ZX50T",
        "ML106T",
        "ZX50T",
        "ML7T",
        "ZX51T",
        "ZV50T",
        "ML8T",
        "ZH50T",
        "ZV51T",
        "ML9T",
        "MB10T",
        "MB11T"
    ],
    "correctors": {
        "names": [
            "ZH1L",
            "ZV1L",
            "ZV2L",
            "ZH2L",
            "ZV3L",
            "ZH3L",
            "ZH4L",
            "ZV4L",
            "ZH5L",
            "ZV5L",
            "ZH6L",
            "ZV6L",
            "ZH7L",
            "ZV7L",
            "ZH8L",
            "ZV8L",
            "ZH9L",
            "ZV9L",
            "ZH10L",
            "ZV10L",
            "ZH11L",
            "ZV11L",
            "ZH12L",
            "ZV12L",
            "ZX10T",
            "ZX11T",
            "ZV13L",
            "ZX12T",
            "ZY20T",
            "ZY21T",
            "ZY22T",
            "ZY23T",
            "ZX30T",
            "ZX31T",
            "ZV30T",
            "ZH30T",
            "ZX32T",
            "ZV40T",
            "ZH40T",
            "ZX50T",
            "ZX50T",
            "ZX51T",
            "ZV50T",
            "ZH50T",
            "ZV51T"
        ],
        "bdes": [
            1.6058,
            0.32324,
            -3.694e-05,
            0.05,
            -0.018255,
            -0.0023425,
            -0.63212,
            -0.51377,
            0.0067611,
            0.025597,
            -0.089344,
            -0.23399,
            -0.34279,
            0.0008922,
            0.095066,
            -0.1336,
            -0.39271,
            -0.072191,
            -0.21644,
            -0.41065,
            0.09808,
            0.37969,
            0.043499,
            -1.4308,
            -0.5,
            0.81,
            -0.69,
            0.9,
            0.34,
            -0.25,
            -1.26,
            -1.47,
            0.0,
            0.0,
            0.09,
            -1.79,
            2.05,
            -1.5,
            -2.2085,
            1.29,
            1.29,
            -1.7,
            0.38,
            1.35,
            0.08
        ],
        "bact": [
            1.6047874689102173,
            0.3224230408668518,
            -0.00488519761711359,
            0.04885197803378105,
            -0.02198338881134987,
            -0.00488519761711359,
            -0.6350756883621216,
            -0.5178309679031372,
            0.00488519761711359,
            0.024425989016890526,
            -0.09281875938177109,
            -0.23693208396434784,
            -0.3468490242958069,
            0.0,
            0.09281875938177109,
            -0.13678553700447083,
            -0.39570102095603943,
            -0.07572057098150253,
            -0.21983389556407928,
            -0.4152418076992035,
            0.0977039560675621,
            0.3786028325557709,
            0.04152418300509453,
            -1.4338055849075317,
            -0.5080605745315552,
            0.8036150336265564,
            -0.6985832452774048,
            0.898876428604126,
            0.33463606238365173,
            -0.2589154839515686,
            -1.2677088975906372,
            -1.4802148342132568,
            0.0,
            0.0,
            0.08304836601018906,
            -1.797752857208252,
            2.044455051422119,
            -1.5095261335372925,
            -2.2129948139190674,
            1.2848069667816162,
            1.2848069667816162,
            -1.7073765993118286,
            0.37371763586997986,
            1.343429446220398,
            0.07572057098150253
        ]
    },
    "bpms": {
        "names": [
            "MB5L",
            "MB6L",
            "MB7L",
            "MB8L",
            "MB9L",
            "MB10L",
            "MB11L",
            "ML1L",
            "ML2L",
            "ML3L",
            "ML4L",
            "ML5L",
            "ML6L",
            "ML7L",
            "ML8L",
            "ML9L",
            "ML10L",
            "ML11L",
            "ML12L",
            "ML13L",
            "ML14L",
            "ML15L",
            "ML1T",
            "ML2T",
            "ML101T",
            "ML102T",
            "ML103T",
            "ML3T",
            "ML104T",
            "ML4T",
            "ML105T",
            "ML5T",
            "ML6T",
            "ML106T",
            "ML7T",
            "ML8T",
            "ML9T",
            "MB10T",
            "MB11T"
        ],
        "x": [
            [
                -1.1625908613204956,
                0.6521456837654114,
                0.0880802720785141,
                -8.024114608764648,
                1.4412332773208618,
                1.114944577217102,
                0.006299278698861599,
                -2.4630789756774902,
                -0.611301600933075,
                0.8688541650772095,
                -0.15134170651435852,
                -0.8061941862106323,
                0.6502853035926819,
                -0.9899147152900696,
                0.7091646194458008,
                -6.21314811706543,
                -2.641162872314453,
                -0.8613564372062683,
                -1.4101883172988892,
                -0.42014193534851074,
                -0.772743284702301,
                -1.2773408889770508,
                -6.650434494018555,
                0.22503359615802765,
                -5.133667945861816,
                1.889559268951416,
                0.75990891456604,
                -0.7090241312980652,
                -1.2428470849990845,
                -6.582438945770264,
                -7.117891311645508,
                -2.901137351989746,
                0.40821725130081177,
                -5.30530309677124,
                -1.4345242977142334,
                -2.1856822967529297,
                -4.2014851570129395,
                2.955742359161377,
                -3.547600030899048
            ],
            [
                -1.1625908613204956,
                0.6521456837654114,
                0.0880802720785141,
                -8.024114608764648,
                1.4412332773208618,
                1.114944577217102,
                0.006299278698861599,
                -2.4630789756774902,
                -0.611301600933075,
                0.8688541650772095,
                -0.15134170651435852,
                -0.8061941862106323,
                0.6502853035926819,
                -0.9899147152900696,
                0.7091646194458008,
                -6.21314811706543,
                -2.641162872314453,
                -0.8613564372062683,
                -1.4101883172988892,
                -0.42014193534851074,
                -0.772743284702301,
                -1.2773408889770508,
                -6.650434494018555,
                0.22503359615802765,
                -5.133667945861816,
                1.889559268951416,
                0.75990891456604,
                -0.7090241312980652,
                -1.2428470849990845,
                -6.582438945770264,
                -7.117891311645508,
                -2.901137351989746,
                0.40821725130081177,
                -5.30530309677124,
                -1.4345242977142334,
                -2.1856822967529297,
                -4.2014851570129395,
                2.955742359161377,
                -3.547600030899048
            ],
            [
                -1.1919935941696167,
                0.7748900651931763,
                0.12700901925563812,
                -7.99531364440918,
                1.4497722387313843,
                1.1568870544433594,
                -0.009762189351022243,
                -2.4650275707244873,
                -0.6590688228607178,
                0.8731141686439514,
                -0.160409078001976,
                -0.7840661406517029,
                0.6494703888893127,
                -0.9512118697166443,
                0.6790103316307068,
                -6.311147689819336,
                -2.7027106285095215,
                -0.8555130958557129,
                -1.3126578330993652,
                -0.39382925629615784,
                -0.7209798097610474,
                -1.2124711275100708,
                -6.660738468170166,
                0.03142185136675835,
                -5.101446628570557,
                1.8562822341918945,
                0.9379180669784546,
                -0.7765129208564758,
                -1.2799896001815796,
                -6.582106113433838,
                -6.884311676025391,
                -2.871487617492676,
                0.05141192302107811,
                -5.421957969665527,
                -1.5399346351623535,
                -2.206637382507324,
                -4.263941764831543,
                3.0719189643859863,
                -3.603647232055664
            ]
        ],
        "y": [
            [
                -0.7817250490188599,
                0.8572835326194763,
                3.0621936321258545,
                7.6653313636779785,
                -4.763119220733643,
                -0.8894303441047668,
                0.3294220566749573,
                -0.8650654554367065,
                -0.7780095338821411,
                -1.501312255859375,
                -0.16101127862930298,
                0.3302512466907501,
                -0.06754116714000702,
                -1.590580701828003,
                -0.8843427896499634,
                0.32900649309158325,
                0.4899277091026306,
                1.6134756803512573,
                0.3878653943538666,
                -0.6791552305221558,
                0.6747856736183167,
                -0.1297513246536255,
                -0.6672673225402832,
                -1.4560465812683105,
                -4.959895610809326,
                -3.6109375953674316,
                1.7203601598739624,
                -1.4347316026687622,
                -0.5028721690177917,
                4.731198310852051,
                3.000110149383545,
                1.7228060960769653,
                2.677778482437134,
                -2.6573660373687744,
                -0.039669305086135864,
                -2.591851234436035,
                -1.7131010293960571,
                0.16924837231636047,
                1.8279716968536377
            ],
            [
                -0.7817250490188599,
                0.8572835326194763,
                3.0621936321258545,
                7.6653313636779785,
                -4.763119220733643,
                -0.8894303441047668,
                0.3294220566749573,
                -0.8650654554367065,
                -0.7780095338821411,
                -1.501312255859375,
                -0.16101127862930298,
                0.3302512466907501,
                -0.06754116714000702,
                -1.590580701828003,
                -0.8843427896499634,
                0.32900649309158325,
                0.4899277091026306,
                1.6134756803512573,
                0.3878653943538666,
                -0.6791552305221558,
                0.6747856736183167,
                -0.1297513246536255,
                -0.6672673225402832,
                -1.4560465812683105,
                -4.959895610809326,
                -3.6109375953674316,
                1.7203601598739624,
                -1.4347316026687622,
                -0.5028721690177917,
                4.731198310852051,
                3.000110149383545,
                1.7228060960769653,
                2.677778482437134,
                -2.6573660373687744,
                -0.039669305086135864,
                -2.591851234436035,
                -1.7131010293960571,
                0.16924837231636047,
                1.8279716968536377
            ],
            [
                -0.746708869934082,
                0.6919126510620117,
                3.0355143547058105,
                7.618990898132324,
                -4.733448505401611,
                -0.8986190557479858,
                0.3687154948711395,
                -0.8526400327682495,
                -0.7883943319320679,
                -1.5193679332733154,
                -0.2377018928527832,
                0.2968977689743042,
                -0.08022170513868332,
                -1.549795389175415,
                -0.8905170559883118,
                0.39508873224258423,
                0.48310816287994385,
                1.6217851638793945,
                0.4407534897327423,
                -0.6438478231430054,
                0.7048861980438232,
                -0.14245259761810303,
                -0.5598347187042236,
                -1.4770071506500244,
                -5.015426158905029,
                -3.6862587928771973,
                1.9157154560089111,
                -1.4158799648284912,
                -0.6302700042724609,
                3.3599746227264404,
                5.151819229125977,
                1.9762227535247803,
                2.3742258548736572,
                -2.564871311187744,
                0.10387957096099854,
                -2.687699556350708,
                -1.856312870979309,
                0.14047208428382874,
                2.311796188354492
            ]
        ],
        "tmit": [
            [
                0.7164876461029053,
                0.8448165059089661,
                0.8352246284484863,
                0.8713687658309937,
                0.8935772776603699,
                0.7660309076309204,
                0.8658086061477661,
                0.5696707963943481,
                0.8394917845726013,
                1.3208143711090088,
                0.7985149621963501,
                1.2982803583145142,
                1.7601184844970703,
                0.8535661697387695,
                0.9155844449996948,
                0.8403853178024292,
                0.6562514305114746,
                0.8328471183776855,
                0.6959754228591919,
                0.5219934582710266,
                0.4833414554595947,
                0.49304360151290894,
                0.4429413378238678,
                0.4005526006221771,
                0.05604097247123718,
                0.1375969499349594,
                0.15400612354278564,
                0.15360303223133087,
                0.15265516936779022,
                0.14740678668022156,
                0.19505366683006287,
                0.6214648485183716,
                0.18847234547138214,
                0.2705211043357849,
                0.1435990184545517,
                0.05884353816509247,
                0.1284506767988205,
                0.11730223894119263,
                0.1335289180278778
            ],
            [
                0.7164876461029053,
                0.8448165059089661,
                0.8352246284484863,
                0.8713687658309937,
                0.8935772776603699,
                0.7660309076309204,
                0.8658086061477661,
                0.5696707963943481,
                0.8394917845726013,
                1.3208143711090088,
                0.7985149621963501,
                1.2982803583145142,
                1.7601184844970703,
                0.8535661697387695,
                0.9155844449996948,
                0.8403853178024292,
                0.6562514305114746,
                0.8328471183776855,
                0.6959754228591919,
                0.5219934582710266,
                0.4833414554595947,
                0.49304360151290894,
                0.4429413378238678,
                0.4005526006221771,
                0.05604097247123718,
                0.1375969499349594,
                0.15400612354278564,
                0.15360303223133087,
                0.15265516936779022,
                0.14740678668022156,
                0.19505366683006287,
                0.6214648485183716,
                0.18847234547138214,
                0.2705211043357849,
                0.1435990184545517,
                0.05884353816509247,
                0.1284506767988205,
                0.11730223894119263,
                0.1335289180278778
            ],
            [
                0.7291745543479919,
                0.8626326322555542,
                0.8521303534507751,
                0.8847407102584839,
                0.9096753001213074,
                0.7784603834152222,
                0.8795238137245178,
                0.5771306753158569,
                0.8537723422050476,
                1.3376330137252808,
                0.8105640411376953,
                1.3139368295669556,
                1.7754473686218262,
                0.8695642948150635,
                0.9291893243789673,
                0.8471592664718628,
                0.6643804907798767,
                0.8457099199295044,
                0.7075485587120056,
                0.5266337990760803,
                0.4907836318016052,
                0.5001689195632935,
                0.45114201307296753,
                0.4087589681148529,
                0.052649158984422684,
                0.12858232855796814,
                0.141380175948143,
                0.1449177861213684,
                0.1429893970489502,
                0.14237093925476074,
                0.18722227215766907,
                0.606920063495636,
                0.1780337542295456,
                0.27463212609291077,
                0.14578473567962646,
                0.055767372250556946,
                0.12164232134819031,
                0.11085096746683121,
                0.12426640838384628
            ]
        ]
    },
    "icts": {
        "names": [
            "gun:GUNcharge",
            "l0:L0charge",
            "linacbt:LNEcharge",
            "linacbt:BTMcharge",
            "ext:EXTcharge",
            "linacbt:BTEcharge",
            "BIM:DR:nparticles",
            "BIM:IP:nparticles"
        ],
        "charge": [
            0.5195328049599999,
            0.5734565762500001,
            0.403640625,
            0.2467675,
            0.005686022696666668,
            0.2027636111111111,
            -0.007794413715600967,
            -0.0009806527523323894
        ]
    },
    "hcorrectors_names": [
        "ZH1L",
        "ZH2L",
        "ZH3L",
        "ZH4L",
        "ZH5L",
        "ZH6L",
        "ZH7L",
        "ZH8L",
        "ZH9L",
        "ZH10L",
        "ZH11L",
        "ZH12L",
        "ZH30T",
        "ZH40T",
        "ZH50T"
    ],
    "vcorrectors_names": [
        "ZV1L",
        "ZV2L",
        "ZV3L",
        "ZV4L",
        "ZV5L",
        "ZV6L",
        "ZV7L",
        "ZV8L",
        "ZV9L",
        "ZV10L",
        "ZV11L",
        "ZV12L",
        "ZV13L",
        "ZV30T",
        "ZV40T",
        "ZV50T",
        "ZV51T"
    ],
    "timestamp": "2024/05/24, 15:13:15"
}