{
    "sequence": [
        "MB5L",
        "MB6L",
        "MB7L",
        "ZH1L",
        "ZV1L",
        "MB8L",
        "MB9L",
        "MB10L",
        "ZV2L",
        "ZH2L",
        "MB11L",
        "ML1L",
        "ML2L",
        "ZV3L",
        "ZH3L",
        "ML3L",
        "ZH4L",
        "ZV4L",
        "ZH5L",
        "ZV5L",
        "ML4L",
        "ZH6L",
        "ZV6L",
        "ML5L",
        "ZH7L",
        "ZV7L",
        "ML6L",
        "ZH8L",
        "ZV8L",
        "ML7L",
        "ZH9L",
        "ML8L",
        "ZV9L",
        "ML9L",
        "ZH10L",
        "ML10L",
        "ZV10L",
        "ML11L",
        "ZH11L",
        "ML12L",
        "ZV11L",
        "ML13L",
        "ZH12L",
        "ML14L",
        "ZV12L",
        "ML15L",
        "ZX10T",
        "ZX11T",
        "ML1T",
        "ZV13L",
        "ZX12T",
        "ML2T",
        "ZY20T",
        "ZY21T",
        "ML101T",
        "ML102T",
        "ZY22T",
        "ZY23T",
        "ML103T",
        "ZX30T",
        "ML3T",
        "ZX31T",
        "ZV30T",
        "ZH30T",
        "ML104T",
        "ZX32T",
        "ML4T",
        "ML105T",
        "ZV40T",
        "ZH40T",
        "ML5T",
        "ML6T",
        "ZX50T",
        "ML106T",
        "ZX50T",
        "ML7T",
        "ZX51T",
        "ZV50T",
        "ML8T",
        "ZH50T",
        "ZV51T",
        "ML9T",
        "MB10T",
        "MB11T"
    ],
    "correctors": {
        "names": [
            "ZH1L",
            "ZV1L",
            "ZV2L",
            "ZH2L",
            "ZV3L",
            "ZH3L",
            "ZH4L",
            "ZV4L",
            "ZH5L",
            "ZV5L",
            "ZH6L",
            "ZV6L",
            "ZH7L",
            "ZV7L",
            "ZH8L",
            "ZV8L",
            "ZH9L",
            "ZV9L",
            "ZH10L",
            "ZV10L",
            "ZH11L",
            "ZV11L",
            "ZH12L",
            "ZV12L",
            "ZX10T",
            "ZX11T",
            "ZV13L",
            "ZX12T",
            "ZY20T",
            "ZY21T",
            "ZY22T",
            "ZY23T",
            "ZX30T",
            "ZX31T",
            "ZV30T",
            "ZH30T",
            "ZX32T",
            "ZV40T",
            "ZH40T",
            "ZX50T",
            "ZX50T",
            "ZX51T",
            "ZV50T",
            "ZH50T",
            "ZV51T"
        ],
        "bdes": [
            1.6058,
            0.32324,
            -3.694e-05,
            0.05,
            -0.018255,
            -0.0023425,
            -0.63212,
            -0.51377,
            0.0067611,
            0.025597,
            -0.089344,
            -0.23399,
            -0.34279,
            0.0008922,
            0.095066,
            -0.19142519964107443,
            -0.39271,
            -0.072191,
            -0.21644,
            -0.41065,
            0.09808,
            0.37969,
            0.043499,
            -1.4308,
            -0.5,
            0.81,
            -0.69,
            0.9,
            0.34,
            -0.25,
            -1.26,
            -1.47,
            0.0,
            0.0,
            0.09,
            -1.79,
            2.05,
            -1.5,
            -2.1085,
            1.29,
            1.29,
            -1.7,
            0.38,
            1.35,
            0.08
        ],
        "bact": [
            1.6047874689102173,
            0.3224230408668518,
            -0.00488519761711359,
            0.04885197803378105,
            -0.02198338881134987,
            -0.00488519761711359,
            -0.6350756883621216,
            -0.5178309679031372,
            0.00488519761711359,
            0.024425989016890526,
            -0.09281875938177109,
            -0.23693208396434784,
            -0.3468490242958069,
            0.0,
            0.09281875938177109,
            -0.1954079121351242,
            -0.39570102095603943,
            -0.07572057098150253,
            -0.21983389556407928,
            -0.4152418076992035,
            0.0977039560675621,
            0.3786028325557709,
            0.04152418300509453,
            -1.4338055849075317,
            -0.5080605745315552,
            0.8036150336265564,
            -0.6985832452774048,
            0.898876428604126,
            0.33463606238365173,
            -0.2589154839515686,
            -1.2677088975906372,
            -1.4802148342132568,
            0.0,
            0.0,
            0.08304836601018906,
            -1.797752857208252,
            2.044455051422119,
            -1.5095261335372925,
            -2.1128480434417725,
            1.2848069667816162,
            1.2848069667816162,
            -1.7073765993118286,
            0.37371763586997986,
            1.343429446220398,
            0.07572057098150253
        ]
    },
    "bpms": {
        "names": [
            "MB5L",
            "MB6L",
            "MB7L",
            "MB8L",
            "MB9L",
            "MB10L",
            "MB11L",
            "ML1L",
            "ML2L",
            "ML3L",
            "ML4L",
            "ML5L",
            "ML6L",
            "ML7L",
            "ML8L",
            "ML9L",
            "ML10L",
            "ML11L",
            "ML12L",
            "ML13L",
            "ML14L",
            "ML15L",
            "ML1T",
            "ML2T",
            "ML101T",
            "ML102T",
            "ML103T",
            "ML3T",
            "ML104T",
            "ML4T",
            "ML105T",
            "ML5T",
            "ML6T",
            "ML106T",
            "ML7T",
            "ML8T",
            "ML9T",
            "MB10T",
            "MB11T"
        ],
        "x": [
            [
                -1.1609653234481812,
                0.7107468247413635,
                0.08465196192264557,
                -8.018205642700195,
                1.4157708883285522,
                1.1321839094161987,
                -0.003812690731137991,
                -2.449122905731201,
                -0.5990151166915894,
                0.8785366415977478,
                -0.1496976912021637,
                -0.7264323234558105,
                0.6612825989723206,
                -0.9666611552238464,
                0.6858819723129272,
                -6.308904647827148,
                -2.9111642837524414,
                -0.8638665676116943,
                -1.2558945417404175,
                -0.32302558422088623,
                -0.560695230960846,
                -1.112311840057373,
                -6.623053550720215,
                0.469298392534256,
                -4.733931064605713,
                1.8000870943069458,
                0.8334710597991943,
                -0.6590052247047424,
                -1.3325968980789185,
                -6.411837100982666,
                -7.101749897003174,
                -2.823498249053955,
                -1.5900626182556152,
                -5.268186092376709,
                -1.414041519165039,
                -2.1796391010284424,
                -4.150149345397949,
                2.9195969104766846,
                -3.3146581649780273
            ],
            [
                -1.1741464138031006,
                0.5999908447265625,
                0.10980752855539322,
                -7.968071460723877,
                1.4668848514556885,
                1.2090247869491577,
                0.026592111214995384,
                -2.4071812629699707,
                -0.6984145045280457,
                0.7330023646354675,
                -0.17250657081604004,
                -0.8227756023406982,
                0.623744010925293,
                -1.0503778457641602,
                0.5951531529426575,
                -6.35426139831543,
                -2.8854687213897705,
                -0.7609841823577881,
                -1.1649129390716553,
                -0.31901952624320984,
                -0.5212712287902832,
                -1.0612150430679321,
                -6.645211219787598,
                0.2604962885379791,
                -4.756652355194092,
                1.8728028535842896,
                0.8227590322494507,
                -0.7809178233146667,
                -1.4085845947265625,
                -6.518554210662842,
                -7.100733757019043,
                -2.8127617835998535,
                1.2394379377365112,
                -5.374406337738037,
                -1.4914472103118896,
                -2.15313458442688,
                -4.182941913604736,
                2.978891372680664,
                -3.356703758239746
            ],
            [
                -1.190377950668335,
                0.6685439944267273,
                0.17378279566764832,
                -8.010401725769043,
                1.4458142518997192,
                1.1366629600524902,
                -0.002108780201524496,
                -2.4517440795898438,
                -0.6475366353988647,
                0.8473169803619385,
                -0.1646319180727005,
                -0.6977339386940002,
                0.655796229839325,
                -1.036832571029663,
                0.6619687676429749,
                -6.397293567657471,
                -2.980499744415283,
                -0.7866454124450684,
                -1.206552267074585,
                -0.2835903465747833,
                -0.4796833097934723,
                -1.075075626373291,
                -6.649670124053955,
                0.32270708680152893,
                -4.737478733062744,
                1.8769900798797607,
                0.8545354604721069,
                -0.792434573173523,
                -1.3183276653289795,
                -6.575903415679932,
                -7.1592698097229,
                -2.9000110626220703,
                0.3297314941883087,
                -5.289098262786865,
                -1.4863744974136353,
                -2.226813554763794,
                -4.173630714416504,
                2.9196767807006836,
                -3.3930249214172363
            ]
        ],
        "y": [
            [
                -0.7672874927520752,
                0.7282869219779968,
                3.124041795730591,
                7.711013317108154,
                -4.775835037231445,
                -0.9022859930992126,
                0.31553179025650024,
                -0.8603844046592712,
                -0.774843692779541,
                -1.4901683330535889,
                -0.1293891966342926,
                0.378471702337265,
                -0.046788476407527924,
                -1.6057350635528564,
                -1.3669506311416626,
                -0.8008142709732056,
                0.05658382549881935,
                0.8921762108802795,
                0.08615027368068695,
                -0.9445408582687378,
                0.6810986399650574,
                -0.0019165684934705496,
                -0.6949222683906555,
                -1.535892367362976,
                -5.53822135925293,
                -4.015945911407471,
                2.300581216812134,
                -1.8041417598724365,
                0.25023818016052246,
                4.26524543762207,
                3.491121768951416,
                1.7821954488754272,
                -0.3248356282711029,
                -3.125976085662842,
                -0.7355873584747314,
                -3.0890209674835205,
                -2.4910967350006104,
                0.3656136393547058,
                1.457335114479065
            ],
            [
                -0.7809118628501892,
                0.8289508819580078,
                3.164043426513672,
                7.728116035461426,
                -4.692423343658447,
                -0.9095429182052612,
                0.2690593898296356,
                -0.9237069487571716,
                -0.8167930245399475,
                -1.509978175163269,
                -0.18588751554489136,
                0.32167044281959534,
                -0.0614752396941185,
                -1.5337936878204346,
                -1.3656179904937744,
                -0.8147982358932495,
                0.12984725832939148,
                0.8367915153503418,
                0.08875047415494919,
                -0.9405385851860046,
                0.6910185813903809,
                -0.006820912007242441,
                -0.6521576046943665,
                -1.5583921670913696,
                -5.5171918869018555,
                -4.035908222198486,
                2.3601016998291016,
                -1.801712155342102,
                0.29684314131736755,
                3.980386257171631,
                3.8623766899108887,
                1.4252959489822388,
                2.8794219493865967,
                -3.014012336730957,
                -0.6001374125480652,
                -3.07890248298645,
                -2.5022599697113037,
                0.4434976577758789,
                1.1923677921295166
            ],
            [
                -0.8536849617958069,
                0.8044089078903198,
                3.091169595718384,
                7.695324420928955,
                -4.750000953674316,
                -0.8857819437980652,
                0.3056457042694092,
                -0.8726935982704163,
                -0.7724916934967041,
                -1.5100352764129639,
                -0.1573982983827591,
                0.3312529921531677,
                -0.07274936139583588,
                -1.641161322593689,
                -1.3781516551971436,
                -0.7980101704597473,
                0.025722956284880638,
                0.8797057867050171,
                0.06342927366495132,
                -0.9427168369293213,
                0.7275387048721313,
                0.00423435540869832,
                -0.6599127650260925,
                -1.5449362993240356,
                -5.532854080200195,
                -4.006128787994385,
                2.274447441101074,
                -1.7408586740493774,
                0.25271156430244446,
                5.041573524475098,
                2.937687397003174,
                1.8167434930801392,
                2.4033362865448,
                -3.1394214630126953,
                -0.6162880659103394,
                -3.1184537410736084,
                -2.489076852798462,
                0.39088648557662964,
                1.4942549467086792
            ]
        ],
        "tmit": [
            [
                0.7116197347640991,
                0.8389351963996887,
                0.8304590582847595,
                0.8628128170967102,
                0.88631671667099,
                0.7591525316238403,
                0.8606088757514954,
                0.5663244128227234,
                0.8369829654693604,
                1.3154932260513306,
                0.7949864864349365,
                1.2973049879074097,
                1.756705641746521,
                0.8470242619514465,
                0.9082196354866028,
                0.835939884185791,
                0.6431382894515991,
                0.829811155796051,
                0.6917551755905151,
                0.5184479355812073,
                0.4804682731628418,
                0.4895362854003906,
                0.4375162422657013,
                0.39758923649787903,
                0.08174045383930206,
                0.19042593240737915,
                0.21673177182674408,
                0.2189161330461502,
                0.21089288592338562,
                0.21143414080142975,
                0.2614145874977112,
                0.8525646924972534,
                0.5169149041175842,
                0.2674237787723541,
                0.1425861269235611,
                0.08193642646074295,
                0.17837847769260406,
                0.164628803730011,
                0.18565590679645538
            ],
            [
                0.7350711226463318,
                0.865574300289154,
                0.8565351963043213,
                0.8916339874267578,
                0.9127806425094604,
                0.7828026413917542,
                0.8854498267173767,
                0.5797736644744873,
                0.8572738170623779,
                1.3394206762313843,
                0.8125098943710327,
                1.3113529682159424,
                1.7804478406906128,
                0.8707413673400879,
                0.9317864179611206,
                0.8683279752731323,
                0.6614024043083191,
                0.858357310295105,
                0.7128100395202637,
                0.5299202799797058,
                0.49410179257392883,
                0.5052034854888916,
                0.4510789215564728,
                0.40984174609184265,
                0.08069682121276855,
                0.18798954784870148,
                0.2131965011358261,
                0.21622370183467865,
                0.20657671988010406,
                0.21449163556098938,
                0.25708672404289246,
                0.8207817673683167,
                0.23768281936645508,
                0.27784207463264465,
                0.14695756137371063,
                0.08050665259361267,
                0.17505347728729248,
                0.16075803339481354,
                0.1832219511270523
            ],
            [
                0.7038394212722778,
                0.8328168988227844,
                0.8268049955368042,
                0.8594043850898743,
                0.8831007480621338,
                0.7556368708610535,
                0.8558066487312317,
                0.5643085241317749,
                0.8312994837760925,
                1.3112231492996216,
                0.789924681186676,
                1.2922837734222412,
                1.7495619058609009,
                0.8422845602035522,
                0.9044158458709717,
                0.8312827944755554,
                0.6437092423439026,
                0.8304892778396606,
                0.6915338039398193,
                0.5170269012451172,
                0.47964248061180115,
                0.48743653297424316,
                0.4359391927719116,
                0.3969053626060486,
                0.07865303754806519,
                0.18352283537387848,
                0.2056209295988083,
                0.20875439047813416,
                0.2012879103422165,
                0.20280122756958008,
                0.25049182772636414,
                0.7884600758552551,
                0.22687141597270966,
                0.2674800753593445,
                0.14146661758422852,
                0.07803706079721451,
                0.17035625874996185,
                0.15735174715518951,
                0.17788079380989075
            ]
        ]
    },
    "icts": {
        "names": [
            "gun:GUNcharge",
            "l0:L0charge",
            "linacbt:LNEcharge",
            "linacbt:BTMcharge",
            "ext:EXTcharge",
            "linacbt:BTEcharge",
            "BIM:DR:nparticles",
            "BIM:IP:nparticles"
        ],
        "charge": [
            0.5111827892749999,
            0.5534821637499999,
            0.3953172916666667,
            0.30735250000000003,
            0.008889359995833332,
            0.25811465277777773,
            -0.00427554827183485,
            -0.0003566009982023388
        ]
    },
    "hcorrectors_names": [
        "ZH1L",
        "ZH2L",
        "ZH3L",
        "ZH4L",
        "ZH5L",
        "ZH6L",
        "ZH7L",
        "ZH8L",
        "ZH9L",
        "ZH10L",
        "ZH11L",
        "ZH12L",
        "ZH30T",
        "ZH40T",
        "ZH50T"
    ],
    "vcorrectors_names": [
        "ZV1L",
        "ZV2L",
        "ZV3L",
        "ZV4L",
        "ZV5L",
        "ZV6L",
        "ZV7L",
        "ZV8L",
        "ZV9L",
        "ZV10L",
        "ZV11L",
        "ZV12L",
        "ZV13L",
        "ZV30T",
        "ZV40T",
        "ZV50T",
        "ZV51T"
    ],
    "timestamp": "2024/05/24, 15:15:50"
}