{
    "sequence": [
        "MB5L",
        "MB6L",
        "MB7L",
        "ZH1L",
        "ZV1L",
        "MB8L",
        "MB9L",
        "MB10L",
        "ZV2L",
        "ZH2L",
        "MB11L",
        "ML1L",
        "ML2L",
        "ZV3L",
        "ZH3L",
        "ML3L",
        "ZH4L",
        "ZV4L",
        "ZH5L",
        "ZV5L",
        "ML4L",
        "ZH6L",
        "ZV6L",
        "ML5L",
        "ZH7L",
        "ZV7L",
        "ML6L",
        "ZH8L",
        "ZV8L",
        "ML7L",
        "ZH9L",
        "ML8L",
        "ZV9L",
        "ML9L",
        "ZH10L",
        "ML10L",
        "ZV10L",
        "ML11L",
        "ZH11L",
        "ML12L",
        "ZV11L",
        "ML13L",
        "ZH12L",
        "ML14L",
        "ZV12L",
        "ML15L",
        "ZX10T",
        "ZX11T",
        "ML1T",
        "ZV13L",
        "ZX12T",
        "ML2T",
        "ZY20T",
        "ZY21T",
        "ML101T",
        "ML102T",
        "ZY22T",
        "ZY23T",
        "ML103T",
        "ZX30T",
        "ML3T",
        "ZX31T",
        "ZV30T",
        "ZH30T",
        "ML104T",
        "ZX32T",
        "ML4T",
        "ML105T",
        "ZV40T",
        "ZH40T",
        "ML5T",
        "ML6T",
        "ZX50T",
        "ML106T",
        "ZX50T",
        "ML7T",
        "ZX51T",
        "ZV50T",
        "ML8T",
        "ZH50T",
        "ZV51T",
        "ML9T",
        "MB10T",
        "MB11T"
    ],
    "correctors": {
        "names": [
            "ZH1L",
            "ZV1L",
            "ZV2L",
            "ZH2L",
            "ZV3L",
            "ZH3L",
            "ZH4L",
            "ZV4L",
            "ZH5L",
            "ZV5L",
            "ZH6L",
            "ZV6L",
            "ZH7L",
            "ZV7L",
            "ZH8L",
            "ZV8L",
            "ZH9L",
            "ZV9L",
            "ZH10L",
            "ZV10L",
            "ZH11L",
            "ZV11L",
            "ZH12L",
            "ZV12L",
            "ZX10T",
            "ZX11T",
            "ZV13L",
            "ZX12T",
            "ZY20T",
            "ZY21T",
            "ZY22T",
            "ZY23T",
            "ZX30T",
            "ZX31T",
            "ZV30T",
            "ZH30T",
            "ZX32T",
            "ZV40T",
            "ZH40T",
            "ZX50T",
            "ZX50T",
            "ZX51T",
            "ZV50T",
            "ZH50T",
            "ZV51T"
        ],
        "bdes": [
            1.6058,
            0.3791041016657343,
            -3.694e-05,
            0.05,
            -0.018255,
            -0.0023425,
            -0.63212,
            -0.51377,
            0.0067611,
            0.025597,
            -0.089344,
            -0.23399,
            -0.34279,
            0.0008922,
            0.095066,
            -0.1336,
            -0.39271,
            -0.072191,
            -0.21644,
            -0.41065,
            0.09808,
            0.37969,
            0.043499,
            -1.4308,
            -0.5,
            0.81,
            -0.69,
            0.9,
            0.34,
            -0.25,
            -1.26,
            -1.47,
            0.0,
            0.0,
            0.09,
            -1.79,
            2.05,
            -1.5,
            -2.1085,
            1.29,
            1.29,
            -1.7,
            0.38,
            1.35,
            0.08
        ],
        "bact": [
            1.6047874689102173,
            0.3786028325557709,
            -0.00488519761711359,
            0.04885197803378105,
            -0.02198338881134987,
            -0.00488519761711359,
            -0.6350756883621216,
            -0.5178309679031372,
            0.00488519761711359,
            0.024425989016890526,
            -0.09281875938177109,
            -0.23693208396434784,
            -0.3468490242958069,
            0.0,
            0.09281875938177109,
            -0.13678553700447083,
            -0.39570102095603943,
            -0.07572057098150253,
            -0.21983389556407928,
            -0.4152418076992035,
            0.0977039560675621,
            0.3786028325557709,
            0.04152418300509453,
            -1.4338055849075317,
            -0.5080605745315552,
            0.8036150336265564,
            -0.6985832452774048,
            0.898876428604126,
            0.33463606238365173,
            -0.2589154839515686,
            -1.2677088975906372,
            -1.4802148342132568,
            0.0,
            0.0,
            0.08304836601018906,
            -1.797752857208252,
            2.044455051422119,
            -1.5095261335372925,
            -2.1128480434417725,
            1.2848069667816162,
            1.2848069667816162,
            -1.7073765993118286,
            0.37371763586997986,
            1.343429446220398,
            0.07572057098150253
        ]
    },
    "bpms": {
        "names": [
            "MB5L",
            "MB6L",
            "MB7L",
            "MB8L",
            "MB9L",
            "MB10L",
            "MB11L",
            "ML1L",
            "ML2L",
            "ML3L",
            "ML4L",
            "ML5L",
            "ML6L",
            "ML7L",
            "ML8L",
            "ML9L",
            "ML10L",
            "ML11L",
            "ML12L",
            "ML13L",
            "ML14L",
            "ML15L",
            "ML1T",
            "ML2T",
            "ML101T",
            "ML102T",
            "ML103T",
            "ML3T",
            "ML104T",
            "ML4T",
            "ML105T",
            "ML5T",
            "ML6T",
            "ML106T",
            "ML7T",
            "ML8T",
            "ML9T",
            "MB10T",
            "MB11T"
        ],
        "x": [
            [
                -1.1766115427017212,
                0.619533121585846,
                0.16677337884902954,
                -7.8986687660217285,
                1.511690378189087,
                1.2198636531829834,
                0.07424918562173843,
                -2.3692898750305176,
                -0.7096548676490784,
                0.752627968788147,
                -0.20533885061740875,
                -0.8123378753662109,
                0.6028581261634827,
                -0.9594414234161377,
                0.5964913964271545,
                -6.190014362335205,
                -2.5723958015441895,
                -0.782315194606781,
                -1.1892048120498657,
                -0.39567071199417114,
                -0.6994220614433289,
                -1.128944754600525,
                -6.646003723144531,
                0.07852701097726822,
                -5.23721170425415,
                1.8792237043380737,
                0.9583531022071838,
                -0.6936196088790894,
                -1.3239245414733887,
                -6.474201679229736,
                -6.996898174285889,
                -2.8240439891815186,
                -1.1793956756591797,
                -5.341911315917969,
                -1.4885838031768799,
                -2.3536319732666016,
                -4.3935227394104,
                3.0939953327178955,
                -3.6741223335266113
            ],
            [
                -1.145550012588501,
                0.7377450466156006,
                0.1303442120552063,
                -7.952648162841797,
                1.4968843460083008,
                1.1848864555358887,
                0.011823548004031181,
                -2.4083826541900635,
                -0.6715046167373657,
                0.8044962286949158,
                -0.1787862330675125,
                -0.6488541960716248,
                0.6220924854278564,
                -0.987155020236969,
                0.6391023993492126,
                -6.199761867523193,
                -2.6379294395446777,
                -0.8253042101860046,
                -1.3034579753875732,
                -0.39052337408065796,
                -0.7197295427322388,
                -1.1728179454803467,
                -6.639394760131836,
                0.2804916501045227,
                -5.18660831451416,
                1.9038612842559814,
                1.0549960136413574,
                -0.624208927154541,
                -1.1206787824630737,
                -6.368443965911865,
                -7.295502185821533,
                -2.9316494464874268,
                -0.5534446835517883,
                -5.25786828994751,
                -1.4223055839538574,
                -2.2825334072113037,
                -4.196857929229736,
                2.9980385303497314,
                -3.5789127349853516
            ],
            [
                -1.1259948015213013,
                0.7247892022132874,
                0.04726802930235863,
                -8.039734840393066,
                1.3900951147079468,
                1.0929193496704102,
                -0.03372199460864067,
                -2.4756202697753906,
                -0.5641331076622009,
                0.9231499433517456,
                -0.15916605293750763,
                -0.843328595161438,
                0.6631119847297668,
                -0.9506211280822754,
                0.7028089165687561,
                -6.2344231605529785,
                -2.709303140640259,
                -0.8415185213088989,
                -1.2934374809265137,
                -0.3409762382507324,
                -0.6517734527587891,
                -1.1923600435256958,
                -6.621700763702393,
                0.41650912165641785,
                -4.9556450843811035,
                1.914789080619812,
                0.8904648423194885,
                -0.7127597332000732,
                -1.1151337623596191,
                -6.6917290687561035,
                -7.017635345458984,
                -2.827817678451538,
                -0.26431429386138916,
                -5.2219624519348145,
                -1.4056569337844849,
                -2.2205259799957275,
                -4.1827168464660645,
                2.9172935485839844,
                -3.6297945976257324
            ]
        ],
        "y": [
            [
                -0.7773663997650146,
                0.7705652117729187,
                3.1079764366149902,
                7.681777477264404,
                -4.571869373321533,
                -0.6613687872886658,
                0.6050381064414978,
                -0.8837088942527771,
                -1.364429235458374,
                -1.962197184562683,
                -1.3878321647644043,
                -0.6057450175285339,
                -0.4816013276576996,
                -1.5546038150787354,
                -0.4795764982700348,
                1.3724638223648071,
                0.874821126461029,
                2.3010735511779785,
                0.9199519157409668,
                -0.2525486350059509,
                0.69866943359375,
                -0.23452995717525482,
                -0.6563026309013367,
                -1.4066791534423828,
                -4.5307722091674805,
                -3.3387653827667236,
                1.4509111642837524,
                -1.3402677774429321,
                -1.3026002645492554,
                4.552649974822998,
                3.554356336593628,
                1.7115774154663086,
                0.6786410808563232,
                -2.327144145965576,
                0.565546989440918,
                -2.3117611408233643,
                -1.118480920791626,
                -0.3243296444416046,
                2.6509056091308594
            ],
            [
                -0.7443287968635559,
                0.692019522190094,
                3.074737548828125,
                7.640674114227295,
                -4.646179676055908,
                -0.6391767859458923,
                0.6264669299125671,
                -0.8665021657943726,
                -1.3172436952590942,
                -1.9707417488098145,
                -1.4028868675231934,
                -0.5973755717277527,
                -0.48619920015335083,
                -1.609947681427002,
                -0.5007543563842773,
                1.4108483791351318,
                0.9676669836044312,
                2.387683153152466,
                0.8809822201728821,
                -0.29330477118492126,
                0.7087016701698303,
                -0.2733996510505676,
                -0.7306941747665405,
                -1.462194800376892,
                -4.401134014129639,
                -3.2091662883758545,
                1.2582721710205078,
                -1.1570316553115845,
                -1.1525685787200928,
                4.825811862945557,
                3.3804829120635986,
                1.0834521055221558,
                2.3611979484558105,
                -2.474365472793579,
                0.46562814712524414,
                -2.212782859802246,
                -0.9962644577026367,
                -0.08806133270263672,
                2.515596389770508
            ],
            [
                -0.7192418575286865,
                0.6690422296524048,
                3.0140609741210938,
                7.633602142333984,
                -4.693294525146484,
                -0.6540090441703796,
                0.6515302658081055,
                -0.8263726830482483,
                -1.2283598184585571,
                -1.8926860094070435,
                -1.324257731437683,
                -0.5359597206115723,
                -0.4710717797279358,
                -1.6671514511108398,
                -0.5261016488075256,
                1.3445639610290527,
                0.8697519898414612,
                2.3056931495666504,
                0.847187876701355,
                -0.3552497625350952,
                0.7353811860084534,
                -0.23289835453033447,
                -0.7288283705711365,
                -1.4257582426071167,
                -4.463507175445557,
                -3.2194323539733887,
                1.446539044380188,
                -1.2828733921051025,
                -1.1961005926132202,
                4.941162586212158,
                2.4732697010040283,
                1.563778281211853,
                2.1628613471984863,
                -2.5185370445251465,
                0.36427614092826843,
                -2.2423653602600098,
                -1.1508738994598389,
                -0.18329313397407532,
                2.48736310005188
            ]
        ],
        "tmit": [
            [
                0.7825507521629333,
                0.920900821685791,
                0.9098585844039917,
                0.9438632130622864,
                0.9666479825973511,
                0.8273345232009888,
                0.9363836646080017,
                0.6046866774559021,
                0.8979582190513611,
                1.3913253545761108,
                0.8614178895950317,
                1.368815302848816,
                1.835307002067566,
                0.9244765043258667,
                0.9846019148826599,
                0.9273884892463684,
                0.7031522393226624,
                0.8982948064804077,
                0.7481608390808105,
                0.5490410923957825,
                0.5188122987747192,
                0.5316080451011658,
                0.48154765367507935,
                0.43656936287879944,
                0.03282011300325394,
                0.08281886577606201,
                0.08825024217367172,
                0.09106921404600143,
                0.09089156240224838,
                0.08697648346424103,
                0.11509083956480026,
                0.3488854169845581,
                0.17505131661891937,
                0.2948492467403412,
                0.15740634500980377,
                0.03609725832939148,
                0.07794228941202164,
                0.07116272300481796,
                0.07802145928144455
            ],
            [
                0.7444983124732971,
                0.876593828201294,
                0.8674598932266235,
                0.9015041589736938,
                0.924606442451477,
                0.7918199300765991,
                0.8952588438987732,
                0.5846579074859619,
                0.8642345070838928,
                1.351311206817627,
                0.8303619027137756,
                1.3395609855651855,
                1.792826771736145,
                0.887170135974884,
                0.9493386745452881,
                0.8789122104644775,
                0.6759671568870544,
                0.8588706851005554,
                0.7195501327514648,
                0.5338996648788452,
                0.500762403011322,
                0.5098034143447876,
                0.45839646458625793,
                0.4159395396709442,
                0.03673374280333519,
                0.09280804544687271,
                0.10319934785366058,
                0.10331542044878006,
                0.10493427515029907,
                0.09201234579086304,
                0.11818218976259232,
                0.396829217672348,
                0.14149872958660126,
                0.2796441614627838,
                0.14930321276187897,
                0.04012659937143326,
                0.08717840909957886,
                0.07983323931694031,
                0.08836571872234344
            ],
            [
                0.719336211681366,
                0.8494173288345337,
                0.8391514420509338,
                0.8719946146011353,
                0.8945122957229614,
                0.7661020755767822,
                0.866744875907898,
                0.5708171725273132,
                0.8403474688529968,
                1.3208868503570557,
                0.8086490631103516,
                1.3012560606002808,
                1.7614802122116089,
                0.858066737651825,
                0.9193801879882812,
                0.8422905206680298,
                0.6603370904922485,
                0.8311386108398438,
                0.6993387937545776,
                0.5217648148536682,
                0.48434779047966003,
                0.4936327040195465,
                0.4411119222640991,
                0.3996407985687256,
                0.03699465095996857,
                0.09317350387573242,
                0.10198726505041122,
                0.10192578285932541,
                0.10493427515029907,
                0.08931455761194229,
                0.1260135918855667,
                0.3833618760108948,
                0.14783643186092377,
                0.2678743004798889,
                0.14375895261764526,
                0.04051653668284416,
                0.08770618587732315,
                0.08065899461507797,
                0.08877138048410416
            ]
        ]
    },
    "icts": {
        "names": [
            "gun:GUNcharge",
            "l0:L0charge",
            "linacbt:LNEcharge",
            "linacbt:BTMcharge",
            "ext:EXTcharge",
            "linacbt:BTEcharge",
            "BIM:DR:nparticles",
            "BIM:IP:nparticles"
        ],
        "charge": [
            0.5064429450099999,
            0.555992845,
            0.391966875,
            0.20801250000000004,
            0.026161247880833335,
            0.16679625,
            0.01331877987831831,
            0.011054630391299725
        ]
    },
    "hcorrectors_names": [
        "ZH1L",
        "ZH2L",
        "ZH3L",
        "ZH4L",
        "ZH5L",
        "ZH6L",
        "ZH7L",
        "ZH8L",
        "ZH9L",
        "ZH10L",
        "ZH11L",
        "ZH12L",
        "ZH30T",
        "ZH40T",
        "ZH50T"
    ],
    "vcorrectors_names": [
        "ZV1L",
        "ZV2L",
        "ZV3L",
        "ZV4L",
        "ZV5L",
        "ZV6L",
        "ZV7L",
        "ZV8L",
        "ZV9L",
        "ZV10L",
        "ZV11L",
        "ZV12L",
        "ZV13L",
        "ZV30T",
        "ZV40T",
        "ZV50T",
        "ZV51T"
    ],
    "timestamp": "2024/05/24, 15:13:30"
}