{
    "sequence": [
        "MB5L",
        "MB6L",
        "MB7L",
        "ZH1L",
        "ZV1L",
        "MB8L",
        "MB9L",
        "MB10L",
        "ZV2L",
        "ZH2L",
        "MB11L",
        "ML1L",
        "ML2L",
        "ZV3L",
        "ZH3L",
        "ML3L",
        "ZH4L",
        "ZV4L",
        "ZH5L",
        "ZV5L",
        "ML4L",
        "ZH6L",
        "ZV6L",
        "ML5L",
        "ZH7L",
        "ZV7L",
        "ML6L",
        "ZH8L",
        "ZV8L",
        "ML7L",
        "ZH9L",
        "ML8L",
        "ZV9L",
        "ML9L",
        "ZH10L",
        "ML10L",
        "ZV10L",
        "ML11L",
        "ZH11L",
        "ML12L",
        "ZV11L",
        "ML13L",
        "ZH12L",
        "ML14L",
        "ZV12L",
        "ML15L",
        "ZX10T",
        "ZX11T",
        "ML1T",
        "ZV13L",
        "ZX12T",
        "ML2T",
        "ZY20T",
        "ZY21T",
        "ML101T",
        "ML102T",
        "ZY22T",
        "ZY23T",
        "ML103T",
        "ZX30T",
        "ML3T",
        "ZX31T",
        "ZV30T",
        "ZH30T",
        "ML104T",
        "ZX32T",
        "ML4T",
        "ML105T",
        "ZV40T",
        "ZH40T",
        "ML5T",
        "ML6T",
        "ZX50T",
        "ML106T",
        "ZX50T",
        "ML7T",
        "ZX51T",
        "ZV50T",
        "ML8T",
        "ZH50T",
        "ZV51T",
        "ML9T",
        "MB10T",
        "MB11T"
    ],
    "correctors": {
        "names": [
            "ZH1L",
            "ZV1L",
            "ZV2L",
            "ZH2L",
            "ZV3L",
            "ZH3L",
            "ZH4L",
            "ZV4L",
            "ZH5L",
            "ZV5L",
            "ZH6L",
            "ZV6L",
            "ZH7L",
            "ZV7L",
            "ZH8L",
            "ZV8L",
            "ZH9L",
            "ZV9L",
            "ZH10L",
            "ZV10L",
            "ZH11L",
            "ZV11L",
            "ZH12L",
            "ZV12L",
            "ZX10T",
            "ZX11T",
            "ZV13L",
            "ZX12T",
            "ZY20T",
            "ZY21T",
            "ZY22T",
            "ZY23T",
            "ZX30T",
            "ZX31T",
            "ZV30T",
            "ZH30T",
            "ZX32T",
            "ZV40T",
            "ZH40T",
            "ZX50T",
            "ZX50T",
            "ZX51T",
            "ZV50T",
            "ZH50T",
            "ZV51T"
        ],
        "bdes": [
            1.6058,
            0.32324,
            -3.694e-05,
            0.05,
            -0.018255,
            -0.0023425,
            -0.63212,
            -0.51377,
            0.0067611,
            0.025597,
            -0.089344,
            -0.23399,
            -0.34279,
            -0.11775896249669432,
            0.095066,
            -0.1336,
            -0.39271,
            -0.072191,
            -0.21644,
            -0.41065,
            0.09808,
            0.37969,
            0.043499,
            -1.4308,
            -0.5,
            0.81,
            -0.69,
            0.9,
            0.34,
            -0.25,
            -1.26,
            -1.47,
            0.0,
            0.0,
            0.09,
            -1.79,
            2.05,
            -1.5,
            -2.1085,
            1.29,
            1.29,
            -1.7,
            0.38,
            1.35,
            0.08
        ],
        "bact": [
            1.6047874689102173,
            0.3224230408668518,
            -0.00488519761711359,
            0.04885197803378105,
            -0.02198338881134987,
            -0.00488519761711359,
            -0.6350756883621216,
            -0.5178309679031372,
            0.00488519761711359,
            0.024425989016890526,
            -0.09281875938177109,
            -0.23693208396434784,
            -0.3468490242958069,
            -0.12212993949651718,
            0.09281875938177109,
            -0.13678553700447083,
            -0.39570102095603943,
            -0.07572057098150253,
            -0.21983389556407928,
            -0.4152418076992035,
            0.0977039560675621,
            0.3786028325557709,
            0.04152418300509453,
            -1.4338055849075317,
            -0.5080605745315552,
            0.8036150336265564,
            -0.6985832452774048,
            0.898876428604126,
            0.33463606238365173,
            -0.2589154839515686,
            -1.2677088975906372,
            -1.4802148342132568,
            0.0,
            0.0,
            0.08304836601018906,
            -1.797752857208252,
            2.044455051422119,
            -1.5095261335372925,
            -2.1128480434417725,
            1.2848069667816162,
            1.2848069667816162,
            -1.7073765993118286,
            0.37371763586997986,
            1.343429446220398,
            0.07572057098150253
        ]
    },
    "bpms": {
        "names": [
            "MB5L",
            "MB6L",
            "MB7L",
            "MB8L",
            "MB9L",
            "MB10L",
            "MB11L",
            "ML1L",
            "ML2L",
            "ML3L",
            "ML4L",
            "ML5L",
            "ML6L",
            "ML7L",
            "ML8L",
            "ML9L",
            "ML10L",
            "ML11L",
            "ML12L",
            "ML13L",
            "ML14L",
            "ML15L",
            "ML1T",
            "ML2T",
            "ML101T",
            "ML102T",
            "ML103T",
            "ML3T",
            "ML104T",
            "ML4T",
            "ML105T",
            "ML5T",
            "ML6T",
            "ML106T",
            "ML7T",
            "ML8T",
            "ML9T",
            "MB10T",
            "MB11T"
        ],
        "x": [
            [
                -1.1950548887252808,
                0.6415942311286926,
                0.11330821365118027,
                -7.9573798179626465,
                1.4685697555541992,
                1.1724189519882202,
                0.02335427515208721,
                -2.396141767501831,
                -0.6623766422271729,
                0.765269935131073,
                -0.16941529512405396,
                -0.6696152091026306,
                0.6231729984283447,
                -0.968427836894989,
                0.5994089245796204,
                -6.38663911819458,
                -2.8466389179229736,
                -0.8105353116989136,
                -1.1374804973602295,
                -0.27240946888923645,
                -0.5260418057441711,
                -1.0435680150985718,
                -6.655031681060791,
                0.1881582885980606,
                -4.869841575622559,
                1.7645257711410522,
                0.8421911001205444,
                -0.657117486000061,
                -1.2308446168899536,
                -6.320540904998779,
                -7.137272357940674,
                -2.845853328704834,
                0.0712730661034584,
                -5.308610439300537,
                -1.4935266971588135,
                -2.1921298503875732,
                -4.115739345550537,
                2.8580644130706787,
                -3.4288814067840576
            ],
            [
                -1.1571465730667114,
                0.5639343857765198,
                0.007712049875408411,
                -8.05172061920166,
                1.3956831693649292,
                1.1633812189102173,
                -0.0033162988256663084,
                -2.3995752334594727,
                -0.6164949536323547,
                0.8508092761039734,
                -0.1730741411447525,
                -0.7457033395767212,
                0.6437361240386963,
                -1.0053194761276245,
                0.6743626594543457,
                -6.297368049621582,
                -2.8768818378448486,
                -0.8044183254241943,
                -1.2300784587860107,
                -0.2921663224697113,
                -0.5589285492897034,
                -1.0887041091918945,
                -6.64743185043335,
                0.4381016790866852,
                -4.886773109436035,
                1.8028619289398193,
                0.7489156126976013,
                -0.6387346982955933,
                -1.117612600326538,
                -6.496682643890381,
                -6.987318992614746,
                -2.829577684402466,
                0.893477201461792,
                -5.2396721839904785,
                -1.3654093742370605,
                -2.214592695236206,
                -4.092380523681641,
                2.8349993228912354,
                -3.468576669692993
            ],
            [
                -1.1515275239944458,
                0.6689943075180054,
                0.05424560606479645,
                -8.060192108154297,
                1.4476932287216187,
                1.1636502742767334,
                -0.013040297664701939,
                -2.4364218711853027,
                -0.6232174634933472,
                0.839701771736145,
                -0.1640382707118988,
                -0.7603135108947754,
                0.6536468267440796,
                -1.0562152862548828,
                0.6759164333343506,
                -6.307522773742676,
                -2.919426679611206,
                -0.8347951769828796,
                -1.1805399656295776,
                -0.2787681818008423,
                -0.45117005705833435,
                -1.0890809297561646,
                -6.611202239990234,
                0.5502119064331055,
                -4.720369338989258,
                1.7414005994796753,
                0.9199575781822205,
                -0.5888867378234863,
                -1.0118120908737183,
                -6.304291248321533,
                -6.9398932456970215,
                -2.8738622665405273,
                1.4391182661056519,
                -5.1620192527771,
                -1.338049292564392,
                -2.196321725845337,
                -4.009605407714844,
                2.7961723804473877,
                -3.4471793174743652
            ]
        ],
        "y": [
            [
                -0.797982931137085,
                0.7816116809844971,
                3.1440393924713135,
                7.7152533531188965,
                -4.688983917236328,
                -0.9005201458930969,
                0.27723559737205505,
                -0.9179530739784241,
                -0.8563514351844788,
                -1.5233396291732788,
                -0.22632209956645966,
                0.2942676246166229,
                -0.0950830951333046,
                -2.362396717071533,
                -1.2721631526947021,
                -0.003701964160427451,
                0.7043049931526184,
                2.467395305633545,
                1.1820800304412842,
                0.02125081792473793,
                0.8778925538063049,
                -0.09926681965589523,
                -1.1952269077301025,
                -1.872427225112915,
                -5.070477485656738,
                -3.4902260303497314,
                1.7942631244659424,
                -1.4496614933013916,
                -0.5198774337768555,
                3.747836112976074,
                1.6994493007659912,
                1.6052348613739014,
                2.2052130699157715,
                -2.9716415405273438,
                -0.1285652071237564,
                -2.7533183097839355,
                -1.7448580265045166,
                0.2965223491191864,
                2.4532361030578613
            ],
            [
                -0.7881483435630798,
                0.8472335338592529,
                3.1608192920684814,
                7.715580463409424,
                -4.712984561920166,
                -0.9273114800453186,
                0.2836533784866333,
                -0.8838963508605957,
                -0.7596335411071777,
                -1.4684028625488281,
                -0.08634507656097412,
                0.39479729533195496,
                -0.07317572832107544,
                -2.4397003650665283,
                -1.3787754774093628,
                -0.05282945558428764,
                1.1282635927200317,
                2.558565378189087,
                1.232023000717163,
                -0.0003427553456276655,
                0.8879678845405579,
                -0.11989361047744751,
                -1.1817268133163452,
                -1.8955737352371216,
                -5.017881870269775,
                -3.5602636337280273,
                1.7591595649719238,
                -1.4646565914154053,
                -0.5557277798652649,
                4.400730133056641,
                3.5226049423217773,
                1.3792201280593872,
                3.1561295986175537,
                -3.047523021697998,
                -0.2701002061367035,
                -2.6661500930786133,
                -1.7783910036087036,
                0.2962053716182709,
                2.218844413757324
            ],
            [
                -0.8079006671905518,
                0.7893510460853577,
                3.168567657470703,
                7.752629280090332,
                -4.736475467681885,
                -0.9147103428840637,
                0.26456165313720703,
                -0.8629368543624878,
                -0.723493754863739,
                -1.4765233993530273,
                -0.05477867275476456,
                0.3908226191997528,
                -0.0811520591378212,
                -2.4554126262664795,
                -1.3832974433898926,
                -0.02389897219836712,
                0.7266653776168823,
                2.525568962097168,
                1.2564433813095093,
                -0.031696513295173645,
                0.858203649520874,
                -0.11845632642507553,
                -1.2146128416061401,
                -1.845464825630188,
                -5.013591289520264,
                -3.5159740447998047,
                1.7672308683395386,
                -1.497649908065796,
                -0.5334140062332153,
                3.930856227874756,
                2.8731272220611572,
                1.5746718645095825,
                3.3206706047058105,
                -3.1765615940093994,
                -0.38692787289619446,
                -2.658818006515503,
                -1.6921727657318115,
                0.15543663501739502,
                2.1567442417144775
            ]
        ],
        "tmit": [
            [
                0.7491945028305054,
                0.8820554614067078,
                0.8686749935150146,
                0.9042507410049438,
                0.9273343682289124,
                0.7929490208625793,
                0.8985270857810974,
                0.5859472751617432,
                0.8671579360961914,
                1.3541412353515625,
                0.823885440826416,
                1.3357850313186646,
                1.7943394184112549,
                0.8786344528198242,
                0.9412752985954285,
                0.8782771825790405,
                0.6693783402442932,
                0.8550249338150024,
                0.7194283604621887,
                0.5322304964065552,
                0.4979138672351837,
                0.5106381177902222,
                0.4517097473144531,
                0.41331806778907776,
                0.06160701811313629,
                0.1492103934288025,
                0.1689552217721939,
                0.17175520956516266,
                0.16797447204589844,
                0.15819792449474335,
                0.20473989844322205,
                0.6721020936965942,
                0.23619157075881958,
                0.2795315384864807,
                0.14781051874160767,
                0.06417266279459,
                0.14138123393058777,
                0.12855327129364014,
                0.14583386480808258
            ],
            [
                0.7329800128936768,
                0.858717143535614,
                0.8483911752700806,
                0.8851106762886047,
                0.9053006768226624,
                0.7757145762443542,
                0.8775506019592285,
                0.5748377442359924,
                0.849871814250946,
                1.3330193758010864,
                0.8079565763473511,
                1.3088594675064087,
                1.7701257467269897,
                0.8581235408782959,
                0.920730471611023,
                0.8524514436721802,
                0.6433784365653992,
                0.8337906002998352,
                0.7032075524330139,
                0.5243552327156067,
                0.48657795786857605,
                0.49718931317329407,
                0.43871480226516724,
                0.40186336636543274,
                0.06421609967947006,
                0.15444862842559814,
                0.17541971802711487,
                0.1784428507089615,
                0.1738712042570114,
                0.1621546745300293,
                0.20865559577941895,
                0.7184298038482666,
                0.21419599652290344,
                0.27046480774879456,
                0.14423874020576477,
                0.06724882870912552,
                0.14544512331485748,
                0.13392072916030884,
                0.15218915045261383
            ],
            [
                0.7101761102676392,
                0.8348064422607422,
                0.825767993927002,
                0.8615343570709229,
                0.8829842209815979,
                0.7567603588104248,
                0.8565133213996887,
                0.5645440220832825,
                0.8325239419937134,
                1.3127912282943726,
                0.7912706136703491,
                1.286636233329773,
                1.7461501359939575,
                0.8376805186271667,
                0.9007902145385742,
                0.8287425637245178,
                0.6430404186248779,
                0.8146205544471741,
                0.689736008644104,
                0.5166926980018616,
                0.4771677255630493,
                0.4871017336845398,
                0.42546752095222473,
                0.3921752870082855,
                0.06495533883571625,
                0.15684440732002258,
                0.17319753766059875,
                0.17757433652877808,
                0.17453989386558533,
                0.15945687890052795,
                0.20844951272010803,
                0.6920337677001953,
                0.2115863561630249,
                0.2634817361831665,
                0.14072026312351227,
                0.06772541254758835,
                0.147292360663414,
                0.13495293259620667,
                0.15205393731594086
            ]
        ]
    },
    "icts": {
        "names": [
            "gun:GUNcharge",
            "l0:L0charge",
            "linacbt:LNEcharge",
            "linacbt:BTMcharge",
            "ext:EXTcharge",
            "linacbt:BTEcharge",
            "BIM:DR:nparticles",
            "BIM:IP:nparticles"
        ],
        "charge": [
            0.5156715951299999,
            0.5619888700000001,
            0.39824604166666666,
            0.26880000000000004,
            0.006295805075,
            0.21367923611111111,
            -0.011313279159367085,
            -1.672309588560578e-16
        ]
    },
    "hcorrectors_names": [
        "ZH1L",
        "ZH2L",
        "ZH3L",
        "ZH4L",
        "ZH5L",
        "ZH6L",
        "ZH7L",
        "ZH8L",
        "ZH9L",
        "ZH10L",
        "ZH11L",
        "ZH12L",
        "ZH30T",
        "ZH40T",
        "ZH50T"
    ],
    "vcorrectors_names": [
        "ZV1L",
        "ZV2L",
        "ZV3L",
        "ZV4L",
        "ZV5L",
        "ZV6L",
        "ZV7L",
        "ZV8L",
        "ZV9L",
        "ZV10L",
        "ZV11L",
        "ZV12L",
        "ZV13L",
        "ZV30T",
        "ZV40T",
        "ZV50T",
        "ZV51T"
    ],
    "timestamp": "2024/05/24, 15:15:30"
}