{
    "sequence": [
        "MB5L",
        "MB6L",
        "MB7L",
        "ZH1L",
        "ZV1L",
        "MB8L",
        "MB9L",
        "MB10L",
        "ZV2L",
        "ZH2L",
        "MB11L",
        "ML1L",
        "ML2L",
        "ZV3L",
        "ZH3L",
        "ML3L",
        "ZH4L",
        "ZV4L",
        "ZH5L",
        "ZV5L",
        "ML4L",
        "ZH6L",
        "ZV6L",
        "ML5L",
        "ZH7L",
        "ZV7L",
        "ML6L",
        "ZH8L",
        "ZV8L",
        "ML7L",
        "ZH9L",
        "ML8L",
        "ZV9L",
        "ML9L",
        "ZH10L",
        "ML10L",
        "ZV10L",
        "ML11L",
        "ZH11L",
        "ML12L",
        "ZV11L",
        "ML13L",
        "ZH12L",
        "ML14L",
        "ZV12L",
        "ML15L",
        "ZX10T",
        "ZX11T",
        "ML1T",
        "ZV13L",
        "ZX12T",
        "ML2T",
        "ZY20T",
        "ZY21T",
        "ML101T",
        "ML102T",
        "ZY22T",
        "ZY23T",
        "ML103T",
        "ZX30T",
        "ML3T",
        "ZX31T",
        "ZV30T",
        "ZH30T",
        "ML104T",
        "ZX32T",
        "ML4T",
        "ML105T",
        "ZV40T",
        "ZH40T",
        "ML5T",
        "ML6T",
        "ZX50T",
        "ML106T",
        "ZX50T",
        "ML7T",
        "ZX51T",
        "ZV50T",
        "ML8T",
        "ZH50T",
        "ZV51T",
        "ML9T",
        "MB10T",
        "MB11T"
    ],
    "correctors": {
        "names": [
            "ZH1L",
            "ZV1L",
            "ZV2L",
            "ZH2L",
            "ZV3L",
            "ZH3L",
            "ZH4L",
            "ZV4L",
            "ZH5L",
            "ZV5L",
            "ZH6L",
            "ZV6L",
            "ZH7L",
            "ZV7L",
            "ZH8L",
            "ZV8L",
            "ZH9L",
            "ZV9L",
            "ZH10L",
            "ZV10L",
            "ZH11L",
            "ZV11L",
            "ZH12L",
            "ZV12L",
            "ZX10T",
            "ZX11T",
            "ZV13L",
            "ZX12T",
            "ZY20T",
            "ZY21T",
            "ZY22T",
            "ZY23T",
            "ZX30T",
            "ZX31T",
            "ZV30T",
            "ZH30T",
            "ZX32T",
            "ZV40T",
            "ZH40T",
            "ZX50T",
            "ZX50T",
            "ZX51T",
            "ZV50T",
            "ZH50T",
            "ZV51T"
        ],
        "bdes": [
            1.6058,
            0.32324,
            -3.694e-05,
            0.05,
            -0.018255,
            -0.0023425,
            -0.63212,
            -0.51377,
            0.0067611,
            0.025597,
            -0.089344,
            -0.23399,
            -0.34279,
            0.0008922,
            0.095066,
            -0.1336,
            -0.39271,
            -0.072191,
            -0.21644,
            -0.41065,
            0.09808,
            0.27969,
            0.043499,
            -1.4308,
            -0.5,
            0.81,
            -0.69,
            0.9,
            0.34,
            -0.25,
            -1.26,
            -1.47,
            0.0,
            0.0,
            0.09,
            -1.79,
            2.05,
            -1.5,
            -2.1085,
            1.29,
            1.29,
            -1.7,
            0.38,
            1.35,
            0.08
        ],
        "bact": [
            1.6047874689102173,
            0.3224230408668518,
            -0.00488519761711359,
            0.04885197803378105,
            -0.02198338881134987,
            -0.00488519761711359,
            -0.6350756883621216,
            -0.5178309679031372,
            0.00488519761711359,
            0.024425989016890526,
            -0.09281875938177109,
            -0.23693208396434784,
            -0.3468490242958069,
            0.0,
            0.09281875938177109,
            -0.13678553700447083,
            -0.39570102095603943,
            -0.07572057098150253,
            -0.21983389556407928,
            -0.4152418076992035,
            0.0977039560675621,
            0.2784562408924103,
            0.04152418300509453,
            -1.4338055849075317,
            -0.5080605745315552,
            0.8036150336265564,
            -0.6985832452774048,
            0.898876428604126,
            0.33463606238365173,
            -0.2589154839515686,
            -1.2677088975906372,
            -1.4802148342132568,
            0.0,
            0.0,
            0.08304836601018906,
            -1.797752857208252,
            2.044455051422119,
            -1.5095261335372925,
            -2.1128480434417725,
            1.2848069667816162,
            1.2848069667816162,
            -1.7073765993118286,
            0.37371763586997986,
            1.343429446220398,
            0.07572057098150253
        ]
    },
    "bpms": {
        "names": [
            "MB5L",
            "MB6L",
            "MB7L",
            "MB8L",
            "MB9L",
            "MB10L",
            "MB11L",
            "ML1L",
            "ML2L",
            "ML3L",
            "ML4L",
            "ML5L",
            "ML6L",
            "ML7L",
            "ML8L",
            "ML9L",
            "ML10L",
            "ML11L",
            "ML12L",
            "ML13L",
            "ML14L",
            "ML15L",
            "ML1T",
            "ML2T",
            "ML101T",
            "ML102T",
            "ML103T",
            "ML3T",
            "ML104T",
            "ML4T",
            "ML105T",
            "ML5T",
            "ML6T",
            "ML106T",
            "ML7T",
            "ML8T",
            "ML9T",
            "MB10T",
            "MB11T"
        ],
        "x": [
            [
                -1.155793309211731,
                0.6621654033660889,
                0.19983454048633575,
                -7.947597026824951,
                1.4675345420837402,
                1.1820635795593262,
                0.02785629965364933,
                -2.3849740028381348,
                -0.7004991769790649,
                0.8002124428749084,
                -0.207633376121521,
                -0.8652644753456116,
                0.6118775010108948,
                -0.9043765068054199,
                0.5941162109375,
                -6.309795379638672,
                -2.646152973175049,
                -0.7897870540618896,
                -1.2255610227584839,
                -0.3517477810382843,
                -0.664179265499115,
                -1.1555864810943604,
                -6.615586280822754,
                0.5620599389076233,
                -6.125704765319824,
                1.7672466039657593,
                1.042776346206665,
                -0.5005115270614624,
                -0.6527912020683289,
                -6.578816890716553,
                -7.715954780578613,
                -2.9784622192382812,
                -2.5347890853881836,
                -5.126469612121582,
                -1.2740877866744995,
                -2.4799232482910156,
                -4.444066047668457,
                2.9704391956329346,
                -3.866349697113037
            ],
            [
                -1.195913553237915,
                0.5310061573982239,
                0.04993012547492981,
                -8.010177612304688,
                1.4360636472702026,
                1.148457646369934,
                0.029854537919163704,
                -2.389784574508667,
                -0.6285530924797058,
                0.8269336223602295,
                -0.1855713278055191,
                -0.8345409631729126,
                0.6355747580528259,
                -0.9950299263000488,
                0.6424607634544373,
                -6.3276567459106445,
                -2.6904830932617188,
                -0.8138819336891174,
                -1.24668550491333,
                -0.37508219480514526,
                -0.6561353206634521,
                -1.1359385251998901,
                -6.614944934844971,
                0.4992922246456146,
                -6.256691932678223,
                1.8113654851913452,
                1.3656706809997559,
                -0.8488261103630066,
                -0.7942760586738586,
                -5.791440010070801,
                -6.383304119110107,
                0.0,
                -1.638346552848816,
                -5.134573936462402,
                -1.2986496686935425,
                -2.4843828678131104,
                -4.275242328643799,
                3.480045795440674,
                -3.8602495193481445
            ],
            [
                -1.139776349067688,
                0.6114588379859924,
                0.06655415147542953,
                -8.029520034790039,
                1.442803978919983,
                1.1467162370681763,
                0.027269886806607246,
                -2.424561023712158,
                -0.6493849754333496,
                0.8257130980491638,
                -0.17593902349472046,
                -0.6467757225036621,
                0.6496599912643433,
                -0.9972833395004272,
                0.6132352948188782,
                -6.319581985473633,
                -2.821046829223633,
                -0.8327656984329224,
                -1.208315372467041,
                -0.3492623567581177,
                -0.5803460478782654,
                -1.107473611831665,
                -6.617847442626953,
                0.5938594341278076,
                -5.823574066162109,
                2.014345169067383,
                1.5054385662078857,
                -0.25082769989967346,
                -0.5506775379180908,
                -5.639815330505371,
                -7.310152053833008,
                -2.941516637802124,
                -2.6819422245025635,
                -5.1087446212768555,
                -1.2936209440231323,
                -2.6771183013916016,
                -4.484541893005371,
                3.225135326385498,
                -3.7443621158599854
            ]
        ],
        "y": [
            [
                -0.7843067646026611,
                0.7745886445045471,
                3.0949177742004395,
                7.651626110076904,
                -4.713381767272949,
                -0.8855065107345581,
                0.33772751688957214,
                -0.8967103958129883,
                -0.8666391372680664,
                -1.5289276838302612,
                -0.2690028250217438,
                0.27202823758125305,
                -0.08250853419303894,
                -1.4713456630706787,
                -0.8065434694290161,
                0.38217630982398987,
                0.49031519889831543,
                1.5419753789901733,
                0.47407275438308716,
                -0.6458843350410461,
                0.5235002040863037,
                -0.4655267298221588,
                -0.05004611611366272,
                -0.8736588954925537,
                -4.37244987487793,
                -3.5661652088165283,
                0.7891331911087036,
                -1.2512354850769043,
                -1.9487637281417847,
                5.671053886413574,
                5.983661651611328,
                0.2952357828617096,
                1.8028388023376465,
                -1.9932129383087158,
                1.040827751159668,
                -2.167029857635498,
                -0.8168441653251648,
                -1.3948336839675903,
                1.3232319355010986
            ],
            [
                -0.8105767965316772,
                0.8663715124130249,
                3.149895191192627,
                7.720287322998047,
                -4.711726188659668,
                -0.9231237173080444,
                0.2652852237224579,
                -0.9232483506202698,
                -0.8269522786140442,
                -1.5048367977142334,
                -0.12657684087753296,
                0.34808117151260376,
                -0.07117768377065659,
                -1.5419358015060425,
                -0.8873407244682312,
                0.34206831455230713,
                0.5121968984603882,
                1.578987956047058,
                0.42967352271080017,
                -0.6706390380859375,
                0.5330699682235718,
                -0.3825632631778717,
                -0.028848815709352493,
                -0.8749092817306519,
                -4.289923191070557,
                -3.5047948360443115,
                1.0323573350906372,
                -1.788572907447815,
                -1.6228773593902588,
                16.290912628173828,
                5.8490495681762695,
                0.0,
                2.459362506866455,
                -1.9592539072036743,
                1.0356597900390625,
                -2.060901641845703,
                -0.8543313145637512,
                -0.42364048957824707,
                2.2076940536499023
            ],
            [
                -0.766616702079773,
                0.9268812537193298,
                3.239109754562378,
                7.791990756988525,
                -4.6596832275390625,
                -0.940701425075531,
                0.25783640146255493,
                -0.9354791641235352,
                -0.8404493927955627,
                -1.5126723051071167,
                -0.17608250677585602,
                0.3463176190853119,
                -0.06523818522691727,
                -1.5451138019561768,
                -0.8880011439323425,
                0.3726673722267151,
                0.5468578934669495,
                1.5901038646697998,
                0.43159952759742737,
                -0.659701406955719,
                0.49620240926742554,
                -0.38708317279815674,
                -0.06802123785018921,
                -0.8826346397399902,
                -4.1243672370910645,
                -3.5260989665985107,
                0.838487446308136,
                -1.0736387968063354,
                -1.4061932563781738,
                7.108058452606201,
                -4.334164142608643,
                8.066650390625,
                1.4111216068267822,
                -2.0093142986297607,
                0.9985037446022034,
                -1.8176865577697754,
                -0.83802729845047,
                -0.8087689280509949,
                1.4632556438446045
            ]
        ],
        "tmit": [
            [
                0.7706782817840576,
                0.9082431197166443,
                0.8965157270431519,
                0.9315122961997986,
                0.9535365700721741,
                0.8163257241249084,
                0.9233213663101196,
                0.5988075733184814,
                0.8880919218063354,
                1.3785706758499146,
                0.8429695963859558,
                1.3511502742767334,
                1.8235586881637573,
                0.9094839096069336,
                0.9671346545219421,
                0.9030445218086243,
                0.6918783187866211,
                0.8898016214370728,
                0.7374181747436523,
                0.544463038444519,
                0.5116754770278931,
                0.5224096179008484,
                0.475933313369751,
                0.430414617061615,
                0.01077334675937891,
                0.027675317600369453,
                0.02602963335812092,
                0.028882808983325958,
                0.03028300404548645,
                0.020071497187018394,
                0.03203665837645531,
                0.10701164603233337,
                0.05053393915295601,
                0.28651461005210876,
                0.155220627784729,
                0.01213784795254469,
                0.026114467531442642,
                0.023990999907255173,
                0.026232518255710602
            ],
            [
                0.7410395741462708,
                0.8685120344161987,
                0.8610309362411499,
                0.8959775567054749,
                0.916529655456543,
                0.7865796089172363,
                0.889182448387146,
                0.5818020701408386,
                0.8607949614524841,
                1.3457988500595093,
                0.8165289163589478,
                1.3182640075683594,
                1.7871441841125488,
                0.8767758011817932,
                0.936305820941925,
                0.8592254519462585,
                0.6711323857307434,
                0.854261040687561,
                0.7130525708198547,
                0.530234694480896,
                0.4941459894180298,
                0.5048085451126099,
                0.45726099610328674,
                0.4118363559246063,
                0.009729712270200253,
                0.02568560279905796,
                0.022191345691680908,
                0.025235002860426903,
                0.026027636602520943,
                0.020790904760360718,
                0.030594028532505035,
                0.0,
                0.03040238842368126,
                0.274575799703598,
                0.1487167924642563,
                0.011011365801095963,
                0.022420018911361694,
                0.02125566080212593,
                0.023257697001099586
            ],
            [
                0.7343276143074036,
                0.8644704222679138,
                0.8564331531524658,
                0.8899992108345032,
                0.9111741185188293,
                0.7802714109420776,
                0.8822989463806152,
                0.578794538974762,
                0.8556791543960571,
                1.3403624296188354,
                0.8141641616821289,
                1.3249127864837646,
                1.7802364826202393,
                0.8709874749183655,
                0.9328832030296326,
                0.857320249080658,
                0.6617199778556824,
                0.8496103882789612,
                0.7105701565742493,
                0.5284514427185059,
                0.49138757586479187,
                0.5019621253013611,
                0.4536021947860718,
                0.4091009199619293,
                0.011295164003968239,
                0.02970563992857933,
                0.026938699185848236,
                0.028795955702662468,
                0.030708540230989456,
                0.023308834061026573,
                0.03574627637863159,
                0.09085080772638321,
                0.055753231048583984,
                0.2728300392627716,
                0.14781051874160767,
                0.013047698885202408,
                0.026483912020921707,
                0.025745747610926628,
                0.027855148538947105
            ]
        ]
    },
    "icts": {
        "names": [
            "gun:GUNcharge",
            "l0:L0charge",
            "linacbt:LNEcharge",
            "linacbt:BTMcharge",
            "ext:EXTcharge",
            "linacbt:BTEcharge",
            "BIM:DR:nparticles",
            "BIM:IP:nparticles"
        ],
        "charge": [
            0.53322037541,
            0.5720871137500001,
            0.405826875,
            0.0967175,
            0.06047932497833334,
            0.06150215277777778,
            0.04498857259750366,
            0.057056158781051636
        ]
    },
    "hcorrectors_names": [
        "ZH1L",
        "ZH2L",
        "ZH3L",
        "ZH4L",
        "ZH5L",
        "ZH6L",
        "ZH7L",
        "ZH8L",
        "ZH9L",
        "ZH10L",
        "ZH11L",
        "ZH12L",
        "ZH30T",
        "ZH40T",
        "ZH50T"
    ],
    "vcorrectors_names": [
        "ZV1L",
        "ZV2L",
        "ZV3L",
        "ZV4L",
        "ZV5L",
        "ZV6L",
        "ZV7L",
        "ZV8L",
        "ZV9L",
        "ZV10L",
        "ZV11L",
        "ZV12L",
        "ZV13L",
        "ZV30T",
        "ZV40T",
        "ZV50T",
        "ZV51T"
    ],
    "timestamp": "2024/05/24, 15:12:46"
}