{
    "sequence": [
        "MB5L",
        "MB6L",
        "MB7L",
        "ZH1L",
        "ZV1L",
        "MB8L",
        "MB9L",
        "MB10L",
        "ZV2L",
        "ZH2L",
        "MB11L",
        "ML1L",
        "ML2L",
        "ZV3L",
        "ZH3L",
        "ML3L",
        "ZH4L",
        "ZV4L",
        "ZH5L",
        "ZV5L",
        "ML4L",
        "ZH6L",
        "ZV6L",
        "ML5L",
        "ZH7L",
        "ZV7L",
        "ML6L",
        "ZH8L",
        "ZV8L",
        "ML7L",
        "ZH9L",
        "ML8L",
        "ZV9L",
        "ML9L",
        "ZH10L",
        "ML10L",
        "ZV10L",
        "ML11L",
        "ZH11L",
        "ML12L",
        "ZV11L",
        "ML13L",
        "ZH12L",
        "ML14L",
        "ZV12L",
        "ML15L",
        "ZX10T",
        "ZX11T",
        "ML1T",
        "ZV13L",
        "ZX12T",
        "ML2T",
        "ZY20T",
        "ZY21T",
        "ML101T",
        "ML102T",
        "ZY22T",
        "ZY23T",
        "ML103T",
        "ZX30T",
        "ML3T",
        "ZX31T",
        "ZV30T",
        "ZH30T",
        "ML104T",
        "ZX32T",
        "ML4T",
        "ML105T",
        "ZV40T",
        "ZH40T",
        "ML5T",
        "ML6T",
        "ZX50T",
        "ML106T",
        "ZX50T",
        "ML7T",
        "ZX51T",
        "ZV50T",
        "ML8T",
        "ZH50T",
        "ZV51T",
        "ML9T",
        "MB10T",
        "MB11T"
    ],
    "correctors": {
        "names": [
            "ZH1L",
            "ZV1L",
            "ZV2L",
            "ZH2L",
            "ZV3L",
            "ZH3L",
            "ZH4L",
            "ZV4L",
            "ZH5L",
            "ZV5L",
            "ZH6L",
            "ZV6L",
            "ZH7L",
            "ZV7L",
            "ZH8L",
            "ZV8L",
            "ZH9L",
            "ZV9L",
            "ZH10L",
            "ZV10L",
            "ZH11L",
            "ZV11L",
            "ZH12L",
            "ZV12L",
            "ZX10T",
            "ZX11T",
            "ZV13L",
            "ZX12T",
            "ZY20T",
            "ZY21T",
            "ZY22T",
            "ZY23T",
            "ZX30T",
            "ZX31T",
            "ZV30T",
            "ZH30T",
            "ZX32T",
            "ZV40T",
            "ZH40T",
            "ZX50T",
            "ZX50T",
            "ZX51T",
            "ZV50T",
            "ZH50T",
            "ZV51T"
        ],
        "bdes": [
            1.6058,
            0.32324,
            -3.694e-05,
            0.05,
            -0.018255,
            -0.0023425,
            -0.63212,
            -0.51377,
            0.0067611,
            0.025597,
            -0.089344,
            -0.23399,
            -0.34279,
            0.0008922,
            0.095066,
            -0.1336,
            -0.3297894772855709,
            -0.072191,
            -0.21644,
            -0.41065,
            0.09808,
            0.37969,
            0.043499,
            -1.4308,
            -0.5,
            0.81,
            -0.69,
            0.9,
            0.34,
            -0.25,
            -1.26,
            -1.47,
            0.0,
            0.0,
            0.09,
            -1.79,
            2.05,
            -1.5,
            -2.1085,
            1.29,
            1.29,
            -1.7,
            0.38,
            1.35,
            0.08
        ],
        "bact": [
            1.6047874689102173,
            0.3224230408668518,
            -0.00488519761711359,
            0.04885197803378105,
            -0.02198338881134987,
            -0.00488519761711359,
            -0.6350756883621216,
            -0.5178309679031372,
            0.00488519761711359,
            0.024425989016890526,
            -0.09281875938177109,
            -0.23693208396434784,
            -0.3468490242958069,
            0.0,
            0.09281875938177109,
            -0.13678553700447083,
            -0.33463606238365173,
            -0.07572057098150253,
            -0.21983389556407928,
            -0.4152418076992035,
            0.0977039560675621,
            0.3786028325557709,
            0.04152418300509453,
            -1.4338055849075317,
            -0.5080605745315552,
            0.8036150336265564,
            -0.6985832452774048,
            0.898876428604126,
            0.33463606238365173,
            -0.2589154839515686,
            -1.2677088975906372,
            -1.4802148342132568,
            0.0,
            0.0,
            0.08304836601018906,
            -1.797752857208252,
            2.044455051422119,
            -1.5095261335372925,
            -2.1128480434417725,
            1.2848069667816162,
            1.2848069667816162,
            -1.7073765993118286,
            0.37371763586997986,
            1.343429446220398,
            0.07572057098150253
        ]
    },
    "bpms": {
        "names": [
            "MB5L",
            "MB6L",
            "MB7L",
            "MB8L",
            "MB9L",
            "MB10L",
            "MB11L",
            "ML1L",
            "ML2L",
            "ML3L",
            "ML4L",
            "ML5L",
            "ML6L",
            "ML7L",
            "ML8L",
            "ML9L",
            "ML10L",
            "ML11L",
            "ML12L",
            "ML13L",
            "ML14L",
            "ML15L",
            "ML1T",
            "ML2T",
            "ML101T",
            "ML102T",
            "ML103T",
            "ML3T",
            "ML104T",
            "ML4T",
            "ML105T",
            "ML5T",
            "ML6T",
            "ML106T",
            "ML7T",
            "ML8T",
            "ML9T",
            "MB10T",
            "MB11T"
        ],
        "x": [
            [
                -1.1929640769958496,
                0.7102831602096558,
                0.1411627233028412,
                -7.996615886688232,
                1.457197666168213,
                1.1207431554794312,
                -0.02713293582201004,
                -2.4683752059936523,
                -0.6384519338607788,
                0.8516270518302917,
                -0.16694918274879456,
                -0.8633601069450378,
                0.6481389403343201,
                -1.0168797969818115,
                0.7038173675537109,
                -5.969213962554932,
                -1.6912240982055664,
                -0.9006962180137634,
                -1.9823933839797974,
                -0.816032350063324,
                -1.572221279144287,
                -1.8632863759994507,
                -6.640507698059082,
                -0.08385273069143295,
                -5.073742866516113,
                1.8523679971694946,
                0.7057976126670837,
                -0.7232389450073242,
                -1.6359834671020508,
                -6.66300630569458,
                -7.191012382507324,
                -2.678907632827759,
                0.46439266204833984,
                -5.368844032287598,
                -1.2385066747665405,
                -1.6394298076629639,
                -4.0876994132995605,
                2.8159339427948,
                -3.1612253189086914
            ],
            [
                -1.2012535333633423,
                0.6706797480583191,
                0.11288657039403915,
                -7.9791388511657715,
                1.4786239862442017,
                1.1646125316619873,
                0.029411550611257553,
                -2.4131875038146973,
                -0.6904954314231873,
                0.7979797720909119,
                -0.19364728033542633,
                -0.6497434973716736,
                0.6347429156303406,
                -0.980563759803772,
                0.662510097026825,
                -5.853027820587158,
                -1.587680697441101,
                -0.8840795159339905,
                -1.9792308807373047,
                -0.807430624961853,
                -1.7018349170684814,
                -1.8947654962539673,
                -6.649962902069092,
                -0.07288889586925507,
                -5.09633731842041,
                1.8128231763839722,
                0.6450629234313965,
                -0.6656357049942017,
                -1.690549373626709,
                -6.489681243896484,
                -7.068670749664307,
                -2.746926784515381,
                0.26884105801582336,
                -5.304597854614258,
                -1.2094128131866455,
                -1.5840480327606201,
                -3.9290947914123535,
                2.7437145709991455,
                -3.1973750591278076
            ],
            [
                -1.1515741348266602,
                0.7350554466247559,
                0.043854497373104095,
                -8.039820671081543,
                1.4240988492965698,
                1.1316770315170288,
                -0.0024189462419599295,
                -2.46639084815979,
                -0.6110098958015442,
                0.884401261806488,
                -0.1414041668176651,
                -0.7630177736282349,
                0.663326621055603,
                -0.9937358498573303,
                0.7064310908317566,
                -5.869190692901611,
                -1.621928095817566,
                -0.8950525522232056,
                -2.050920248031616,
                -0.7796190977096558,
                -1.668076753616333,
                -1.856380820274353,
                -6.611110210418701,
                0.27295222878456116,
                -5.1274094581604,
                1.7706365585327148,
                0.7592786550521851,
                -0.6654130816459656,
                -1.6318925619125366,
                -6.6724982261657715,
                -7.029125690460205,
                -2.8336024284362793,
                1.094813585281372,
                -5.21159029006958,
                -1.1051733493804932,
                -1.530501365661621,
                -4.043405055999756,
                2.741302967071533,
                -3.1524147987365723
            ]
        ],
        "y": [
            [
                -0.763987123966217,
                0.761116623878479,
                3.1030991077423096,
                7.6674957275390625,
                -4.763024806976318,
                -0.879725992679596,
                0.3486144244670868,
                -0.8603323101997375,
                -0.7766189575195312,
                -1.5055230855941772,
                -0.15024608373641968,
                0.3302541673183441,
                -0.0666695237159729,
                -1.5683962106704712,
                -0.9212362766265869,
                0.2618608772754669,
                0.5170307755470276,
                1.604527235031128,
                0.4014621376991272,
                -0.723388671875,
                0.7034967541694641,
                -0.12568530440330505,
                -0.625880241394043,
                -1.4792675971984863,
                -4.9866533279418945,
                -3.6741538047790527,
                1.8007806539535522,
                -1.4983243942260742,
                -0.45652204751968384,
                4.400579452514648,
                4.24083948135376,
                1.6236960887908936,
                2.368100881576538,
                -2.7032470703125,
                -0.008593347854912281,
                -2.6574418544769287,
                -1.7929812669754028,
                0.040797095745801926,
                1.9141563177108765
            ],
            [
                -0.808657169342041,
                0.6341874003410339,
                3.0973832607269287,
                7.67133092880249,
                -4.730742931365967,
                -0.8800175786018372,
                0.3135174512863159,
                -0.8784304857254028,
                -0.8263135552406311,
                -1.5147019624710083,
                -0.22527210414409637,
                0.2914092242717743,
                -0.07788734883069992,
                -1.5367534160614014,
                -0.8867439031600952,
                0.3020877540111542,
                0.44877946376800537,
                1.5419361591339111,
                0.4423270523548126,
                -0.6427851319313049,
                0.6932797431945801,
                -0.1509171724319458,
                -0.6342602372169495,
                -1.4485329389572144,
                -4.956668376922607,
                -3.6135027408599854,
                1.790657877922058,
                -1.3662859201431274,
                -0.48355790972709656,
                3.513331651687622,
                2.293222427368164,
                1.9174461364746094,
                2.308913469314575,
                -2.7327189445495605,
                0.001763998414389789,
                -2.6339638233184814,
                -1.7650960683822632,
                -0.0069674039259552956,
                1.9001834392547607
            ],
            [
                -0.7275177240371704,
                0.7789114117622375,
                3.0997917652130127,
                7.662778377532959,
                -4.768029689788818,
                -0.892936646938324,
                0.2729652523994446,
                -0.8602626919746399,
                -0.7124719619750977,
                -1.4529955387115479,
                -0.030240658670663834,
                0.41473686695098877,
                -0.024621684104204178,
                -1.6264028549194336,
                -0.986210286617279,
                0.23784905672073364,
                0.5043831467628479,
                1.5721169710159302,
                0.35435542464256287,
                -0.6886019706726074,
                0.696379542350769,
                -0.11189556121826172,
                -0.6730552315711975,
                -1.4932246208190918,
                -4.985551834106445,
                -3.5828754901885986,
                1.8763349056243896,
                -1.555938720703125,
                -0.5096741914749146,
                4.65543794631958,
                2.9517576694488525,
                1.5741691589355469,
                3.0606746673583984,
                -2.82442045211792,
                -0.20056462287902832,
                -2.635723829269409,
                -1.7737078666687012,
                0.004607671406120062,
                1.9444751739501953
            ]
        ],
        "tmit": [
            [
                0.7095558643341064,
                0.8403986096382141,
                0.8327026963233948,
                0.8664218187332153,
                0.8893760442733765,
                0.761463463306427,
                0.8619462251663208,
                0.5680380463600159,
                0.838311493396759,
                1.318355679512024,
                0.7953547835350037,
                1.2855710983276367,
                1.7566255331039429,
                0.8479408621788025,
                0.9102402329444885,
                0.8215451836585999,
                0.6645841002464294,
                0.8313689231872559,
                0.687380313873291,
                0.5166449546813965,
                0.48218971490859985,
                0.48811912536621094,
                0.43978720903396606,
                0.39701932668685913,
                0.05630187690258026,
                0.13824665546417236,
                0.15370309352874756,
                0.15672971308231354,
                0.15508678555488586,
                0.1501045674085617,
                0.17279598116874695,
                0.546047568321228,
                0.2212793081998825,
                0.26826849579811096,
                0.14242619276046753,
                0.05962340906262398,
                0.13082566857337952,
                0.11962470412254333,
                0.1345430612564087
            ],
            [
                0.7374807000160217,
                0.8686257004737854,
                0.8587627410888672,
                0.8915236592292786,
                0.9160068035125732,
                0.7841198444366455,
                0.8860336542129517,
                0.5818142294883728,
                0.8579363822937012,
                1.3442519903182983,
                0.8175359964370728,
                1.3307286500930786,
                1.7857692241668701,
                0.8743640184402466,
                0.9361698627471924,
                0.851604700088501,
                0.6842133402824402,
                0.8564066886901855,
                0.703599750995636,
                0.528983473777771,
                0.49616914987564087,
                0.5040582418441772,
                0.4542961120605469,
                0.41217827796936035,
                0.058389145880937576,
                0.1449873298406601,
                0.16299580037593842,
                0.16472016274929047,
                0.16134825348854065,
                0.1583777666091919,
                0.18248219788074493,
                0.5562827587127686,
                0.24178367853164673,
                0.276828408241272,
                0.14685094356536865,
                0.06204967945814133,
                0.1353645622730255,
                0.12421801686286926,
                0.13812637329101562
            ],
            [
                0.7147470116615295,
                0.8450161814689636,
                0.835045576095581,
                0.8680680394172668,
                0.8908019661903381,
                0.7616284489631653,
                0.8640440702438354,
                0.5685997605323792,
                0.8378549814224243,
                1.3201403617858887,
                0.7937482595443726,
                1.2962278127670288,
                1.755927324295044,
                0.8508812189102173,
                0.9103532433509827,
                0.8219685554504395,
                0.6640661358833313,
                0.8278210759162903,
                0.6840924024581909,
                0.5182230472564697,
                0.48321571946144104,
                0.4896511435508728,
                0.4366961717605591,
                0.3969053626060486,
                0.0609547458589077,
                0.15026617050170898,
                0.16713708639144897,
                0.17062611877918243,
                0.1660899519920349,
                0.1596367359161377,
                0.19422930479049683,
                0.5896818041801453,
                0.21717844903469086,
                0.26584696769714355,
                0.1425861269235611,
                0.06516917049884796,
                0.14032568037509918,
                0.1282436102628708,
                0.14468449354171753
            ]
        ]
    },
    "icts": {
        "names": [
            "gun:GUNcharge",
            "l0:L0charge",
            "linacbt:LNEcharge",
            "linacbt:BTMcharge",
            "ext:EXTcharge",
            "linacbt:BTEcharge",
            "BIM:DR:nparticles",
            "BIM:IP:nparticles"
        ],
        "charge": [
            0.4871428729649999,
            0.53250841375,
            0.38130375,
            0.250725,
            0.007836099524166666,
            0.20860423611111112,
            -0.007794413715600967,
            -1.672309588560578e-16
        ]
    },
    "hcorrectors_names": [
        "ZH1L",
        "ZH2L",
        "ZH3L",
        "ZH4L",
        "ZH5L",
        "ZH6L",
        "ZH7L",
        "ZH8L",
        "ZH9L",
        "ZH10L",
        "ZH11L",
        "ZH12L",
        "ZH30T",
        "ZH40T",
        "ZH50T"
    ],
    "vcorrectors_names": [
        "ZV1L",
        "ZV2L",
        "ZV3L",
        "ZV4L",
        "ZV5L",
        "ZV6L",
        "ZV7L",
        "ZV8L",
        "ZV9L",
        "ZV10L",
        "ZV11L",
        "ZV12L",
        "ZV13L",
        "ZV30T",
        "ZV40T",
        "ZV50T",
        "ZV51T"
    ],
    "timestamp": "2024/05/24, 15:15:55"
}