{
    "sequence": [
        "MB5L",
        "MB6L",
        "MB7L",
        "ZH1L",
        "ZV1L",
        "MB8L",
        "MB9L",
        "MB10L",
        "ZV2L",
        "ZH2L",
        "MB11L",
        "ML1L",
        "ML2L",
        "ZV3L",
        "ZH3L",
        "ML3L",
        "ZH4L",
        "ZV4L",
        "ZH5L",
        "ZV5L",
        "ML4L",
        "ZH6L",
        "ZV6L",
        "ML5L",
        "ZH7L",
        "ZV7L",
        "ML6L",
        "ZH8L",
        "ZV8L",
        "ML7L",
        "ZH9L",
        "ML8L",
        "ZV9L",
        "ML9L",
        "ZH10L",
        "ML10L",
        "ZV10L",
        "ML11L",
        "ZH11L",
        "ML12L",
        "ZV11L",
        "ML13L",
        "ZH12L",
        "ML14L",
        "ZV12L",
        "ML15L",
        "ZX10T",
        "ZX11T",
        "ML1T",
        "ZV13L",
        "ZX12T",
        "ML2T",
        "ZY20T",
        "ZY21T",
        "ML101T",
        "ML102T",
        "ZY22T",
        "ZY23T",
        "ML103T",
        "ZX30T",
        "ML3T",
        "ZX31T",
        "ZV30T",
        "ZH30T",
        "ML104T",
        "ZX32T",
        "ML4T",
        "ML105T",
        "ZV40T",
        "ZH40T",
        "ML5T",
        "ML6T",
        "ZX50T",
        "ML106T",
        "ZX50T",
        "ML7T",
        "ZX51T",
        "ZV50T",
        "ML8T",
        "ZH50T",
        "ZV51T",
        "ML9T",
        "MB10T",
        "MB11T"
    ],
    "correctors": {
        "names": [
            "ZH1L",
            "ZV1L",
            "ZV2L",
            "ZH2L",
            "ZV3L",
            "ZH3L",
            "ZH4L",
            "ZV4L",
            "ZH5L",
            "ZV5L",
            "ZH6L",
            "ZV6L",
            "ZH7L",
            "ZV7L",
            "ZH8L",
            "ZV8L",
            "ZH9L",
            "ZV9L",
            "ZH10L",
            "ZV10L",
            "ZH11L",
            "ZV11L",
            "ZH12L",
            "ZV12L",
            "ZX10T",
            "ZX11T",
            "ZV13L",
            "ZX12T",
            "ZY20T",
            "ZY21T",
            "ZY22T",
            "ZY23T",
            "ZX30T",
            "ZX31T",
            "ZV30T",
            "ZH30T",
            "ZX32T",
            "ZV40T",
            "ZH40T",
            "ZX50T",
            "ZX50T",
            "ZX51T",
            "ZV50T",
            "ZH50T",
            "ZV51T"
        ],
        "bdes": [
            1.6058,
            0.32324,
            -3.694e-05,
            0.05,
            -0.018255,
            -0.0023425,
            -0.63212,
            -0.51377,
            0.0067611,
            0.025597,
            -0.089344,
            -0.23399,
            -0.34279,
            0.0008922,
            0.095066,
            -0.1336,
            -0.39271,
            -0.072191,
            -0.21644,
            -0.4532762818067994,
            0.09808,
            0.37969,
            0.043499,
            -1.4308,
            -0.5,
            0.81,
            -0.69,
            0.9,
            0.34,
            -0.25,
            -1.26,
            -1.47,
            0.0,
            0.0,
            0.09,
            -1.79,
            2.05,
            -1.5,
            -2.1085,
            1.29,
            1.29,
            -1.7,
            0.38,
            1.35,
            0.08
        ],
        "bact": [
            1.6047874689102173,
            0.3224230408668518,
            -0.00488519761711359,
            0.04885197803378105,
            -0.02198338881134987,
            -0.00488519761711359,
            -0.6350756883621216,
            -0.5178309679031372,
            0.00488519761711359,
            0.024425989016890526,
            -0.09281875938177109,
            -0.23693208396434784,
            -0.3468490242958069,
            0.0,
            0.09281875938177109,
            -0.13678553700447083,
            -0.39570102095603943,
            -0.07572057098150253,
            -0.21983389556407928,
            -0.4567660093307495,
            0.0977039560675621,
            0.3786028325557709,
            0.04152418300509453,
            -1.4338055849075317,
            -0.5080605745315552,
            0.8036150336265564,
            -0.6985832452774048,
            0.898876428604126,
            0.33463606238365173,
            -0.2589154839515686,
            -1.2677088975906372,
            -1.4802148342132568,
            0.0,
            0.0,
            0.08304836601018906,
            -1.797752857208252,
            2.044455051422119,
            -1.5095261335372925,
            -2.1128480434417725,
            1.2848069667816162,
            1.2848069667816162,
            -1.7073765993118286,
            0.37371763586997986,
            1.343429446220398,
            0.07572057098150253
        ]
    },
    "bpms": {
        "names": [
            "MB5L",
            "MB6L",
            "MB7L",
            "MB8L",
            "MB9L",
            "MB10L",
            "MB11L",
            "ML1L",
            "ML2L",
            "ML3L",
            "ML4L",
            "ML5L",
            "ML6L",
            "ML7L",
            "ML8L",
            "ML9L",
            "ML10L",
            "ML11L",
            "ML12L",
            "ML13L",
            "ML14L",
            "ML15L",
            "ML1T",
            "ML2T",
            "ML101T",
            "ML102T",
            "ML103T",
            "ML3T",
            "ML104T",
            "ML4T",
            "ML105T",
            "ML5T",
            "ML6T",
            "ML106T",
            "ML7T",
            "ML8T",
            "ML9T",
            "MB10T",
            "MB11T"
        ],
        "x": [
            [
                -1.1771084070205688,
                0.7099382877349854,
                0.2068464308977127,
                -7.903355598449707,
                1.487345814704895,
                1.1722767353057861,
                0.046220097690820694,
                -2.423820734024048,
                -0.6754212379455566,
                0.7996801733970642,
                -0.16657094657421112,
                -0.7333743572235107,
                0.6331642866134644,
                -0.9713095426559448,
                0.6359601020812988,
                -6.28518009185791,
                -2.681767225265503,
                -0.8016499876976013,
                -1.2640036344528198,
                -0.3754264712333679,
                -0.6605845093727112,
                -1.1728324890136719,
                -6.647352695465088,
                0.06835198402404785,
                -4.958963871002197,
                1.9068256616592407,
                0.8804360628128052,
                -0.6440058350563049,
                -1.1933283805847168,
                -6.927366256713867,
                -7.0652031898498535,
                -2.76603364944458,
                0.8627480268478394,
                -5.3916521072387695,
                -1.4969639778137207,
                -2.260876178741455,
                -4.291203022003174,
                3.058506727218628,
                -3.4462990760803223
            ],
            [
                -1.1376014947891235,
                0.6809598207473755,
                0.11874257028102875,
                -7.9833574295043945,
                1.4534026384353638,
                1.155656337738037,
                0.003254587296396494,
                -2.417205333709717,
                -0.6513031721115112,
                0.82972651720047,
                -0.18438218533992767,
                -0.7991799712181091,
                0.6337989568710327,
                -0.9605710506439209,
                0.6254546642303467,
                -6.358853816986084,
                -2.804107666015625,
                -0.8153228163719177,
                -1.2240025997161865,
                -0.310458779335022,
                -0.5886499285697937,
                -1.110365867614746,
                -6.6426520347595215,
                -0.01103157363831997,
                -5.096718788146973,
                1.9514645338058472,
                1.08701753616333,
                -0.6071772575378418,
                -1.167107343673706,
                -6.453146457672119,
                -7.003903865814209,
                -2.8592798709869385,
                0.4021742641925812,
                -5.420581817626953,
                -1.5402265787124634,
                -2.3126943111419678,
                -4.353818416595459,
                2.986389398574829,
                -3.481919765472412
            ],
            [
                -1.1530841588974,
                0.7816970944404602,
                0.005886145867407322,
                -8.09309196472168,
                1.3545048236846924,
                1.0749154090881348,
                -0.08807855099439621,
                -2.532759428024292,
                -0.5449211001396179,
                0.9955313205718994,
                -0.1345033049583435,
                -0.9456947445869446,
                0.6789583563804626,
                -0.8970810770988464,
                0.8009027242660522,
                -6.278984546661377,
                -2.880664587020874,
                -0.9100990891456604,
                -1.3974500894546509,
                -0.37440919876098633,
                -0.6908165216445923,
                -1.2256561517715454,
                -6.661032199859619,
                0.27514028549194336,
                -5.126284122467041,
                1.8967710733413696,
                0.9208984375,
                -0.6887428760528564,
                -1.1297335624694824,
                -6.5801825523376465,
                -7.036371231079102,
                -2.9100210666656494,
                -1.7802821397781372,
                -5.348359107971191,
                -1.4110864400863647,
                -2.253976821899414,
                -4.150059700012207,
                2.9553539752960205,
                -3.481266736984253
            ]
        ],
        "y": [
            [
                -0.8020117878913879,
                0.7207841277122498,
                3.0839943885803223,
                7.662017345428467,
                -4.751453876495361,
                -0.9160445928573608,
                0.3164054751396179,
                -0.892167866230011,
                -0.7908817529678345,
                -1.4988958835601807,
                -0.1599142849445343,
                0.32939594984054565,
                -0.08333778381347656,
                -1.526124119758606,
                -0.8903124928474426,
                0.3231087028980255,
                0.5458633303642273,
                1.5584772825241089,
                0.23907510936260223,
                -0.844642162322998,
                0.5688794851303101,
                -0.21976585686206818,
                -0.2867010533809662,
                -1.1340792179107666,
                -4.741889953613281,
                -3.5283493995666504,
                1.634291172027588,
                -1.3188655376434326,
                -0.7538825273513794,
                5.164997577667236,
                1.4244060516357422,
                1.3999990224838257,
                3.441561460494995,
                -2.32266902923584,
                0.5186997056007385,
                -2.3507328033447266,
                -1.3676198720932007,
                -0.23388011753559113,
                2.1554131507873535
            ],
            [
                -0.72281414270401,
                0.7359932065010071,
                3.074408531188965,
                7.670618057250977,
                -4.751621723175049,
                -0.9108116030693054,
                0.3176838159561157,
                -0.8712380528450012,
                -0.7913415431976318,
                -1.5119702816009521,
                -0.19827838242053986,
                0.31581994891166687,
                -0.07280862331390381,
                -1.582109808921814,
                -0.8941196203231812,
                0.3427921533584595,
                0.6228959560394287,
                1.571533441543579,
                0.21106374263763428,
                -0.8397993445396423,
                0.6006523966789246,
                -0.214874729514122,
                -0.281316339969635,
                -1.1242563724517822,
                -4.688682556152344,
                -3.5519659519195557,
                1.675503134727478,
                -1.305234670639038,
                -0.8340544700622559,
                4.1102519035339355,
                5.046998023986816,
                2.8265042304992676,
                3.0105953216552734,
                -2.2267329692840576,
                0.5755579471588135,
                -2.3899497985839844,
                -1.180489420890808,
                -0.3514152467250824,
                1.9984990358352661
            ],
            [
                -0.7780950665473938,
                0.699330747127533,
                3.021897315979004,
                7.647476673126221,
                -4.807376861572266,
                -0.8575907945632935,
                0.3388455808162689,
                -0.8462585210800171,
                -0.731045663356781,
                -1.4919896125793457,
                -0.08716145157814026,
                0.37036824226379395,
                -0.052695002406835556,
                -1.6349074840545654,
                -0.9515700936317444,
                0.2553046643733978,
                0.5584299564361572,
                1.5777599811553955,
                0.1434650868177414,
                -0.9340613484382629,
                0.562771737575531,
                -0.21689751744270325,
                -0.2901124358177185,
                -1.1468987464904785,
                -4.653584003448486,
                -3.570280075073242,
                1.5743927955627441,
                -1.1939603090286255,
                -0.9394441246986389,
                5.507333755493164,
                3.838137149810791,
                2.005403995513916,
                0.9537308216094971,
                -2.3980488777160645,
                0.4271559417247772,
                -2.3614211082458496,
                -1.314092993736267,
                0.10337673127651215,
                1.936907172203064
            ]
        ],
        "tmit": [
            [
                0.7448557019233704,
                0.8807210922241211,
                0.8699489831924438,
                0.9038556814193726,
                0.9281326532363892,
                0.7941611409187317,
                0.8978851437568665,
                0.5859020948410034,
                0.8687394857406616,
                1.3538981676101685,
                0.823575496673584,
                1.3315852880477905,
                1.7934108972549438,
                0.8828545212745667,
                0.9445939064025879,
                0.8748902082443237,
                0.6729243993759155,
                0.862268328666687,
                0.7192212343215942,
                0.5333999395370483,
                0.49781301617622375,
                0.5092395544052124,
                0.45991045236587524,
                0.4173072576522827,
                0.03703813627362251,
                0.09150863438844681,
                0.09946207702159882,
                0.10044929385185242,
                0.09812568873167038,
                0.08949441462755203,
                0.12312833964824677,
                0.41029658913612366,
                0.12211278825998306,
                0.2800946831703186,
                0.14983630180358887,
                0.04012659937143326,
                0.08601729571819305,
                0.07704628258943558,
                0.08782484382390976
            ],
            [
                0.7406266331672668,
                0.8732925057411194,
                0.8610641956329346,
                0.8946753740310669,
                0.9161199927330017,
                0.7849321365356445,
                0.8886194229125977,
                0.5833496451377869,
                0.8581053614616394,
                1.3432146310806274,
                0.815455436706543,
                1.3194776773452759,
                1.783888578414917,
                0.8732287883758545,
                0.9346608519554138,
                0.8638825416564941,
                0.6634712219238281,
                0.8543190360069275,
                0.7127024531364441,
                0.5285035967826843,
                0.4928743839263916,
                0.5031946301460266,
                0.4576394557952881,
                0.41240623593330383,
                0.035994499921798706,
                0.08830073475837708,
                0.09572479873895645,
                0.09645407646894455,
                0.09581562876701355,
                0.09003397077322006,
                0.11653346568346024,
                0.38066840171813965,
                0.12173998355865479,
                0.27750417590141296,
                0.14834362268447876,
                0.038956791162490845,
                0.0822700709104538,
                0.07482704520225525,
                0.08464719355106354
            ],
            [
                0.6921654939651489,
                0.8122864961624146,
                0.8043732643127441,
                0.8379539847373962,
                0.8597837090492249,
                0.7362411618232727,
                0.835484504699707,
                0.5532293319702148,
                0.8138759136199951,
                1.290113091468811,
                0.7757453322410583,
                1.2612268924713135,
                1.724226951599121,
                0.8212504386901855,
                0.8837998509407043,
                0.8005882501602173,
                0.634777843952179,
                0.8012058734893799,
                0.6745993494987488,
                0.5059242248535156,
                0.4671434760093689,
                0.47618213295936584,
                0.42824316024780273,
                0.3843678832054138,
                0.03799479827284813,
                0.09406684339046478,
                0.10309834778308868,
                0.10496562719345093,
                0.10268501192331314,
                0.09039367735385895,
                0.12086135149002075,
                0.3747427463531494,
                0.20972232520580292,
                0.2583007216453552,
                0.13874778151512146,
                0.0410364493727684,
                0.08818118274211884,
                0.080452561378479,
                0.09025879204273224
            ]
        ]
    },
    "icts": {
        "names": [
            "gun:GUNcharge",
            "l0:L0charge",
            "linacbt:LNEcharge",
            "linacbt:BTMcharge",
            "ext:EXTcharge",
            "linacbt:BTEcharge",
            "BIM:DR:nparticles",
            "BIM:IP:nparticles"
        ],
        "charge": [
            0.506042478975,
            0.55013870125,
            0.39602770833333334,
            0.19604750000000004,
            0.04580495164,
            0.15875354166666666,
            0.027394242584705353,
            0.007399471011012793
        ]
    },
    "hcorrectors_names": [
        "ZH1L",
        "ZH2L",
        "ZH3L",
        "ZH4L",
        "ZH5L",
        "ZH6L",
        "ZH7L",
        "ZH8L",
        "ZH9L",
        "ZH10L",
        "ZH11L",
        "ZH12L",
        "ZH30T",
        "ZH40T",
        "ZH50T"
    ],
    "vcorrectors_names": [
        "ZV1L",
        "ZV2L",
        "ZV3L",
        "ZV4L",
        "ZV5L",
        "ZV6L",
        "ZV7L",
        "ZV8L",
        "ZV9L",
        "ZV10L",
        "ZV11L",
        "ZV12L",
        "ZV13L",
        "ZV30T",
        "ZV40T",
        "ZV50T",
        "ZV51T"
    ],
    "timestamp": "2024/05/24, 15:16:28"
}