{
    "sequence": [
        "MB5L",
        "MB6L",
        "MB7L",
        "ZH1L",
        "ZV1L",
        "MB8L",
        "MB9L",
        "MB10L",
        "ZV2L",
        "ZH2L",
        "MB11L",
        "ML1L",
        "ML2L",
        "ZV3L",
        "ZH3L",
        "ML3L",
        "ZH4L",
        "ZV4L",
        "ZH5L",
        "ZV5L",
        "ML4L",
        "ZH6L",
        "ZV6L",
        "ML5L",
        "ZH7L",
        "ZV7L",
        "ML6L",
        "ZH8L",
        "ZV8L",
        "ML7L",
        "ZH9L",
        "ML8L",
        "ZV9L",
        "ML9L",
        "ZH10L",
        "ML10L",
        "ZV10L",
        "ML11L",
        "ZH11L",
        "ML12L",
        "ZV11L",
        "ML13L",
        "ZH12L",
        "ML14L",
        "ZV12L",
        "ML15L",
        "ZX10T",
        "ZX11T",
        "ML1T",
        "ZV13L",
        "ZX12T",
        "ML2T",
        "ZY20T",
        "ZY21T",
        "ML101T",
        "ML102T",
        "ZY22T",
        "ZY23T",
        "ML103T",
        "ZX30T",
        "ML3T",
        "ZX31T",
        "ZV30T",
        "ZH30T",
        "ML104T",
        "ZX32T",
        "ML4T",
        "ML105T",
        "ZV40T",
        "ZH40T",
        "ML5T",
        "ML6T",
        "ZX50T",
        "ML106T",
        "ZX50T",
        "ML7T",
        "ZX51T",
        "ZV50T",
        "ML8T",
        "ZH50T",
        "ZV51T",
        "ML9T",
        "MB10T",
        "MB11T"
    ],
    "correctors": {
        "names": [
            "ZH1L",
            "ZV1L",
            "ZV2L",
            "ZH2L",
            "ZV3L",
            "ZH3L",
            "ZH4L",
            "ZV4L",
            "ZH5L",
            "ZV5L",
            "ZH6L",
            "ZV6L",
            "ZH7L",
            "ZV7L",
            "ZH8L",
            "ZV8L",
            "ZH9L",
            "ZV9L",
            "ZH10L",
            "ZV10L",
            "ZH11L",
            "ZV11L",
            "ZH12L",
            "ZV12L",
            "ZX10T",
            "ZX11T",
            "ZV13L",
            "ZX12T",
            "ZY20T",
            "ZY21T",
            "ZY22T",
            "ZY23T",
            "ZX30T",
            "ZX31T",
            "ZV30T",
            "ZH30T",
            "ZX32T",
            "ZV40T",
            "ZH40T",
            "ZX50T",
            "ZX50T",
            "ZX51T",
            "ZV50T",
            "ZH50T",
            "ZV51T"
        ],
        "bdes": [
            1.6058,
            0.32324,
            -0.10003694,
            0.05,
            -0.018255,
            -0.0023425,
            -0.63212,
            -0.51377,
            0.0067611,
            0.025597,
            -0.089344,
            -0.23399,
            -0.34279,
            0.0008922,
            0.095066,
            -0.1336,
            -0.39271,
            -0.072191,
            -0.21644,
            -0.41065,
            0.09808,
            0.37969,
            0.043499,
            -1.4308,
            -0.5,
            0.81,
            -0.69,
            0.9,
            0.34,
            -0.25,
            -1.26,
            -1.47,
            0.0,
            0.0,
            0.09,
            -1.79,
            2.05,
            -1.5,
            -2.1085,
            1.29,
            1.29,
            -1.7,
            0.38,
            1.35,
            0.08
        ],
        "bact": [
            1.6047874689102173,
            0.3224230408668518,
            -0.10258915275335312,
            0.04885197803378105,
            -0.02198338881134987,
            -0.00488519761711359,
            -0.6350756883621216,
            -0.5178309679031372,
            0.00488519761711359,
            0.024425989016890526,
            -0.09281875938177109,
            -0.23693208396434784,
            -0.3468490242958069,
            0.0,
            0.09281875938177109,
            -0.13678553700447083,
            -0.39570102095603943,
            -0.07572057098150253,
            -0.21983389556407928,
            -0.4152418076992035,
            0.0977039560675621,
            0.3786028325557709,
            0.04152418300509453,
            -1.4338055849075317,
            -0.5080605745315552,
            0.8036150336265564,
            -0.6985832452774048,
            0.898876428604126,
            0.33463606238365173,
            -0.2589154839515686,
            -1.2677088975906372,
            -1.4802148342132568,
            0.0,
            0.0,
            0.08304836601018906,
            -1.797752857208252,
            2.044455051422119,
            -1.5095261335372925,
            -2.1128480434417725,
            1.2848069667816162,
            1.2848069667816162,
            -1.7073765993118286,
            0.37371763586997986,
            1.343429446220398,
            0.07572057098150253
        ]
    },
    "bpms": {
        "names": [
            "MB5L",
            "MB6L",
            "MB7L",
            "MB8L",
            "MB9L",
            "MB10L",
            "MB11L",
            "ML1L",
            "ML2L",
            "ML3L",
            "ML4L",
            "ML5L",
            "ML6L",
            "ML7L",
            "ML8L",
            "ML9L",
            "ML10L",
            "ML11L",
            "ML12L",
            "ML13L",
            "ML14L",
            "ML15L",
            "ML1T",
            "ML2T",
            "ML101T",
            "ML102T",
            "ML103T",
            "ML3T",
            "ML104T",
            "ML4T",
            "ML105T",
            "ML5T",
            "ML6T",
            "ML106T",
            "ML7T",
            "ML8T",
            "ML9T",
            "MB10T",
            "MB11T"
        ],
        "x": [
            [
                -1.1662336587905884,
                0.524430513381958,
                0.0788651704788208,
                -7.947821617126465,
                1.4495466947555542,
                1.177250623703003,
                0.047707732766866684,
                -2.346545457839966,
                -0.6445611715316772,
                0.8298159837722778,
                -0.18126161396503448,
                -0.695622444152832,
                0.6140472888946533,
                -0.9255028963088989,
                0.658171534538269,
                -6.146521091461182,
                -2.4468436241149902,
                -0.7741295695304871,
                -1.2907274961471558,
                -0.4235968589782715,
                -0.7981361746788025,
                -1.193711519241333,
                -6.602723121643066,
                0.7883412837982178,
                -4.717360496520996,
                1.7699600458145142,
                0.9336366653442383,
                -0.3847027122974396,
                -0.8674771785736084,
                -6.250282287597656,
                -7.03272008895874,
                -2.886347770690918,
                0.5205549001693726,
                -5.02932596206665,
                -1.1876826286315918,
                -2.104130268096924,
                -4.011453628540039,
                2.774036169052124,
                -3.3744003772735596
            ],
            [
                -1.1382378339767456,
                0.6137669086456299,
                0.15592244267463684,
                -7.916869640350342,
                1.4925329685211182,
                1.182777762413025,
                0.06061254441738129,
                -2.3744266033172607,
                -0.6536538004875183,
                0.7762754559516907,
                -0.1588762253522873,
                -0.7212933897972107,
                0.6193520426750183,
                -1.0264825820922852,
                0.6223016381263733,
                -6.250288486480713,
                -2.6434032917022705,
                -0.772480309009552,
                -1.2292187213897705,
                -0.35340848565101624,
                -0.6204164028167725,
                -1.1290487051010132,
                -6.632085800170898,
                0.6474060416221619,
                -4.754876136779785,
                1.7474859952926636,
                0.9195188879966736,
                -0.5945471525192261,
                -0.864561140537262,
                -6.207311630249023,
                -7.351370811462402,
                -2.843127727508545,
                0.07256723940372467,
                -5.114569664001465,
                -1.2814465761184692,
                -2.155179500579834,
                -3.9628548622131348,
                2.757631778717041,
                -3.4499588012695312
            ],
            [
                -1.1659557819366455,
                0.6135258078575134,
                0.06880604475736618,
                -7.987965106964111,
                1.4175928831100464,
                1.1471518278121948,
                0.03174901753664017,
                -2.3778982162475586,
                -0.6029860377311707,
                0.8922805786132812,
                -0.15266764163970947,
                -0.6364848613739014,
                0.6183160543441772,
                -0.9181777834892273,
                0.6843377351760864,
                -6.2013630867004395,
                -2.4964687824249268,
                -0.797026515007019,
                -1.3357058763504028,
                -0.4766356647014618,
                -0.8238459825515747,
                -1.2627243995666504,
                -6.612409591674805,
                0.6467667818069458,
                -4.955820083618164,
                1.7419650554656982,
                0.8244844079017639,
                -0.6644744277000427,
                -0.9641415476799011,
                -6.501485347747803,
                -7.160713195800781,
                -2.84197998046875,
                0.19982197880744934,
                -5.107950687408447,
                -1.2439309358596802,
                -2.15101957321167,
                -4.0463385581970215,
                2.8597962856292725,
                -3.4829185009002686
            ]
        ],
        "y": [
            [
                -0.7496079802513123,
                0.7117502093315125,
                3.032317638397217,
                7.627122402191162,
                -4.722266674041748,
                -0.8781399726867676,
                0.3178532123565674,
                -1.0569988489151,
                -1.473149061203003,
                -1.9543282985687256,
                -1.2587254047393799,
                -0.44360557198524475,
                -0.4050045311450958,
                -1.4706521034240723,
                -0.4727582633495331,
                1.2356644868850708,
                0.5699862837791443,
                2.0482680797576904,
                0.6620862483978271,
                -0.43335655331611633,
                0.6763007044792175,
                -0.21867409348487854,
                -0.5982123613357544,
                -1.3489145040512085,
                -4.352620601654053,
                -3.230987548828125,
                1.3502469062805176,
                -1.2401400804519653,
                -1.1517243385314941,
                5.1373772621154785,
                2.895609140396118,
                1.5904754400253296,
                3.0015511512756348,
                -2.71079683303833,
                0.021013576537370682,
                -2.1124446392059326,
                -1.1662375926971436,
                -0.3046852648258209,
                2.2728970050811768
            ],
            [
                -0.7594653367996216,
                0.7604430317878723,
                3.1224093437194824,
                7.692058086395264,
                -4.708714008331299,
                -0.8858218193054199,
                0.2855237126350403,
                -1.092414379119873,
                -1.4701788425445557,
                -1.9660123586654663,
                -1.2770733833312988,
                -0.4926406443119049,
                -0.41727203130722046,
                -1.4793363809585571,
                -0.48512718081474304,
                1.3124523162841797,
                0.6515861749649048,
                2.07852840423584,
                0.6635532975196838,
                -0.4325732886791229,
                0.6927245855331421,
                -0.21208563446998596,
                -0.5778279304504395,
                -1.339445948600769,
                -4.354747772216797,
                -3.2573604583740234,
                1.296724557876587,
                -1.2137458324432373,
                -1.0754555463790894,
                5.026285171508789,
                2.4577231407165527,
                2.4938764572143555,
                2.420095205307007,
                -2.6451194286346436,
                0.11679285764694214,
                -2.1861472129821777,
                -1.0767104625701904,
                -0.23617437481880188,
                2.3922762870788574
            ],
            [
                -0.7675943970680237,
                0.8068018555641174,
                3.1195898056030273,
                7.703560829162598,
                -4.710179328918457,
                -0.9335277080535889,
                0.2602474093437195,
                -1.0914950370788574,
                -1.5030138492584229,
                -1.9650774002075195,
                -1.251001000404358,
                -0.4416244626045227,
                -0.39790329337120056,
                -1.4567369222640991,
                -0.4963441491127014,
                1.2074640989303589,
                0.6241987943649292,
                2.0507853031158447,
                0.6378259658813477,
                -0.4706425666809082,
                0.664315938949585,
                -0.21356415748596191,
                -0.5540037155151367,
                -1.3285603523254395,
                -4.440145969390869,
                -3.247239351272583,
                1.3616080284118652,
                -1.221834659576416,
                -1.0993537902832031,
                4.487419128417969,
                2.1151835918426514,
                1.920709252357483,
                2.689427375793457,
                -2.5974767208099365,
                0.15992125868797302,
                -2.2303998470306396,
                -1.1873342990875244,
                -0.24602751433849335,
                2.2220215797424316
            ]
        ],
        "tmit": [
            [
                0.7670261263847351,
                0.9082229733467102,
                0.8950842022895813,
                0.92852383852005,
                0.9528488516807556,
                0.8144091367721558,
                0.9221428036689758,
                0.5971853733062744,
                0.8841552734375,
                1.3758856058120728,
                0.8491067886352539,
                1.3606661558151245,
                1.8182495832443237,
                0.9083223938941956,
                0.9679760336875916,
                0.9013510346412659,
                0.702974259853363,
                0.8807255625724792,
                0.7359529733657837,
                0.5417413711547852,
                0.509954035282135,
                0.5206444263458252,
                0.46748030185699463,
                0.42898988723754883,
                0.05186643451452255,
                0.1297193020582199,
                0.14329932630062103,
                0.14700224995613098,
                0.1445091813802719,
                0.12492527067661285,
                0.167643740773201,
                0.5514345169067383,
                0.190709188580513,
                0.28651461005210876,
                0.1537279635667801,
                0.056547246873378754,
                0.12296176701784134,
                0.11054130643606186,
                0.1265651285648346
            ],
            [
                0.7511030435562134,
                0.8819711208343506,
                0.8722246885299683,
                0.9044907689094543,
                0.9283329844474792,
                0.794067919254303,
                0.898674488067627,
                0.5858649015426636,
                0.8668681979179382,
                1.352184772491455,
                0.8303272128105164,
                1.3352735042572021,
                1.7936105728149414,
                0.8883109092712402,
                0.9476959705352783,
                0.8814525008201599,
                0.6817658543586731,
                0.8601442575454712,
                0.7195197343826294,
                0.5357857346534729,
                0.4986003041267395,
                0.5090448260307312,
                0.4542330503463745,
                0.41662338376045227,
                0.047430988401174545,
                0.12009557336568832,
                0.13107742369174957,
                0.13536401093006134,
                0.1358160674571991,
                0.11341474205255508,
                0.14868347346782684,
                0.48463642597198486,
                0.19182759523391724,
                0.27817997336387634,
                0.149196594953537,
                0.05217129364609718,
                0.11383121460676193,
                0.10429647564888,
                0.1171674057841301
            ],
            [
                0.7535057067871094,
                0.8873781561851501,
                0.8789917230606079,
                0.9138592481613159,
                0.9358162879943848,
                0.7993241548538208,
                0.9064679145812988,
                0.5896248817443848,
                0.8722690939903259,
                1.3594871759414673,
                0.8370497226715088,
                1.3498876094818115,
                1.7998350858688354,
                0.8919593095779419,
                0.9556736946105957,
                0.8801823258399963,
                0.6886140704154968,
                0.8686398267745972,
                0.7244731783866882,
                0.5352243185043335,
                0.5011972188949585,
                0.5122164487838745,
                0.4615505635738373,
                0.42032766342163086,
                0.04751795902848244,
                0.11993315070867538,
                0.13097640872001648,
                0.13458232581615448,
                0.13429629802703857,
                0.11449385434389114,
                0.15095046162605286,
                0.4873298704624176,
                0.1828802525997162,
                0.28048887848854065,
                0.15042272210121155,
                0.05152140185236931,
                0.1130923181772232,
                0.10419325530529022,
                0.11493628472089767
            ]
        ]
    },
    "icts": {
        "names": [
            "gun:GUNcharge",
            "l0:L0charge",
            "linacbt:LNEcharge",
            "linacbt:BTMcharge",
            "ext:EXTcharge",
            "linacbt:BTEcharge",
            "BIM:DR:nparticles",
            "BIM:IP:nparticles"
        ],
        "charge": [
            0.5310805718199999,
            0.5896248700000001,
            0.407944375,
            0.2313775,
            0.04682257547916667,
            0.187293125,
            0.034431975334882736,
            0.01613619551062584
        ]
    },
    "hcorrectors_names": [
        "ZH1L",
        "ZH2L",
        "ZH3L",
        "ZH4L",
        "ZH5L",
        "ZH6L",
        "ZH7L",
        "ZH8L",
        "ZH9L",
        "ZH10L",
        "ZH11L",
        "ZH12L",
        "ZH30T",
        "ZH40T",
        "ZH50T"
    ],
    "vcorrectors_names": [
        "ZV1L",
        "ZV2L",
        "ZV3L",
        "ZV4L",
        "ZV5L",
        "ZV6L",
        "ZV7L",
        "ZV8L",
        "ZV9L",
        "ZV10L",
        "ZV11L",
        "ZV12L",
        "ZV13L",
        "ZV30T",
        "ZV40T",
        "ZV50T",
        "ZV51T"
    ],
    "timestamp": "2024/05/24, 15:09:43"
}