{
    "sequence": [
        "MB5L",
        "MB6L",
        "MB7L",
        "ZH1L",
        "ZV1L",
        "MB8L",
        "MB9L",
        "MB10L",
        "ZV2L",
        "ZH2L",
        "MB11L",
        "ML1L",
        "ML2L",
        "ZV3L",
        "ZH3L",
        "ML3L",
        "ZH4L",
        "ZV4L",
        "ZH5L",
        "ZV5L",
        "ML4L",
        "ZH6L",
        "ZV6L",
        "ML5L",
        "ZH7L",
        "ZV7L",
        "ML6L",
        "ZH8L",
        "ZV8L",
        "ML7L",
        "ZH9L",
        "ML8L",
        "ZV9L",
        "ML9L",
        "ZH10L",
        "ML10L",
        "ZV10L",
        "ML11L",
        "ZH11L",
        "ML12L",
        "ZV11L",
        "ML13L",
        "ZH12L",
        "ML14L",
        "ZV12L",
        "ML15L",
        "ZX10T",
        "ZX11T",
        "ML1T",
        "ZV13L",
        "ZX12T",
        "ML2T",
        "ZY20T",
        "ZY21T",
        "ML101T",
        "ML102T",
        "ZY22T",
        "ZY23T",
        "ML103T",
        "ZX30T",
        "ML3T",
        "ZX31T",
        "ZV30T",
        "ZH30T",
        "ML104T",
        "ZX32T",
        "ML4T",
        "ML105T",
        "ZV40T",
        "ZH40T",
        "ML5T",
        "ML6T",
        "ZX50T",
        "ML106T",
        "ZX50T",
        "ML7T",
        "ZX51T",
        "ZV50T",
        "ML8T",
        "ZH50T",
        "ZV51T",
        "ML9T",
        "MB10T",
        "MB11T"
    ],
    "correctors": {
        "names": [
            "ZH1L",
            "ZV1L",
            "ZV2L",
            "ZH2L",
            "ZV3L",
            "ZH3L",
            "ZH4L",
            "ZV4L",
            "ZH5L",
            "ZV5L",
            "ZH6L",
            "ZV6L",
            "ZH7L",
            "ZV7L",
            "ZH8L",
            "ZV8L",
            "ZH9L",
            "ZV9L",
            "ZH10L",
            "ZV10L",
            "ZH11L",
            "ZV11L",
            "ZH12L",
            "ZV12L",
            "ZX10T",
            "ZX11T",
            "ZV13L",
            "ZX12T",
            "ZY20T",
            "ZY21T",
            "ZY22T",
            "ZY23T",
            "ZX30T",
            "ZX31T",
            "ZV30T",
            "ZH30T",
            "ZX32T",
            "ZV40T",
            "ZH40T",
            "ZX50T",
            "ZX50T",
            "ZX51T",
            "ZV50T",
            "ZH50T",
            "ZV51T"
        ],
        "bdes": [
            1.6058,
            0.32324,
            -3.694e-05,
            0.05,
            -0.018255,
            -0.0023425,
            -0.63212,
            -0.51377,
            0.0067611,
            0.025597,
            -0.089344,
            -0.23399,
            -0.34279,
            0.0008922,
            0.095066,
            -0.1336,
            -0.39271,
            -0.072191,
            -0.11643999999999999,
            -0.41065,
            0.09808,
            0.37969,
            0.043499,
            -1.4308,
            -0.5,
            0.81,
            -0.69,
            0.9,
            0.34,
            -0.25,
            -1.26,
            -1.47,
            0.0,
            0.0,
            0.09,
            -1.79,
            2.05,
            -1.5,
            -2.1085,
            1.29,
            1.29,
            -1.7,
            0.38,
            1.35,
            0.08
        ],
        "bact": [
            1.6047874689102173,
            0.3224230408668518,
            -0.00488519761711359,
            0.04885197803378105,
            -0.02198338881134987,
            -0.00488519761711359,
            -0.6350756883621216,
            -0.5178309679031372,
            0.00488519761711359,
            0.024425989016890526,
            -0.09281875938177109,
            -0.23693208396434784,
            -0.3468490242958069,
            0.0,
            0.09281875938177109,
            -0.13678553700447083,
            -0.39570102095603943,
            -0.07572057098150253,
            -0.11968734115362167,
            -0.4152418076992035,
            0.0977039560675621,
            0.3786028325557709,
            0.04152418300509453,
            -1.4338055849075317,
            -0.5080605745315552,
            0.8036150336265564,
            -0.6985832452774048,
            0.898876428604126,
            0.33463606238365173,
            -0.2589154839515686,
            -1.2677088975906372,
            -1.4802148342132568,
            0.0,
            0.0,
            0.08304836601018906,
            -1.797752857208252,
            2.044455051422119,
            -1.5095261335372925,
            -2.1128480434417725,
            1.2848069667816162,
            1.2848069667816162,
            -1.7073765993118286,
            0.37371763586997986,
            1.343429446220398,
            0.07572057098150253
        ]
    },
    "bpms": {
        "names": [
            "MB5L",
            "MB6L",
            "MB7L",
            "MB8L",
            "MB9L",
            "MB10L",
            "MB11L",
            "ML1L",
            "ML2L",
            "ML3L",
            "ML4L",
            "ML5L",
            "ML6L",
            "ML7L",
            "ML8L",
            "ML9L",
            "ML10L",
            "ML11L",
            "ML12L",
            "ML13L",
            "ML14L",
            "ML15L",
            "ML1T",
            "ML2T",
            "ML101T",
            "ML102T",
            "ML103T",
            "ML3T",
            "ML104T",
            "ML4T",
            "ML105T",
            "ML5T",
            "ML6T",
            "ML106T",
            "ML7T",
            "ML8T",
            "ML9T",
            "MB10T",
            "MB11T"
        ],
        "x": [
            [
                -1.1564818620681763,
                0.6629797220230103,
                0.12759651243686676,
                -7.953369140625,
                1.463516354560852,
                1.1868382692337036,
                0.024545885622501373,
                -2.4257612228393555,
                -0.652752697467804,
                0.8379426598548889,
                -0.17403104901313782,
                -0.8664507865905762,
                0.6399310231208801,
                -0.9827153086662292,
                0.6210516095161438,
                -6.299120903015137,
                -2.703566074371338,
                0.14221501350402832,
                0.31956490874290466,
                0.6616840958595276,
                1.3114315271377563,
                0.1976919025182724,
                -6.247161388397217,
                -1.1043341159820557,
                -4.549209117889404,
                2.8383796215057373,
                1.5746086835861206,
                -1.9136055707931519,
                -1.3153347969055176,
                -6.713238716125488,
                -7.129939556121826,
                -2.8133113384246826,
                1.0079867839813232,
                -5.765341758728027,
                -1.7899277210235596,
                -2.1692121028900146,
                -4.866667747497559,
                4.565838813781738,
                -3.0120136737823486
            ],
            [
                -1.1859277486801147,
                0.6785026788711548,
                0.10534989833831787,
                -7.991042613983154,
                1.4261945486068726,
                1.1359367370605469,
                0.010707470588386059,
                -2.3932645320892334,
                -0.6871024370193481,
                0.8244693875312805,
                -0.16866663098335266,
                -0.8253575563430786,
                0.6289768815040588,
                -0.9573394656181335,
                0.6379289031028748,
                -6.240851402282715,
                -2.5481741428375244,
                0.15400482714176178,
                0.21023476123809814,
                0.5831525921821594,
                1.1549640893936157,
                0.0932159572839737,
                -6.2670063972473145,
                -1.3584531545639038,
                -4.618003845214844,
                2.9131107330322266,
                1.5307562351226807,
                -1.9179441928863525,
                -1.555631399154663,
                -6.822668075561523,
                -7.152788162231445,
                -2.8010165691375732,
                1.059059739112854,
                -5.8140082359313965,
                -1.8321815729141235,
                -2.116222381591797,
                -4.829605579376221,
                4.527000427246094,
                -3.0198545455932617
            ],
            [
                -1.183809757232666,
                0.5272574424743652,
                0.08525487780570984,
                -7.8986687660217285,
                1.4777742624282837,
                1.1994839906692505,
                0.04420040547847748,
                -2.336651086807251,
                -0.6916861534118652,
                0.7586457133293152,
                -0.18606022000312805,
                -0.775948703289032,
                0.624284029006958,
                -0.9223096966743469,
                0.5732982158660889,
                -6.300015926361084,
                -2.5841426849365234,
                0.1721823811531067,
                0.2866590619087219,
                0.6053618788719177,
                1.2785862684249878,
                0.14988024532794952,
                -6.233246803283691,
                -1.470727562904358,
                -4.695571422576904,
                3.0230813026428223,
                1.6352964639663696,
                -2.086714029312134,
                -1.6958152055740356,
                -6.757863998413086,
                -7.154160976409912,
                -2.8323183059692383,
                -0.04886670783162117,
                -5.864323139190674,
                -1.9255298376083374,
                -2.202700614929199,
                -5.06462287902832,
                4.655134677886963,
                -3.0277035236358643
            ]
        ],
        "y": [
            [
                -0.7262488007545471,
                0.7363684773445129,
                3.067735195159912,
                7.659658908843994,
                -4.736415863037109,
                -0.8895997405052185,
                0.3279465138912201,
                -0.8686985969543457,
                -0.7713802456855774,
                -1.5045379400253296,
                -0.15956126153469086,
                0.325249046087265,
                -0.06373199820518494,
                -1.5342942476272583,
                -0.8787962794303894,
                0.35694482922554016,
                0.49605056643486023,
                1.5865644216537476,
                0.4697744846343994,
                -0.611009418964386,
                0.7302804589271545,
                -0.15170127153396606,
                -0.7847376465797424,
                -1.4264247417449951,
                -4.991142272949219,
                -3.597965955734253,
                1.7962799072265625,
                -1.4840975999832153,
                -0.49253684282302856,
                4.590484142303467,
                3.71294903755188,
                1.667840838432312,
                2.9144539833068848,
                -2.857741117477417,
                -0.17379671335220337,
                -2.6278536319732666,
                -1.7293174266815186,
                0.029637372121214867,
                2.065570116043091
            ],
            [
                -0.7864032983779907,
                0.7633994221687317,
                3.086616039276123,
                7.675662040710449,
                -4.735688209533691,
                -0.8860185742378235,
                0.3149127662181854,
                -0.891632080078125,
                -0.833707332611084,
                -1.5210843086242676,
                -0.2593534290790558,
                0.3055891990661621,
                -0.059982724487781525,
                -1.5024572610855103,
                -0.8674001693725586,
                0.3635958731174469,
                0.4041913151741028,
                1.5336964130401611,
                0.4666217267513275,
                -0.6323055624961853,
                0.6840438842773438,
                -0.11965633183717728,
                -0.7447119951248169,
                -1.4239858388900757,
                -5.0544304847717285,
                -3.621687173843384,
                1.8389191627502441,
                -1.4190527200698853,
                -0.5312903523445129,
                4.0475640296936035,
                2.150827646255493,
                1.3365072011947632,
                2.6578879356384277,
                -2.797842502593994,
                -0.05326972156763077,
                -2.6563384532928467,
                -1.719020128250122,
                0.05876913294196129,
                2.0984957218170166
            ],
            [
                -0.7989894151687622,
                0.765104353427887,
                3.1266586780548096,
                7.662544250488281,
                -4.647392272949219,
                -0.8933998942375183,
                0.29384905099868774,
                -0.9247831106185913,
                -0.8285329341888428,
                -1.504523515701294,
                -0.2002010941505432,
                0.3097359240055084,
                -0.07388699054718018,
                -1.4773911237716675,
                -0.8377535343170166,
                0.3793690800666809,
                0.4218449294567108,
                1.5586408376693726,
                0.5041370391845703,
                -0.5711318850517273,
                0.6825783848762512,
                -0.18371695280075073,
                -0.7598046660423279,
                -1.4674791097640991,
                -5.078312873840332,
                -3.619325876235962,
                1.7178425788879395,
                -1.5196027755737305,
                -0.5190931558609009,
                4.182689189910889,
                3.4953842163085938,
                1.4231877326965332,
                1.833269476890564,
                -2.6523280143737793,
                0.08398211747407913,
                -2.7094690799713135,
                -1.6692537069320679,
                -0.037889264523983,
                1.9189646244049072
            ]
        ],
        "tmit": [
            [
                0.7512588500976562,
                0.8811722993850708,
                0.8702480792999268,
                0.903615415096283,
                0.9279865622520447,
                0.793624222278595,
                0.8979711532592773,
                0.585946798324585,
                0.8678233027458191,
                1.3534011840820312,
                0.8237376809120178,
                1.3246315717697144,
                1.7955448627471924,
                0.8855091333389282,
                0.9468672275543213,
                0.8748902082443237,
                0.6776506900787354,
                0.869576632976532,
                0.7334084510803223,
                0.5371315479278564,
                0.5011746883392334,
                0.5099126100540161,
                0.4238273799419403,
                0.4189029633998871,
                0.06386822462081909,
                0.15197163820266724,
                0.17097537219524384,
                0.17427392303943634,
                0.16846080124378204,
                0.17240622639656067,
                0.21525046229362488,
                0.6774890422821045,
                0.22798983752727509,
                0.28961196541786194,
                0.14935652911663055,
                0.06534247100353241,
                0.1484006941318512,
                0.14166225492954254,
                0.1480649709701538
            ],
            [
                0.7549757361412048,
                0.8896566033363342,
                0.8781901001930237,
                0.9137561917304993,
                0.9368906617164612,
                0.8005620241165161,
                0.9063302874565125,
                0.5898008942604065,
                0.8724952936172485,
                1.3617637157440186,
                0.8314406871795654,
                1.3418424129486084,
                1.8074727058410645,
                0.8918629288673401,
                0.9534556865692139,
                0.8858978748321533,
                0.6856464147567749,
                0.8779483437538147,
                0.7389047145843506,
                0.5398740172386169,
                0.5053990483283997,
                0.5142505168914795,
                0.42698150873184204,
                0.419643759727478,
                0.05999808385968208,
                0.1435661017894745,
                0.16228874027729034,
                0.1626356989145279,
                0.15958532691001892,
                0.16737037897109985,
                0.20103028416633606,
                0.5966848731040955,
                0.23171789944171906,
                0.29203349351882935,
                0.15042272210121155,
                0.062006354331970215,
                0.14132845401763916,
                0.13423039019107819,
                0.1387348622083664
            ],
            [
                0.7838916778564453,
                0.9172559380531311,
                0.9081082940101624,
                0.9430308938026428,
                0.9657805562019348,
                0.8246022462844849,
                0.9341368079185486,
                0.6045511364936829,
                0.8948586583137512,
                1.3884079456329346,
                0.8505900502204895,
                1.3645051717758179,
                1.832088589668274,
                0.9197636246681213,
                0.977177619934082,
                0.9096068143844604,
                0.7019838690757751,
                0.9005873203277588,
                0.7577295303344727,
                0.5497813820838928,
                0.5186862945556641,
                0.5280628800392151,
                0.44136425852775574,
                0.43394792079925537,
                0.057171571999788284,
                0.13674421608448029,
                0.15380410850048065,
                0.15308192372322083,
                0.1514393389225006,
                0.16701067984104156,
                0.20329727232456207,
                0.6263130307197571,
                0.237309992313385,
                0.3028459846973419,
                0.15543387830257416,
                0.05919014662504196,
                0.13378122448921204,
                0.12793393433094025,
                0.1340698003768921
            ]
        ]
    },
    "icts": {
        "names": [
            "gun:GUNcharge",
            "l0:L0charge",
            "linacbt:LNEcharge",
            "linacbt:BTMcharge",
            "ext:EXTcharge",
            "linacbt:BTEcharge",
            "BIM:DR:nparticles",
            "BIM:IP:nparticles"
        ],
        "charge": [
            0.54446928702,
            0.5883294325,
            0.4185020833333333,
            0.2724875,
            0.0075628853416666655,
            0.22590006944444446,
            -0.007794413715600967,
            0.0004457512404769659
        ]
    },
    "hcorrectors_names": [
        "ZH1L",
        "ZH2L",
        "ZH3L",
        "ZH4L",
        "ZH5L",
        "ZH6L",
        "ZH7L",
        "ZH8L",
        "ZH9L",
        "ZH10L",
        "ZH11L",
        "ZH12L",
        "ZH30T",
        "ZH40T",
        "ZH50T"
    ],
    "vcorrectors_names": [
        "ZV1L",
        "ZV2L",
        "ZV3L",
        "ZV4L",
        "ZV5L",
        "ZV6L",
        "ZV7L",
        "ZV8L",
        "ZV9L",
        "ZV10L",
        "ZV11L",
        "ZV12L",
        "ZV13L",
        "ZV30T",
        "ZV40T",
        "ZV50T",
        "ZV51T"
    ],
    "timestamp": "2024/05/24, 15:12:13"
}