{
    "sequence": [
        "MB5L",
        "MB6L",
        "MB7L",
        "ZH1L",
        "ZV1L",
        "MB8L",
        "MB9L",
        "MB10L",
        "ZV2L",
        "ZH2L",
        "MB11L",
        "ML1L",
        "ML2L",
        "ZV3L",
        "ZH3L",
        "ML3L",
        "ZH4L",
        "ZV4L",
        "ZH5L",
        "ZV5L",
        "ML4L",
        "ZH6L",
        "ZV6L",
        "ML5L",
        "ZH7L",
        "ZV7L",
        "ML6L",
        "ZH8L",
        "ZV8L",
        "ML7L",
        "ZH9L",
        "ML8L",
        "ZV9L",
        "ML9L",
        "ZH10L",
        "ML10L",
        "ZV10L",
        "ML11L",
        "ZH11L",
        "ML12L",
        "ZV11L",
        "ML13L",
        "ZH12L",
        "ML14L",
        "ZV12L",
        "ML15L",
        "ZX10T",
        "ZX11T",
        "ML1T",
        "ZV13L",
        "ZX12T",
        "ML2T",
        "ZY20T",
        "ZY21T",
        "ML101T",
        "ML102T",
        "ZY22T",
        "ZY23T",
        "ML103T",
        "ZX30T",
        "ML3T",
        "ZX31T",
        "ZV30T",
        "ZH30T",
        "ML104T",
        "ZX32T",
        "ML4T",
        "ML105T",
        "ZV40T",
        "ZH40T",
        "ML5T",
        "ML6T",
        "ZX50T",
        "ML106T",
        "ZX50T",
        "ML7T",
        "ZX51T",
        "ZV50T",
        "ML8T",
        "ZH50T",
        "ZV51T",
        "ML9T",
        "MB10T",
        "MB11T"
    ],
    "correctors": {
        "names": [
            "ZH1L",
            "ZV1L",
            "ZV2L",
            "ZH2L",
            "ZV3L",
            "ZH3L",
            "ZH4L",
            "ZV4L",
            "ZH5L",
            "ZV5L",
            "ZH6L",
            "ZV6L",
            "ZH7L",
            "ZV7L",
            "ZH8L",
            "ZV8L",
            "ZH9L",
            "ZV9L",
            "ZH10L",
            "ZV10L",
            "ZH11L",
            "ZV11L",
            "ZH12L",
            "ZV12L",
            "ZX10T",
            "ZX11T",
            "ZV13L",
            "ZX12T",
            "ZY20T",
            "ZY21T",
            "ZY22T",
            "ZY23T",
            "ZX30T",
            "ZX31T",
            "ZV30T",
            "ZH30T",
            "ZX32T",
            "ZV40T",
            "ZH40T",
            "ZX50T",
            "ZX50T",
            "ZX51T",
            "ZV50T",
            "ZH50T",
            "ZV51T"
        ],
        "bdes": [
            1.6058,
            0.32324,
            -3.694e-05,
            0.05,
            -0.018255,
            -0.0023425,
            -0.63212,
            -0.51377,
            0.0067611,
            0.025597,
            -0.089344,
            -0.23399,
            -0.34279,
            0.0008922,
            0.095066,
            -0.1336,
            -0.39271,
            -0.072191,
            -0.21644,
            -0.51065,
            0.09808,
            0.37969,
            0.043499,
            -1.4308,
            -0.5,
            0.81,
            -0.69,
            0.9,
            0.34,
            -0.25,
            -1.26,
            -1.47,
            0.0,
            0.0,
            0.09,
            -1.79,
            2.05,
            -1.5,
            -2.1085,
            1.29,
            1.29,
            -1.7,
            0.38,
            1.35,
            0.08
        ],
        "bact": [
            1.6047874689102173,
            0.3224230408668518,
            -0.00488519761711359,
            0.04885197803378105,
            -0.02198338881134987,
            -0.00488519761711359,
            -0.6350756883621216,
            -0.5178309679031372,
            0.00488519761711359,
            0.024425989016890526,
            -0.09281875938177109,
            -0.23693208396434784,
            -0.3468490242958069,
            0.0,
            0.09281875938177109,
            -0.13678553700447083,
            -0.39570102095603943,
            -0.07572057098150253,
            -0.21983389556407928,
            -0.5153883695602417,
            0.0977039560675621,
            0.3786028325557709,
            0.04152418300509453,
            -1.4338055849075317,
            -0.5080605745315552,
            0.8036150336265564,
            -0.6985832452774048,
            0.898876428604126,
            0.33463606238365173,
            -0.2589154839515686,
            -1.2677088975906372,
            -1.4802148342132568,
            0.0,
            0.0,
            0.08304836601018906,
            -1.797752857208252,
            2.044455051422119,
            -1.5095261335372925,
            -2.1128480434417725,
            1.2848069667816162,
            1.2848069667816162,
            -1.7073765993118286,
            0.37371763586997986,
            1.343429446220398,
            0.07572057098150253
        ]
    },
    "bpms": {
        "names": [
            "MB5L",
            "MB6L",
            "MB7L",
            "MB8L",
            "MB9L",
            "MB10L",
            "MB11L",
            "ML1L",
            "ML2L",
            "ML3L",
            "ML4L",
            "ML5L",
            "ML6L",
            "ML7L",
            "ML8L",
            "ML9L",
            "ML10L",
            "ML11L",
            "ML12L",
            "ML13L",
            "ML14L",
            "ML15L",
            "ML1T",
            "ML2T",
            "ML101T",
            "ML102T",
            "ML103T",
            "ML3T",
            "ML104T",
            "ML4T",
            "ML105T",
            "ML5T",
            "ML6T",
            "ML106T",
            "ML7T",
            "ML8T",
            "ML9T",
            "MB10T",
            "MB11T"
        ],
        "x": [
            [
                -1.1385051012039185,
                0.5963083505630493,
                0.09475117176771164,
                -7.950278282165527,
                1.444998860359192,
                1.2009634971618652,
                0.04750720039010048,
                -2.3576436042785645,
                -0.6688849329948425,
                0.8290418982505798,
                -0.18412946164608002,
                -0.6273737549781799,
                0.6334474682807922,
                -0.9412665963172913,
                0.6582068800926208,
                -6.250135898590088,
                -2.573214054107666,
                -0.7715134620666504,
                -1.3089852333068848,
                -0.38310572504997253,
                -0.7229796051979065,
                -1.2201882600784302,
                -6.620635032653809,
                0.5923061370849609,
                -6.230393409729004,
                2.2268521785736084,
                2.1008846759796143,
                -1.3169549703598022,
                -0.5593379735946655,
                -5.20883321762085,
                -7.101941108703613,
                -2.4191744327545166,
                -2.477522134780884,
                -5.092207908630371,
                -1.271533727645874,
                -2.9476277828216553,
                -4.671063423156738,
                3.1001431941986084,
                -4.154508590698242
            ],
            [
                -1.146522879600525,
                0.5420387387275696,
                0.06659098714590073,
                -7.956500053405762,
                1.4411059617996216,
                1.1981743574142456,
                0.05131669342517853,
                -2.3521547317504883,
                -0.6667047142982483,
                0.8228614926338196,
                -0.2002655565738678,
                -0.8862408399581909,
                0.6039333939552307,
                -0.8148558735847473,
                0.6048029065132141,
                -6.190737247467041,
                -2.3860299587249756,
                -0.787852942943573,
                -1.3094017505645752,
                -0.4489683508872986,
                -0.8954413533210754,
                -1.2223762273788452,
                -6.631547451019287,
                0.43455517292022705,
                -7.927559852600098,
                2.0269505977630615,
                1.3973604440689087,
                -0.8394705653190613,
                -1.145529866218567,
                -7.779522895812988,
                -8.111100196838379,
                -2.635637044906616,
                -2.486001491546631,
                -5.178525447845459,
                -1.3034757375717163,
                -2.511115074157715,
                -5.00615930557251,
                3.000622272491455,
                -4.370604515075684
            ],
            [
                -1.1880478858947754,
                0.605872631072998,
                0.078453429043293,
                -7.943514347076416,
                1.4384812116622925,
                1.1858965158462524,
                0.02959544211626053,
                -2.390211343765259,
                -0.6659824848175049,
                0.8450630307197571,
                -0.18033824861049652,
                -0.8282498121261597,
                0.625560462474823,
                -0.9096493124961853,
                0.625286340713501,
                -6.240818500518799,
                -2.5538153648376465,
                -0.8114756345748901,
                -1.293030023574829,
                -0.4278204143047333,
                -0.7555331587791443,
                -1.2096771001815796,
                -6.638169765472412,
                0.2927568256855011,
                -6.176794052124023,
                2.1386375427246094,
                2.6318256855010986,
                -0.9661034345626831,
                -1.1887450218200684,
                0.0,
                -7.569498538970947,
                -3.175288677215576,
                0.0,
                -5.200852394104004,
                -1.38975191116333,
                -2.6615452766418457,
                -4.286907196044922,
                3.401393413543701,
                -4.146667003631592
            ]
        ],
        "y": [
            [
                -0.758927047252655,
                0.727599024772644,
                3.1263229846954346,
                7.700808525085449,
                -4.67348051071167,
                -0.9023486375808716,
                0.27666619420051575,
                -0.9353501200675964,
                -0.7787266373634338,
                -1.4741517305374146,
                -0.1421845406293869,
                0.35723260045051575,
                -0.0489979051053524,
                -1.5216004848480225,
                -0.8919534683227539,
                0.3008193075656891,
                0.45018911361694336,
                1.5464560985565186,
                -0.08233070373535156,
                -1.1480027437210083,
                0.39993107318878174,
                -0.40398842096328735,
                0.3275851011276245,
                -0.6368510723114014,
                -4.618932247161865,
                -3.633410692214966,
                1.3058292865753174,
                -1.7311536073684692,
                -1.124523639678955,
                2.411874771118164,
                -6.490561008453369,
                2.152932643890381,
                3.1041111946105957,
                -1.860809087753296,
                1.0119928121566772,
                -2.5168228149414062,
                -0.7937462329864502,
                -1.1039400100708008,
                1.3610278367996216
            ],
            [
                -0.8087810277938843,
                0.8021167516708374,
                3.1667513847351074,
                7.67778205871582,
                -4.6185407638549805,
                -0.9138588309288025,
                0.2858099639415741,
                -0.9016656875610352,
                -0.8251945376396179,
                -1.4962745904922485,
                -0.18073676526546478,
                0.3224913477897644,
                -0.057336267083883286,
                -1.4349087476730347,
                -0.8565796613693237,
                0.27312564849853516,
                0.35904771089553833,
                1.4940253496170044,
                -0.04604199528694153,
                -1.1106703281402588,
                0.3600204288959503,
                -0.43598711490631104,
                0.29833266139030457,
                -0.60539710521698,
                -4.845710754394531,
                -3.6961441040039062,
                0.7034759521484375,
                -1.379226565361023,
                -0.7396593689918518,
                31.10597801208496,
                4.257472991943359,
                2.9441826343536377,
                2.3108623027801514,
                -1.6982771158218384,
                1.1714526414871216,
                -2.6315956115722656,
                -0.7806792855262756,
                0.045582689344882965,
                3.015576124191284
            ],
            [
                -0.8150044679641724,
                0.8350486159324646,
                3.2074337005615234,
                7.731057167053223,
                -4.638040065765381,
                -0.9295294880867004,
                0.2549288272857666,
                -0.9067558646202087,
                -0.8803429007530212,
                -1.5227324962615967,
                -0.21780022978782654,
                0.3070221245288849,
                -0.05608173459768295,
                -1.480107069015503,
                -0.8634073138237,
                0.35524284839630127,
                0.5785839557647705,
                1.4878135919570923,
                -0.09246663749217987,
                -1.1853820085525513,
                0.389257550239563,
                -0.41315993666648865,
                0.3344358503818512,
                -0.5950832962989807,
                -4.664894104003906,
                -4.237053871154785,
                1.7385655641555786,
                -1.4006624221801758,
                -0.2997749447822571,
                0.0,
                -11.487286567687988,
                0.21289849281311035,
                0.0,
                -1.6537986993789673,
                1.245980978012085,
                -2.982109308242798,
                -1.1411187648773193,
                -0.3730054497718811,
                1.9882577657699585
            ]
        ],
        "tmit": [
            [
                0.7663110494613647,
                0.8987321257591248,
                0.8863055109977722,
                0.922246515750885,
                0.9449843168258667,
                0.8084409832954407,
                0.9121918082237244,
                0.5936352610588074,
                0.8788447976112366,
                1.3675446510314941,
                0.8362758159637451,
                1.354193091392517,
                1.81302011013031,
                0.8994911313056946,
                0.9578948020935059,
                0.8920367956161499,
                0.6864880323410034,
                0.878695547580719,
                0.7283300757408142,
                0.5409955382347107,
                0.506335973739624,
                0.5173269510269165,
                0.47082364559173584,
                0.42266416549682617,
                0.00925138033926487,
                0.024304984137415886,
                0.02158530242741108,
                0.022021459415555,
                0.02523735538125038,
                0.021330460906028748,
                0.02770877256989479,
                0.091389499604702,
                0.027047131210565567,
                0.2816714942455292,
                0.15303491055965424,
                0.010318145155906677,
                0.020995019003748894,
                0.019810574129223824,
                0.021026581525802612
            ],
            [
                0.807398796081543,
                0.9487021565437317,
                0.9362366199493408,
                0.9697594046592712,
                0.992463231086731,
                0.8492493033409119,
                0.9604703187942505,
                0.6169686913490295,
                0.9192857146263123,
                1.4116871356964111,
                0.8720965385437012,
                1.3864389657974243,
                1.8605976104736328,
                0.9427814483642578,
                0.9996009469032288,
                0.9458051919937134,
                0.7210120558738708,
                0.9216265678405762,
                0.7621045708656311,
                0.5609921216964722,
                0.530143141746521,
                0.5426170229911804,
                0.5000938177108765,
                0.4475681483745575,
                0.0072510819882154465,
                0.019107360392808914,
                0.017039965838193893,
                0.01759197935461998,
                0.019583798944950104,
                0.011798299849033356,
                0.02152607962489128,
                0.07899953424930573,
                0.03040238842368126,
                0.29783394932746887,
                0.1617244929075241,
                0.008368464186787605,
                0.016878347843885422,
                0.016352692618966103,
                0.01697000488638878
            ],
            [
                0.7681890726089478,
                0.9062652587890625,
                0.8923543691635132,
                0.9283281564712524,
                0.9499053955078125,
                0.8132795095443726,
                0.9193110466003418,
                0.5962655544281006,
                0.8848679661750793,
                1.375216007232666,
                0.8414674401283264,
                1.350119709968567,
                1.8210021257400513,
                0.9047018885612488,
                0.9671026468276978,
                0.8988108038902283,
                0.6863583326339722,
                0.8827151656150818,
                0.734356164932251,
                0.5445908308029175,
                0.509608805179596,
                0.5201795697212219,
                0.4786458909511566,
                0.4272802770137787,
                0.005946539808064699,
                0.014843683689832687,
                0.013403695076704025,
                0.01420473214238882,
                0.015389223583042622,
                0.0,
                0.016786014661192894,
                0.052603501826524734,
                0.0,
                0.28578251600265503,
                0.15452760457992554,
                0.006418783217668533,
                0.012761677615344524,
                0.012378706596791744,
                0.013251478783786297
            ]
        ]
    },
    "icts": {
        "names": [
            "gun:GUNcharge",
            "l0:L0charge",
            "linacbt:LNEcharge",
            "linacbt:BTMcharge",
            "ext:EXTcharge",
            "linacbt:BTEcharge",
            "BIM:DR:nparticles",
            "BIM:IP:nparticles"
        ],
        "charge": [
            0.5196822325849999,
            0.57283970125,
            0.40224499999999996,
            0.0806925,
            0.056476143260833334,
            0.045353541666666664,
            0.04498857259750366,
            0.043594472110271454
        ]
    },
    "hcorrectors_names": [
        "ZH1L",
        "ZH2L",
        "ZH3L",
        "ZH4L",
        "ZH5L",
        "ZH6L",
        "ZH7L",
        "ZH8L",
        "ZH9L",
        "ZH10L",
        "ZH11L",
        "ZH12L",
        "ZH30T",
        "ZH40T",
        "ZH50T"
    ],
    "vcorrectors_names": [
        "ZV1L",
        "ZV2L",
        "ZV3L",
        "ZV4L",
        "ZV5L",
        "ZV6L",
        "ZV7L",
        "ZV8L",
        "ZV9L",
        "ZV10L",
        "ZV11L",
        "ZV12L",
        "ZV13L",
        "ZV30T",
        "ZV40T",
        "ZV50T",
        "ZV51T"
    ],
    "timestamp": "2024/05/24, 15:12:27"
}