{
    "sequence": [
        "MB5L",
        "MB6L",
        "MB7L",
        "ZH1L",
        "ZV1L",
        "MB8L",
        "MB9L",
        "MB10L",
        "ZV2L",
        "ZH2L",
        "MB11L",
        "ML1L",
        "ML2L",
        "ZV3L",
        "ZH3L",
        "ML3L",
        "ZH4L",
        "ZV4L",
        "ZH5L",
        "ZV5L",
        "ML4L",
        "ZH6L",
        "ZV6L",
        "ML5L",
        "ZH7L",
        "ZV7L",
        "ML6L",
        "ZH8L",
        "ZV8L",
        "ML7L",
        "ZH9L",
        "ML8L",
        "ZV9L",
        "ML9L",
        "ZH10L",
        "ML10L",
        "ZV10L",
        "ML11L",
        "ZH11L",
        "ML12L",
        "ZV11L",
        "ML13L",
        "ZH12L",
        "ML14L",
        "ZV12L",
        "ML15L",
        "ZX10T",
        "ZX11T",
        "ML1T",
        "ZV13L",
        "ZX12T",
        "ML2T",
        "ZY20T",
        "ZY21T",
        "ML101T",
        "ML102T",
        "ZY22T",
        "ZY23T",
        "ML103T",
        "ZX30T",
        "ML3T",
        "ZX31T",
        "ZV30T",
        "ZH30T",
        "ML104T",
        "ZX32T",
        "ML4T",
        "ML105T",
        "ZV40T",
        "ZH40T",
        "ML5T",
        "ML6T",
        "ZX50T",
        "ML106T",
        "ZX50T",
        "ML7T",
        "ZX51T",
        "ZV50T",
        "ML8T",
        "ZH50T",
        "ZV51T",
        "ML9T",
        "MB10T",
        "MB11T"
    ],
    "correctors": {
        "names": [
            "ZH1L",
            "ZV1L",
            "ZV2L",
            "ZH2L",
            "ZV3L",
            "ZH3L",
            "ZH4L",
            "ZV4L",
            "ZH5L",
            "ZV5L",
            "ZH6L",
            "ZV6L",
            "ZH7L",
            "ZV7L",
            "ZH8L",
            "ZV8L",
            "ZH9L",
            "ZV9L",
            "ZH10L",
            "ZV10L",
            "ZH11L",
            "ZV11L",
            "ZH12L",
            "ZV12L",
            "ZX10T",
            "ZX11T",
            "ZV13L",
            "ZX12T",
            "ZY20T",
            "ZY21T",
            "ZY22T",
            "ZY23T",
            "ZX30T",
            "ZX31T",
            "ZV30T",
            "ZH30T",
            "ZX32T",
            "ZV40T",
            "ZH40T",
            "ZX50T",
            "ZX50T",
            "ZX51T",
            "ZV50T",
            "ZH50T",
            "ZV51T"
        ],
        "bdes": [
            1.6058,
            0.32324,
            -3.694e-05,
            0.05,
            -0.018255,
            -0.0023425,
            -0.63212,
            -0.51377,
            0.0067611,
            0.025597,
            -0.089344,
            -0.23399,
            -0.34279,
            null,
            0.095066,
            null,
            -0.39271,
            null,
            null,
            -0.41065,
            0.09808,
            0.37969,
            0.043499,
            -1.4308,
            -0.5,
            0.81,
            -0.69,
            0.9,
            0.34,
            -0.25,
            -1.26,
            -1.47,
            0.0,
            0.0,
            0.09,
            -1.79,
            2.05,
            -1.5,
            -2.1085,
            1.29,
            1.29,
            -1.7,
            0.38,
            1.35,
            0.08
        ],
        "bact": [
            1.6047874689102173,
            0.3224230408668518,
            -0.00488519761711359,
            0.04885197803378105,
            -0.02198338881134987,
            -0.00488519761711359,
            -0.6350756883621216,
            -0.5178309679031372,
            0.00488519761711359,
            0.024425989016890526,
            -0.09281875938177109,
            -0.23693208396434784,
            -0.3468490242958069,
            0.0,
            0.09281875938177109,
            null,
            -0.39570102095603943,
            -0.07572057098150253,
            -0.21983389556407928,
            -0.4152418076992035,
            0.0977039560675621,
            0.3786028325557709,
            0.04152418300509453,
            -1.4338055849075317,
            -0.5080605745315552,
            0.8036150336265564,
            -0.6985832452774048,
            0.898876428604126,
            0.33463606238365173,
            -0.2589154839515686,
            -1.2677088975906372,
            -1.4802148342132568,
            0.0,
            0.0,
            0.08304836601018906,
            -1.797752857208252,
            2.044455051422119,
            -1.5095261335372925,
            -2.1128480434417725,
            1.2848069667816162,
            1.2848069667816162,
            -1.7073765993118286,
            0.37371763586997986,
            1.343429446220398,
            0.07572057098150253
        ]
    },
    "bpms": {
        "names": [
            "MB5L",
            "MB6L",
            "MB7L",
            "MB8L",
            "MB9L",
            "MB10L",
            "MB11L",
            "ML1L",
            "ML2L",
            "ML3L",
            "ML4L",
            "ML5L",
            "ML6L",
            "ML7L",
            "ML8L",
            "ML9L",
            "ML10L",
            "ML11L",
            "ML12L",
            "ML13L",
            "ML14L",
            "ML15L",
            "ML1T",
            "ML2T",
            "ML101T",
            "ML102T",
            "ML103T",
            "ML3T",
            "ML104T",
            "ML4T",
            "ML105T",
            "ML5T",
            "ML6T",
            "ML106T",
            "ML7T",
            "ML8T",
            "ML9T",
            "MB10T",
            "MB11T"
        ],
        "x": [
            [
                -1.1694979667663574,
                0.7612124681472778,
                0.14741314947605133,
                -7.954780101776123,
                1.463403582572937,
                1.1371774673461914,
                -0.007165083196014166,
                -2.441760778427124,
                -0.8449371457099915,
                0.42292559146881104,
                -0.17639772593975067,
                -0.5439592599868774,
                0.564029335975647,
                -1.185639500617981,
                0.4890424609184265,
                -6.327456474304199,
                -2.7970409393310547,
                -0.7469249367713928,
                -1.1535189151763916,
                -0.26509416103363037,
                -0.4944286048412323,
                -1.07221257686615,
                -6.4269795417785645,
                2.1792941093444824,
                -3.652348279953003,
                1.039190411567688,
                0.9553272128105164,
                0.2591564655303955,
                0.6833432912826538,
                -3.49094557762146,
                -6.357948303222656,
                -2.62485671043396,
                -1.050999402999878,
                -4.2465128898620605,
                -0.3942686915397644,
                -1.6860915422439575,
                -2.671807050704956,
                1.8435436487197876,
                -3.1067874431610107
            ],
            [
                -1.1331396102905273,
                0.5868529081344604,
                0.13644078373908997,
                -7.971279621124268,
                1.4756221771240234,
                1.1728159189224243,
                0.008160082623362541,
                -2.398825168609619,
                -0.8887102007865906,
                0.35239508748054504,
                -0.1977253258228302,
                -0.3900553584098816,
                0.560074508190155,
                -1.2321516275405884,
                0.4185977280139923,
                -6.373146057128906,
                -2.799992561340332,
                -0.7028917074203491,
                -1.0539274215698242,
                -0.2609238028526306,
                -0.4118046164512634,
                -0.9614824652671814,
                -6.384711265563965,
                2.410475254058838,
                -3.4417624473571777,
                1.0202831029891968,
                0.9331189393997192,
                0.3046084940433502,
                0.7889737486839294,
                -3.130282163619995,
                -6.166320323944092,
                -2.672952890396118,
                1.4997100830078125,
                -4.072396755218506,
                -0.28264114260673523,
                -1.650070309638977,
                -2.5890119075775146,
                1.7986339330673218,
                -3.105983018875122
            ],
            [
                -1.1388906240463257,
                0.6553097367286682,
                0.08804430067539215,
                -7.974720001220703,
                1.3841609954833984,
                1.1707895994186401,
                0.0019413193222135305,
                -2.386380910873413,
                -0.8355058431625366,
                0.3648291528224945,
                -0.21202221512794495,
                -0.5619382858276367,
                0.5806495547294617,
                -1.239823818206787,
                0.429544597864151,
                -6.352441787719727,
                -2.836923122406006,
                -0.6908717155456543,
                -0.9979141354560852,
                -0.22469580173492432,
                -0.33387279510498047,
                -0.9323589205741882,
                -6.360429763793945,
                2.702176809310913,
                -3.3081390857696533,
                0.9206357002258301,
                0.9523449540138245,
                0.33204999566078186,
                0.9690278172492981,
                -2.5795698165893555,
                -5.998344421386719,
                -2.638964891433716,
                1.6620546579360962,
                -3.877026081085205,
                -0.12888427078723907,
                -1.6078742742538452,
                -2.450627326965332,
                1.7740697860717773,
                -3.0112531185150146
            ]
        ],
        "y": [
            [
                -0.7645288109779358,
                0.6578589677810669,
                3.0421364307403564,
                7.61569356918335,
                -4.745707035064697,
                -0.8367190361022949,
                0.3708786070346832,
                -0.8570896983146667,
                -0.7590940594673157,
                -1.5049043893814087,
                -0.16302883625030518,
                0.3220791518688202,
                -0.040426984429359436,
                -1.3947811126708984,
                -0.857515811920166,
                0.27511072158813477,
                0.23796389997005463,
                1.3574880361557007,
                0.3451348543167114,
                -0.699384331703186,
                0.6611588001251221,
                -0.14547520875930786,
                -0.6526474356651306,
                -1.467564582824707,
                -4.880195140838623,
                -3.6733145713806152,
                1.7548948526382446,
                -1.3620749711990356,
                0.06902433931827545,
                4.658511638641357,
                3.6770434379577637,
                2.1940560340881348,
                -0.8835265636444092,
                -3.87373685836792,
                -1.4883328676223755,
                -2.569122791290283,
                -1.8414174318313599,
                0.029526738449931145,
                0.824294924736023
            ],
            [
                -0.7765406370162964,
                0.7828736901283264,
                3.1488513946533203,
                7.701315402984619,
                -4.664788246154785,
                -0.9048144817352295,
                0.27745816111564636,
                -0.9235486388206482,
                -0.820821225643158,
                -1.507697582244873,
                -0.11773265153169632,
                0.36810100078582764,
                -0.018330015242099762,
                -1.3510674238204956,
                -0.8770186305046082,
                0.17622493207454681,
                0.17674779891967773,
                1.3335174322128296,
                0.3113686144351959,
                -0.7087581157684326,
                0.6535391807556152,
                -0.11666650325059891,
                -0.6515657901763916,
                -1.434128761291504,
                -4.909634113311768,
                -3.679375648498535,
                1.8101927042007446,
                -1.4679527282714844,
                0.029889408499002457,
                4.91570520401001,
                4.191067218780518,
                2.0523271560668945,
                2.328933000564575,
                -3.9752867221832275,
                -1.6419587135314941,
                -2.5303218364715576,
                -1.8687503337860107,
                0.022016000002622604,
                0.7373352646827698
            ],
            [
                -0.7162044644355774,
                0.7463053464889526,
                3.0486767292022705,
                7.671533584594727,
                -4.7212419509887695,
                -0.8898239731788635,
                0.3120977580547333,
                -0.8756775856018066,
                -0.7449856400489807,
                -1.4860903024673462,
                -0.09204182773828506,
                0.3717464506626129,
                -0.022272208705544472,
                -1.4008220434188843,
                -0.9207425713539124,
                0.2035573422908783,
                0.21229566633701324,
                1.3331847190856934,
                0.32100218534469604,
                -0.7162052392959595,
                0.6801832318305969,
                -0.13899685442447662,
                -0.6947957277297974,
                -1.4562207460403442,
                -4.868851661682129,
                -3.7223496437072754,
                1.8644028902053833,
                -1.4167131185531616,
                0.05303249508142471,
                5.028764724731445,
                3.9511241912841797,
                1.9373791217803955,
                2.367051839828491,
                -4.162410259246826,
                -1.8718680143356323,
                -2.526244640350342,
                -1.8450276851654053,
                0.039557069540023804,
                0.6213191747665405
            ]
        ],
        "tmit": [
            [
                0.7420602440834045,
                0.875185489654541,
                0.8676382899284363,
                0.9007713198661804,
                0.9242709875106812,
                0.790848970413208,
                0.8935009241104126,
                0.5834864974021912,
                0.8635492920875549,
                1.3531358242034912,
                0.8208785653114319,
                1.3270057439804077,
                1.7932374477386475,
                0.8778405785560608,
                0.943284273147583,
                0.8734083771705627,
                0.679466724395752,
                0.8662300705909729,
                0.7221748232841492,
                0.5336534380912781,
                0.4988318085670471,
                0.5095309019088745,
                0.44161659479141235,
                0.4206125736236572,
                0.09604693949222565,
                0.22843356430530548,
                0.2635992467403412,
                0.2644268572330475,
                0.25587815046310425,
                0.2020818293094635,
                0.223700150847435,
                0.8153948187828064,
                0.9639098644256592,
                0.27665945887565613,
                0.14882341027259827,
                0.09835707396268845,
                0.20862017571926117,
                0.19688516855239868,
                0.21959590911865234
            ],
            [
                0.7627241611480713,
                0.8959546685218811,
                0.8863949775695801,
                0.9193398952484131,
                0.9431323409080505,
                0.80674809217453,
                0.9127014875411987,
                0.5939196944236755,
                0.8802888989448547,
                1.371867299079895,
                0.8328682780265808,
                1.350497841835022,
                1.810073971748352,
                0.8941419720649719,
                0.9594948887825012,
                0.8947887420654297,
                0.6899819374084473,
                0.8842461705207825,
                0.7354678511619568,
                0.543104887008667,
                0.507522702217102,
                0.5184796452522278,
                0.4492495357990265,
                0.42916086316108704,
                0.10126510262489319,
                0.24146822094917297,
                0.2803664803504944,
                0.282665878534317,
                0.26979929208755493,
                0.21107444167137146,
                0.2420421540737152,
                0.806236982345581,
                0.398362398147583,
                0.2827414870262146,
                0.15255513787269592,
                0.10390282422304153,
                0.22097018361091614,
                0.20596857368946075,
                0.23494328558444977
            ],
            [
                0.7496604323387146,
                0.8811421990394592,
                0.8709778189659119,
                0.9043850302696228,
                0.9282839298248291,
                0.7947514057159424,
                0.898847222328186,
                0.5857926607131958,
                0.8674238324165344,
                1.3592045307159424,
                0.8227661848068237,
                1.328152060508728,
                1.7948201894760132,
                0.8791259527206421,
                0.9447035789489746,
                0.8822992444038391,
                0.679310142993927,
                0.8664348721504211,
                0.7259439826011658,
                0.5372130870819092,
                0.499555766582489,
                0.5106467604637146,
                0.43713775277137756,
                0.4215813875198364,
                0.10452646762132645,
                0.24922405183315277,
                0.2884470820426941,
                0.29109057784080505,
                0.27788448333740234,
                0.21718940138816833,
                0.24327868223190308,
                0.8541808128356934,
                0.40581852197647095,
                0.276828408241272,
                0.1496230661869049,
                0.10736893117427826,
                0.22777853906154633,
                0.2135036587715149,
                0.24210989475250244
            ]
        ]
    },
    "icts": {
        "names": [
            "gun:GUNcharge",
            "l0:L0charge",
            "linacbt:LNEcharge",
            "linacbt:BTMcharge",
            "ext:EXTcharge",
            "linacbt:BTEcharge",
            "BIM:DR:nparticles",
            "BIM:IP:nparticles"
        ],
        "charge": [
            0.5230353884900001,
            0.564086245,
            0.40979374999999996,
            0.369335,
            0.32012782937333334,
            0.31862090277777777,
            0.28779029846191406,
            0.2907189726829529
        ]
    },
    "hcorrectors_names": [
        "ZH1L",
        "ZH2L",
        "ZH3L",
        "ZH4L",
        "ZH5L",
        "ZH6L",
        "ZH7L",
        "ZH8L",
        "ZH9L",
        "ZH10L",
        "ZH11L",
        "ZH12L",
        "ZH30T",
        "ZH40T",
        "ZH50T"
    ],
    "vcorrectors_names": [
        "ZV1L",
        "ZV2L",
        "ZV3L",
        "ZV4L",
        "ZV5L",
        "ZV6L",
        "ZV7L",
        "ZV8L",
        "ZV9L",
        "ZV10L",
        "ZV11L",
        "ZV12L",
        "ZV13L",
        "ZV30T",
        "ZV40T",
        "ZV50T",
        "ZV51T"
    ],
    "timestamp": "2024/05/24, 15:09:14"
}