{
    "sequence": [
        "MB5L",
        "MB6L",
        "MB7L",
        "ZH1L",
        "ZV1L",
        "MB8L",
        "MB9L",
        "MB10L",
        "ZV2L",
        "ZH2L",
        "MB11L",
        "ML1L",
        "ML2L",
        "ZV3L",
        "ZH3L",
        "ML3L",
        "ZH4L",
        "ZV4L",
        "ZH5L",
        "ZV5L",
        "ML4L",
        "ZH6L",
        "ZV6L",
        "ML5L",
        "ZH7L",
        "ZV7L",
        "ML6L",
        "ZH8L",
        "ZV8L",
        "ML7L",
        "ZH9L",
        "ML8L",
        "ZV9L",
        "ML9L",
        "ZH10L",
        "ML10L",
        "ZV10L",
        "ML11L",
        "ZH11L",
        "ML12L",
        "ZV11L",
        "ML13L",
        "ZH12L",
        "ML14L",
        "ZV12L",
        "ML15L",
        "ZX10T",
        "ZX11T",
        "ML1T",
        "ZV13L",
        "ZX12T",
        "ML2T",
        "ZY20T",
        "ZY21T",
        "ML101T",
        "ML102T",
        "ZY22T",
        "ZY23T",
        "ML103T",
        "ZX30T",
        "ML3T",
        "ZX31T",
        "ZV30T",
        "ZH30T",
        "ML104T",
        "ZX32T",
        "ML4T",
        "ML105T",
        "ZV40T",
        "ZH40T",
        "ML5T",
        "ML6T",
        "ZX50T",
        "ML106T",
        "ZX50T",
        "ML7T",
        "ZX51T",
        "ZV50T",
        "ML8T",
        "ZH50T",
        "ZV51T",
        "ML9T",
        "MB10T",
        "MB11T"
    ],
    "correctors": {
        "names": [
            "ZH1L",
            "ZV1L",
            "ZV2L",
            "ZH2L",
            "ZV3L",
            "ZH3L",
            "ZH4L",
            "ZV4L",
            "ZH5L",
            "ZV5L",
            "ZH6L",
            "ZV6L",
            "ZH7L",
            "ZV7L",
            "ZH8L",
            "ZV8L",
            "ZH9L",
            "ZV9L",
            "ZH10L",
            "ZV10L",
            "ZH11L",
            "ZV11L",
            "ZH12L",
            "ZV12L",
            "ZX10T",
            "ZX11T",
            "ZV13L",
            "ZX12T",
            "ZY20T",
            "ZY21T",
            "ZY22T",
            "ZY23T",
            "ZX30T",
            "ZX31T",
            "ZV30T",
            "ZH30T",
            "ZX32T",
            "ZV40T",
            "ZH40T",
            "ZX50T",
            "ZX50T",
            "ZX51T",
            "ZV50T",
            "ZH50T",
            "ZV51T"
        ],
        "bdes": [
            1.6058,
            0.32324,
            -3.694e-05,
            0.05,
            -0.018255,
            -0.0023425,
            -0.63212,
            -0.51377,
            0.0067611,
            0.025597,
            -0.089344,
            -0.23399,
            -0.34279,
            0.0008922,
            0.095066,
            -0.2336,
            -0.39271,
            -0.072191,
            -0.21644,
            -0.41065,
            0.09808,
            0.37969,
            0.043499,
            -1.4308,
            -0.5,
            0.81,
            -0.69,
            0.9,
            0.34,
            -0.25,
            -1.26,
            -1.47,
            0.0,
            0.0,
            0.09,
            -1.79,
            2.05,
            -1.5,
            -2.1085,
            1.29,
            1.29,
            -1.7,
            0.38,
            1.35,
            0.08
        ],
        "bact": [
            1.6047874689102173,
            0.3224230408668518,
            -0.00488519761711359,
            0.04885197803378105,
            -0.02198338881134987,
            -0.00488519761711359,
            -0.6350756883621216,
            -0.5178309679031372,
            0.00488519761711359,
            0.024425989016890526,
            -0.09281875938177109,
            -0.23693208396434784,
            -0.3468490242958069,
            0.0,
            0.09281875938177109,
            -0.23693208396434784,
            -0.40058618783950806,
            -0.08304836601018906,
            -0.2247191071510315,
            -0.4201270043849945,
            0.09281875938177109,
            0.37371763586997986,
            0.036638982594013214,
            -1.4435759782791138,
            -0.5080605745315552,
            0.8036150336265564,
            -0.6985832452774048,
            0.898876428604126,
            0.33463606238365173,
            -0.2589154839515686,
            -1.2677088975906372,
            -1.4802148342132568,
            0.0,
            0.0,
            0.08304836601018906,
            -1.797752857208252,
            2.044455051422119,
            -1.5095261335372925,
            -2.1177332401275635,
            1.2848069667816162,
            1.2848069667816162,
            -1.7073765993118286,
            0.37371763586997986,
            1.343429446220398,
            0.07572057098150253
        ]
    },
    "bpms": {
        "names": [
            "MB5L",
            "MB6L",
            "MB7L",
            "MB8L",
            "MB9L",
            "MB10L",
            "MB11L",
            "ML1L",
            "ML2L",
            "ML3L",
            "ML4L",
            "ML5L",
            "ML6L",
            "ML7L",
            "ML8L",
            "ML9L",
            "ML10L",
            "ML11L",
            "ML12L",
            "ML13L",
            "ML14L",
            "ML15L",
            "ML1T",
            "ML2T",
            "ML101T",
            "ML102T",
            "ML103T",
            "ML3T",
            "ML104T",
            "ML4T",
            "ML105T",
            "ML5T",
            "ML6T",
            "ML106T",
            "ML7T",
            "ML8T",
            "ML9T",
            "MB10T",
            "MB11T"
        ],
        "x": [
            [
                -1.134076714515686,
                0.7238000631332397,
                0.09423059970140457,
                -7.942303657531738,
                1.4458341598510742,
                1.15388023853302,
                0.022849293425679207,
                -2.417046070098877,
                -0.9090508222579956,
                0.30272161960601807,
                -0.22323979437351227,
                -0.5817309617996216,
                0.5668561458587646,
                -1.2765705585479736,
                0.33801811933517456,
                -6.4704508781433105,
                -3.1160807609558105,
                -0.7476057410240173,
                -0.9647032618522644,
                -0.19002370536327362,
                -0.2557268440723419,
                -0.8765160441398621,
                -6.431310653686523,
                1.9595280885696411,
                -3.6428396701812744,
                1.1808267831802368,
                0.941689133644104,
                -0.007688890211284161,
                0.2712457478046417,
                -4.309718608856201,
                -6.3220953941345215,
                -2.6667654514312744,
                1.714280128479004,
                -4.420114040374756,
                -0.564876139163971,
                -1.781646490097046,
                -3.0483529567718506,
                2.143314838409424,
                -3.0416667461395264
            ],
            [
                -1.1792621612548828,
                0.5971283316612244,
                0.07075401395559311,
                -7.949892520904541,
                1.421167016029358,
                1.1668915748596191,
                -0.000999575131572783,
                -2.4000840187072754,
                -0.9433974623680115,
                0.2767775356769562,
                -0.2536385953426361,
                -0.409357488155365,
                0.535812497138977,
                -1.2486153841018677,
                0.3194003999233246,
                -6.535587787628174,
                -3.1172127723693848,
                -0.7292096018791199,
                -0.9037840366363525,
                -0.18943284451961517,
                -0.21053992211818695,
                -0.8393552899360657,
                -6.445873737335205,
                1.9010480642318726,
                -3.7508938312530518,
                1.2094498872756958,
                0.9298211336135864,
                0.033200882375240326,
                0.2103075236082077,
                -4.3535637855529785,
                -6.426866054534912,
                -2.6899573802948,
                1.6085833311080933,
                -4.461152076721191,
                -0.6286466121673584,
                -1.788432002067566,
                -3.0719919204711914,
                2.1530234813690186,
                -3.1262972354888916
            ],
            [
                -1.1232701539993286,
                0.6964200735092163,
                0.07951433956623077,
                -7.966550827026367,
                1.4234496355056763,
                1.121171236038208,
                -0.004945294465869665,
                -2.454047441482544,
                -0.8848821520805359,
                0.3111495077610016,
                -0.20446161925792694,
                -0.4252087473869324,
                0.5751718878746033,
                -1.2531081438064575,
                0.40789520740509033,
                -6.500924110412598,
                -3.1201233863830566,
                -0.7301737666130066,
                -1.002885103225708,
                -0.18116191029548645,
                -0.27581489086151123,
                -0.9028847813606262,
                -6.398578643798828,
                2.502889633178711,
                -3.4417169094085693,
                1.0286612510681152,
                0.837577760219574,
                0.13013343513011932,
                0.5646002292633057,
                -3.5046184062957764,
                -6.072010517120361,
                -2.621595621109009,
                1.605232834815979,
                -4.083795547485352,
                -0.2799798548221588,
                -1.6597394943237305,
                -2.718324899673462,
                1.9645220041275024,
                -2.9979100227355957
            ]
        ],
        "y": [
            [
                -0.7272819876670837,
                0.6613909006118774,
                3.006460666656494,
                7.593754291534424,
                -4.732668399810791,
                -0.8372176289558411,
                0.36604177951812744,
                -0.8894814252853394,
                -0.7996202707290649,
                -1.5292882919311523,
                -0.2523205876350403,
                0.2827656865119934,
                -0.050817836076021194,
                -1.4268474578857422,
                -1.6343374252319336,
                -1.7280367612838745,
                -0.5894498229026794,
                -0.14186270534992218,
                -0.44134196639060974,
                -1.3966532945632935,
                0.6137834787368774,
                0.08818227797746658,
                -0.5019607543945312,
                -1.453665852546692,
                -5.765850067138672,
                -4.444128036499023,
                2.7746360301971436,
                -1.9867750406265259,
                1.3355876207351685,
                5.108450412750244,
                4.4097580909729,
                2.037386417388916,
                1.8275549411773682,
                -4.184761047363281,
                -2.151186466217041,
                -3.4515461921691895,
                -3.014129638671875,
                0.5155487060546875,
                -0.24520885944366455
            ],
            [
                -0.8079695701599121,
                0.7048435211181641,
                3.0873632431030273,
                7.6261444091796875,
                -4.697229862213135,
                -0.877297580242157,
                0.3569139242172241,
                -0.8891167044639587,
                -0.8185392022132874,
                -1.5193547010421753,
                -0.20986521244049072,
                0.30770373344421387,
                -0.035041503608226776,
                -1.4154468774795532,
                -1.6348779201507568,
                -1.7732197046279907,
                -0.6397151947021484,
                -0.19908443093299866,
                -0.4818476140499115,
                -1.3804832696914673,
                0.6335580348968506,
                0.05521322041749954,
                -0.5329656004905701,
                -1.4801065921783447,
                -5.787014961242676,
                -4.460110187530518,
                2.8299412727355957,
                -1.9461002349853516,
                1.4026108980178833,
                5.142237186431885,
                4.550454139709473,
                1.872514247894287,
                1.9350066184997559,
                -4.154018878936768,
                -2.1214025020599365,
                -3.486388683319092,
                -3.0384178161621094,
                0.45545586943626404,
                -0.14527198672294617
            ],
            [
                -0.7306661605834961,
                0.777378261089325,
                3.0530083179473877,
                7.6616597175598145,
                -4.704774379730225,
                -0.8938282132148743,
                0.3460945188999176,
                -0.8852027654647827,
                -0.800841748714447,
                -1.5115965604782104,
                -0.1397200971841812,
                0.3343547284603119,
                -0.03672541677951813,
                -1.4460326433181763,
                -1.6721426248550415,
                -1.7886840105056763,
                -0.6639134883880615,
                -0.24347823858261108,
                -0.5301148891448975,
                -1.4459763765335083,
                0.6037915945053101,
                0.03259474039077759,
                -0.5275762677192688,
                -1.4692686796188354,
                -5.797382831573486,
                -4.487068176269531,
                2.8876893520355225,
                -1.958899974822998,
                1.5167807340621948,
                5.408501625061035,
                4.287745475769043,
                1.9174957275390625,
                1.7448620796203613,
                -4.361324310302734,
                -2.4879801273345947,
                -3.4989798069000244,
                -3.020272731781006,
                0.41910532116889954,
                -0.4532797634601593
            ]
        ],
        "tmit": [
            [
                0.7559967041015625,
                0.8896350860595703,
                0.8777104616165161,
                0.9122515320777893,
                0.937767744064331,
                0.8000265955924988,
                0.9059524536132812,
                0.5894832611083984,
                0.8727593421936035,
                1.3668475151062012,
                0.8301568031311035,
                1.3347606658935547,
                1.8060104846954346,
                0.8889287710189819,
                0.9492260813713074,
                0.9041030406951904,
                0.6777248978614807,
                0.8837003111839294,
                0.7327843904495239,
                0.5424078106880188,
                0.5042344927787781,
                0.5152570605278015,
                0.4508896768093109,
                0.42773616313934326,
                0.11161447316408157,
                0.24439188838005066,
                0.28107354044914246,
                0.2787575125694275,
                0.26390257477760315,
                0.23211713135242462,
                0.2459578514099121,
                0.78468918800354,
                0.3174634277820587,
                0.28533199429512024,
                0.15191540122032166,
                0.11053173989057541,
                0.21943962574005127,
                0.20529763400554657,
                0.23088671267032623
            ],
            [
                0.771893322467804,
                0.9097069501876831,
                0.8967980146408081,
                0.9320130944252014,
                0.9551662802696228,
                0.8171956539154053,
                0.9235820770263672,
                0.5995357632637024,
                0.8899455666542053,
                1.3849605321884155,
                0.8424564003944397,
                1.3630826473236084,
                1.82447350025177,
                0.9060007333755493,
                0.9671047925949097,
                0.9208263158798218,
                0.688289225101471,
                0.8991687893867493,
                0.7445340156555176,
                0.5504956245422363,
                0.5137512683868408,
                0.5249034762382507,
                0.45852261781692505,
                0.4364554286003113,
                0.11357129365205765,
                0.24869617819786072,
                0.28390175104141235,
                0.2866610884666443,
                0.2680363655090332,
                0.2353544682264328,
                0.247606560587883,
                0.8116239309310913,
                0.3334940969944,
                0.2915266752243042,
                0.154154434800148,
                0.11230811476707458,
                0.22271186113357544,
                0.20885874330997467,
                0.23305021226406097
            ],
            [
                0.7485173940658569,
                0.878240704536438,
                0.8704827427864075,
                0.9054926633834839,
                0.9282456040382385,
                0.7942649126052856,
                0.8984989523887634,
                0.5852348804473877,
                0.868312656879425,
                1.3582236766815186,
                0.8235456943511963,
                1.3373198509216309,
                1.7932929992675781,
                0.8772584199905396,
                0.94056636095047,
                0.892460286617279,
                0.6720370054244995,
                0.8752236366271973,
                0.7236155271530151,
                0.5391349792480469,
                0.4999755620956421,
                0.5098550915718079,
                0.4398503005504608,
                0.4226071834564209,
                0.11705007404088974,
                0.25568047165870667,
                0.28986117243766785,
                0.2939566969871521,
                0.2756352126598358,
                0.2349947839975357,
                0.2502857446670532,
                0.7879213690757751,
                0.33796775341033936,
                0.28110837936401367,
                0.14999623596668243,
                0.11516764760017395,
                0.22798962891101837,
                0.21427780389785767,
                0.2385265976190567
            ]
        ]
    },
    "icts": {
        "names": [
            "gun:GUNcharge",
            "l0:L0charge",
            "linacbt:LNEcharge",
            "linacbt:BTMcharge",
            "ext:EXTcharge",
            "linacbt:BTEcharge",
            "BIM:DR:nparticles",
            "BIM:IP:nparticles"
        ],
        "charge": [
            0.5267292393799999,
            0.573808195,
            0.40521041666666663,
            0.36368750000000005,
            0.2781835129208333,
            0.3113778472222222,
            0.2490827739238739,
            0.2510471045970917
        ]
    },
    "hcorrectors_names": [
        "ZH1L",
        "ZH2L",
        "ZH3L",
        "ZH4L",
        "ZH5L",
        "ZH6L",
        "ZH7L",
        "ZH8L",
        "ZH9L",
        "ZH10L",
        "ZH11L",
        "ZH12L",
        "ZH30T",
        "ZH40T",
        "ZH50T"
    ],
    "vcorrectors_names": [
        "ZV1L",
        "ZV2L",
        "ZV3L",
        "ZV4L",
        "ZV5L",
        "ZV6L",
        "ZV7L",
        "ZV8L",
        "ZV9L",
        "ZV10L",
        "ZV11L",
        "ZV12L",
        "ZV13L",
        "ZV30T",
        "ZV40T",
        "ZV50T",
        "ZV51T"
    ],
    "timestamp": "2024/05/24, 15:03:17"
}