{
    "sequence": [
        "MB5L",
        "MB6L",
        "MB7L",
        "ZH1L",
        "ZV1L",
        "MB8L",
        "MB9L",
        "MB10L",
        "ZV2L",
        "ZH2L",
        "MB11L",
        "ML1L",
        "ML2L",
        "ZV3L",
        "ZH3L",
        "ML3L",
        "ZH4L",
        "ZV4L",
        "ZH5L",
        "ZV5L",
        "ML4L",
        "ZH6L",
        "ZV6L",
        "ML5L",
        "ZH7L",
        "ZV7L",
        "ML6L",
        "ZH8L",
        "ZV8L",
        "ML7L",
        "ZH9L",
        "ML8L",
        "ZV9L",
        "ML9L",
        "ZH10L",
        "ML10L",
        "ZV10L",
        "ML11L",
        "ZH11L",
        "ML12L",
        "ZV11L",
        "ML13L",
        "ZH12L",
        "ML14L",
        "ZV12L",
        "ML15L",
        "ZX10T",
        "ZX11T",
        "ML1T",
        "ZV13L",
        "ZX12T",
        "ML2T",
        "ZY20T",
        "ZY21T",
        "ML101T",
        "ML102T",
        "ZY22T",
        "ZY23T",
        "ML103T",
        "ZX30T",
        "ML3T",
        "ZX31T",
        "ZV30T",
        "ZH30T",
        "ML104T",
        "ZX32T",
        "ML4T",
        "ML105T",
        "ZV40T",
        "ZH40T",
        "ML5T",
        "ML6T",
        "ZX50T",
        "ML106T",
        "ZX50T",
        "ML7T",
        "ZX51T",
        "ZV50T",
        "ML8T",
        "ZH50T",
        "ZV51T",
        "ML9T",
        "MB10T",
        "MB11T"
    ],
    "correctors": {
        "names": [
            "ZH1L",
            "ZV1L",
            "ZV2L",
            "ZH2L",
            "ZV3L",
            "ZH3L",
            "ZH4L",
            "ZV4L",
            "ZH5L",
            "ZV5L",
            "ZH6L",
            "ZV6L",
            "ZH7L",
            "ZV7L",
            "ZH8L",
            "ZV8L",
            "ZH9L",
            "ZV9L",
            "ZH10L",
            "ZV10L",
            "ZH11L",
            "ZV11L",
            "ZH12L",
            "ZV12L",
            "ZX10T",
            "ZX11T",
            "ZV13L",
            "ZX12T",
            "ZY20T",
            "ZY21T",
            "ZY22T",
            "ZY23T",
            "ZX30T",
            "ZX31T",
            "ZV30T",
            "ZH30T",
            "ZX32T",
            "ZV40T",
            "ZH40T",
            "ZX50T",
            "ZX50T",
            "ZX51T",
            "ZV50T",
            "ZH50T",
            "ZV51T"
        ],
        "bdes": [
            1.6058,
            0.32324,
            -3.694e-05,
            0.05,
            -0.018255,
            -0.0023425,
            -0.63212,
            -0.51377,
            0.0067611,
            0.025597,
            -0.089344,
            -0.23399,
            -0.34279,
            0.0008922,
            0.095066,
            -0.1336,
            -0.39271,
            -0.172191,
            -0.21644,
            -0.41065,
            0.09808,
            0.37969,
            0.043499,
            -1.4308,
            -0.5,
            0.81,
            -0.69,
            0.9,
            0.34,
            -0.25,
            -1.26,
            -1.47,
            0.0,
            0.0,
            0.09,
            -1.79,
            2.05,
            -1.5,
            -2.1085,
            1.29,
            1.29,
            -1.7,
            0.38,
            1.35,
            0.08
        ],
        "bact": [
            1.6047874689102173,
            0.3224230408668518,
            -0.00488519761711359,
            0.04885197803378105,
            -0.02198338881134987,
            -0.00488519761711359,
            -0.6350756883621216,
            -0.5178309679031372,
            0.00488519761711359,
            0.024425989016890526,
            -0.09281875938177109,
            -0.23693208396434784,
            -0.3468490242958069,
            0.0,
            0.09281875938177109,
            -0.13678553700447083,
            -0.39570102095603943,
            -0.17586711049079895,
            -0.2247191071510315,
            -0.4201270043849945,
            0.09281875938177109,
            0.37371763586997986,
            0.036638982594013214,
            -1.4435759782791138,
            -0.5080605745315552,
            0.8036150336265564,
            -0.6985832452774048,
            0.898876428604126,
            0.33463606238365173,
            -0.2589154839515686,
            -1.2677088975906372,
            -1.4802148342132568,
            0.0,
            0.0,
            0.08304836601018906,
            -1.797752857208252,
            2.044455051422119,
            -1.5095261335372925,
            -2.1177332401275635,
            1.2848069667816162,
            1.2848069667816162,
            -1.7073765993118286,
            0.37371763586997986,
            1.343429446220398,
            0.07572057098150253
        ]
    },
    "bpms": {
        "names": [
            "MB5L",
            "MB6L",
            "MB7L",
            "MB8L",
            "MB9L",
            "MB10L",
            "MB11L",
            "ML1L",
            "ML2L",
            "ML3L",
            "ML4L",
            "ML5L",
            "ML6L",
            "ML7L",
            "ML8L",
            "ML9L",
            "ML10L",
            "ML11L",
            "ML12L",
            "ML13L",
            "ML14L",
            "ML15L",
            "ML1T",
            "ML2T",
            "ML101T",
            "ML102T",
            "ML103T",
            "ML3T",
            "ML104T",
            "ML4T",
            "ML105T",
            "ML5T",
            "ML6T",
            "ML106T",
            "ML7T",
            "ML8T",
            "ML9T",
            "MB10T",
            "MB11T"
        ],
        "x": [
            [
                -1.1950616836547852,
                0.7494601011276245,
                0.14724336564540863,
                -7.9430460929870605,
                1.46500563621521,
                1.167996883392334,
                0.008020163513720036,
                -2.476170063018799,
                -0.9034642577171326,
                0.28392359614372253,
                -0.2018289715051651,
                -0.3674483299255371,
                0.5744425058364868,
                -1.3148906230926514,
                0.32074999809265137,
                -6.466215133666992,
                -3.198228120803833,
                -0.7622519731521606,
                -0.9369456768035889,
                -0.12277591228485107,
                -0.1281377226114273,
                -0.7799175381660461,
                -6.408052921295166,
                2.225353240966797,
                -3.4092814922332764,
                1.0584527254104614,
                0.9161054491996765,
                0.20957347750663757,
                0.7237260341644287,
                -3.1727137565612793,
                -6.285311222076416,
                -2.6522645950317383,
                1.876491665840149,
                -4.2316975593566895,
                -0.4072275161743164,
                -1.7087998390197754,
                -2.6916887760162354,
                1.9301437139511108,
                -3.097970962524414
            ],
            [
                -1.1653128862380981,
                0.794253945350647,
                0.17699745297431946,
                -7.990303993225098,
                1.4561841487884521,
                1.13735830783844,
                -0.02361450344324112,
                -2.478548526763916,
                -0.8528313636779785,
                0.2915025055408478,
                -0.21097449958324432,
                -0.46907520294189453,
                0.597710371017456,
                -1.4109491109848022,
                0.37957122921943665,
                -6.513610363006592,
                -3.2300660610198975,
                -0.7800926566123962,
                -1.0380533933639526,
                -0.14134742319583893,
                -0.1530584990978241,
                -0.8312754034996033,
                -6.358823299407959,
                2.6705703735351562,
                -3.327561855316162,
                0.976022481918335,
                0.9922306537628174,
                0.34975555539131165,
                0.9657166600227356,
                -2.7525863647460938,
                -5.967156410217285,
                -2.575472831726074,
                1.6156249046325684,
                -4.013818740844727,
                -0.15254680812358856,
                -1.6633256673812866,
                -2.518075942993164,
                1.8558043241500854,
                -3.066328287124634
            ],
            [
                -1.1965943574905396,
                0.7210217118263245,
                0.043816592544317245,
                -8.072093963623047,
                1.3647125959396362,
                1.0999047756195068,
                -0.0476219467818737,
                -2.497408628463745,
                -0.8278436660766602,
                0.38734138011932373,
                -0.2053038626909256,
                -0.5792009830474854,
                0.5944039821624756,
                -1.2947278022766113,
                0.45316368341445923,
                -6.492031574249268,
                -3.1439831256866455,
                -0.8121512532234192,
                -1.1636042594909668,
                -0.20040524005889893,
                -0.3315613865852356,
                -0.9223802089691162,
                -6.348793983459473,
                2.9564805030822754,
                -3.2316319942474365,
                0.879873514175415,
                0.9270152449607849,
                0.42128095030784607,
                0.9545677900314331,
                -2.3846027851104736,
                -5.860891342163086,
                -2.427719831466675,
                1.7565723657608032,
                -3.7561275959014893,
                0.04095533490180969,
                -1.5884058475494385,
                -2.2910923957824707,
                1.6738181114196777,
                -2.929676055908203
            ]
        ],
        "y": [
            [
                -0.7411518096923828,
                0.7456299662590027,
                3.1099352836608887,
                7.726370334625244,
                -4.7166523933410645,
                -0.879086971282959,
                0.32304108142852783,
                -0.9029777646064758,
                -0.8090712428092957,
                -1.546182632446289,
                -0.23971593379974365,
                0.26732441782951355,
                -0.04333905875682831,
                -1.3938068151474,
                -0.8367653489112854,
                0.2180211991071701,
                -0.3401675522327423,
                -1.2935045957565308,
                -1.6675829887390137,
                -2.5232837200164795,
                0.24795325100421906,
                -0.1275927573442459,
                0.6507434248924255,
                -0.5420646071434021,
                -4.931392192840576,
                -4.0013861656188965,
                2.0009703636169434,
                -1.4046375751495361,
                0.5001115798950195,
                5.1790900230407715,
                4.319037437438965,
                2.1223063468933105,
                2.3301899433135986,
                -3.5843141078948975,
                -1.4278277158737183,
                -2.4532511234283447,
                -2.0072555541992188,
                -0.010502464137971401,
                -0.17938098311424255
            ],
            [
                -0.7711787819862366,
                0.781993567943573,
                3.042954683303833,
                7.690936088562012,
                -4.806975841522217,
                -0.8799233436584473,
                0.34525197744369507,
                -0.8607535362243652,
                -0.7314009666442871,
                -1.5136531591415405,
                -0.1498750001192093,
                0.355010449886322,
                -0.04287505894899368,
                -1.452843189239502,
                -0.9189413785934448,
                0.19989930093288422,
                -0.32521840929985046,
                -1.4072600603103638,
                -1.758244276046753,
                -2.602221727371216,
                0.26906996965408325,
                -0.1239294558763504,
                0.6795713901519775,
                -0.5480182766914368,
                -4.95582914352417,
                -4.02385950088501,
                2.130267858505249,
                -1.3984849452972412,
                0.6047483086585999,
                5.544591903686523,
                4.650856971740723,
                2.0672197341918945,
                2.068162441253662,
                -3.7884488105773926,
                -1.7148367166519165,
                -2.5003280639648438,
                -2.0817911624908447,
                -0.06802745163440704,
                -0.2858024835586548
            ],
            [
                -0.8178650736808777,
                0.7805116176605225,
                3.1156585216522217,
                7.718252658843994,
                -4.787988185882568,
                -0.8969860672950745,
                0.29929766058921814,
                -0.8657749891281128,
                -0.7423325181007385,
                -1.4760864973068237,
                -0.04113341495394707,
                0.4130294919013977,
                -0.0021756256464868784,
                -1.4548972845077515,
                -0.942144513130188,
                0.16151884198188782,
                -0.49172455072402954,
                -1.504997730255127,
                -1.7700612545013428,
                -2.6227710247039795,
                0.24535126984119415,
                -0.10449673980474472,
                0.7187272906303406,
                -0.5142751336097717,
                -4.986791610717773,
                -4.035514831542969,
                2.157905101776123,
                -1.486668586730957,
                0.7012743353843689,
                5.511227607727051,
                5.025418281555176,
                2.1143224239349365,
                1.618794560432434,
                -3.9058308601379395,
                -1.9337738752365112,
                -2.5173957347869873,
                -2.1015357971191406,
                -0.13744570314884186,
                -0.4911583364009857
            ]
        ],
        "tmit": [
            [
                0.7296754121780396,
                0.8619799017906189,
                0.8520464897155762,
                0.8836570382118225,
                0.9064331650733948,
                0.7759620547294617,
                0.8787609338760376,
                0.5750900506973267,
                0.8532146215438843,
                1.3396714925765991,
                0.8115003705024719,
                1.320191740989685,
                1.7753616571426392,
                0.8638869524002075,
                0.9277130961418152,
                0.86578768491745,
                0.6570469737052917,
                0.8549205660820007,
                0.7092453241348267,
                0.5341890454292297,
                0.4908989667892456,
                0.5021762847900391,
                0.4380840063095093,
                0.4136599600315094,
                0.10048238188028336,
                0.2413870096206665,
                0.27622517943382263,
                0.2787575125694275,
                0.266698956489563,
                0.22384394705295563,
                0.24616393446922302,
                0.7965404987335205,
                0.3487791419029236,
                0.270633727312088,
                0.14647775888442993,
                0.10281967371702194,
                0.220231294631958,
                0.20534923672676086,
                0.23183323442935944
            ],
            [
                0.7004477977752686,
                0.8278376460075378,
                0.8177883625030518,
                0.8508740663528442,
                0.8747749328613281,
                0.7482836246490479,
                0.8466883897781372,
                0.5599749088287354,
                0.8258509039878845,
                1.3086963891983032,
                0.7845537662506104,
                1.2815032005310059,
                1.7395495176315308,
                0.8308484554290771,
                0.899730920791626,
                0.8255672454833984,
                0.6370335817337036,
                0.8240740299224854,
                0.6851377487182617,
                0.5170060992240906,
                0.476515531539917,
                0.48322203755378723,
                0.4157528579235077,
                0.39605051279067993,
                0.10283056646585464,
                0.24646280705928802,
                0.2827906906604767,
                0.2890061140060425,
                0.27271726727485657,
                0.22186556458473206,
                0.24492740631103516,
                0.808391809463501,
                0.3696562945842743,
                0.2572306990623474,
                0.14040040969848633,
                0.10463938117027283,
                0.22345075011253357,
                0.20916840434074402,
                0.23440241813659668
            ],
            [
                0.6950547695159912,
                0.8201651573181152,
                0.8142110705375671,
                0.850281834602356,
                0.8699504137039185,
                0.7452158331871033,
                0.84396892786026,
                0.5588443875312805,
                0.8231593370437622,
                1.3038064241409302,
                0.7813171744346619,
                1.2724957466125488,
                1.733572244644165,
                0.8284445405006409,
                0.8943067193031311,
                0.8120192885398865,
                0.6400946378707886,
                0.8195475339889526,
                0.6811008453369141,
                0.5151450037956238,
                0.4732019901275635,
                0.48272910714149475,
                0.411967933177948,
                0.39519569277763367,
                0.10665721446275711,
                0.25673624873161316,
                0.294002503156662,
                0.29621487855911255,
                0.28493624925613403,
                0.23355594277381897,
                0.24513348937034607,
                0.8051595687866211,
                0.402090460062027,
                0.25531598925590515,
                0.13912096619606018,
                0.10879869014024734,
                0.2316313087940216,
                0.2183033972978592,
                0.24298880994319916
            ]
        ]
    },
    "icts": {
        "names": [
            "gun:GUNcharge",
            "l0:L0charge",
            "linacbt:LNEcharge",
            "linacbt:BTMcharge",
            "ext:EXTcharge",
            "linacbt:BTEcharge",
            "BIM:DR:nparticles",
            "BIM:IP:nparticles"
        ],
        "charge": [
            0.52460139,
            0.57939091375,
            0.40861812499999994,
            0.3785525,
            0.35579613887999995,
            0.3249354861111111,
            0.3229789733886719,
            0.32441776990890503
        ]
    },
    "hcorrectors_names": [
        "ZH1L",
        "ZH2L",
        "ZH3L",
        "ZH4L",
        "ZH5L",
        "ZH6L",
        "ZH7L",
        "ZH8L",
        "ZH9L",
        "ZH10L",
        "ZH11L",
        "ZH12L",
        "ZH30T",
        "ZH40T",
        "ZH50T"
    ],
    "vcorrectors_names": [
        "ZV1L",
        "ZV2L",
        "ZV3L",
        "ZV4L",
        "ZV5L",
        "ZV6L",
        "ZV7L",
        "ZV8L",
        "ZV9L",
        "ZV10L",
        "ZV11L",
        "ZV12L",
        "ZV13L",
        "ZV30T",
        "ZV40T",
        "ZV50T",
        "ZV51T"
    ],
    "timestamp": "2024/05/24, 15:03:36"
}