{
    "sequence": [
        "MB5L",
        "MB6L",
        "MB7L",
        "ZH1L",
        "ZV1L",
        "MB8L",
        "MB9L",
        "MB10L",
        "ZV2L",
        "ZH2L",
        "MB11L",
        "ML1L",
        "ML2L",
        "ZV3L",
        "ZH3L",
        "ML3L",
        "ZH4L",
        "ZV4L",
        "ZH5L",
        "ZV5L",
        "ML4L",
        "ZH6L",
        "ZV6L",
        "ML5L",
        "ZH7L",
        "ZV7L",
        "ML6L",
        "ZH8L",
        "ZV8L",
        "ML7L",
        "ZH9L",
        "ML8L",
        "ZV9L",
        "ML9L",
        "ZH10L",
        "ML10L",
        "ZV10L",
        "ML11L",
        "ZH11L",
        "ML12L",
        "ZV11L",
        "ML13L",
        "ZH12L",
        "ML14L",
        "ZV12L",
        "ML15L",
        "ZX10T",
        "ZX11T",
        "ML1T",
        "ZV13L",
        "ZX12T",
        "ML2T",
        "ZY20T",
        "ZY21T",
        "ML101T",
        "ML102T",
        "ZY22T",
        "ZY23T",
        "ML103T",
        "ZX30T",
        "ML3T",
        "ZX31T",
        "ZV30T",
        "ZH30T",
        "ML104T",
        "ZX32T",
        "ML4T",
        "ML105T",
        "ZV40T",
        "ZH40T",
        "ML5T",
        "ML6T",
        "ZX50T",
        "ML106T",
        "ZX50T",
        "ML7T",
        "ZX51T",
        "ZV50T",
        "ML8T",
        "ZH50T",
        "ZV51T",
        "ML9T",
        "MB10T",
        "MB11T"
    ],
    "correctors": {
        "names": [
            "ZH1L",
            "ZV1L",
            "ZV2L",
            "ZH2L",
            "ZV3L",
            "ZH3L",
            "ZH4L",
            "ZV4L",
            "ZH5L",
            "ZV5L",
            "ZH6L",
            "ZV6L",
            "ZH7L",
            "ZV7L",
            "ZH8L",
            "ZV8L",
            "ZH9L",
            "ZV9L",
            "ZH10L",
            "ZV10L",
            "ZH11L",
            "ZV11L",
            "ZH12L",
            "ZV12L",
            "ZX10T",
            "ZX11T",
            "ZV13L",
            "ZX12T",
            "ZY20T",
            "ZY21T",
            "ZY22T",
            "ZY23T",
            "ZX30T",
            "ZX31T",
            "ZV30T",
            "ZH30T",
            "ZX32T",
            "ZV40T",
            "ZH40T",
            "ZX50T",
            "ZX50T",
            "ZX51T",
            "ZV50T",
            "ZH50T",
            "ZV51T"
        ],
        "bdes": [
            1.6058,
            0.32324,
            -3.694e-05,
            0.05,
            -0.018255,
            -0.0023425,
            -0.63212,
            -0.51377,
            0.0067611,
            0.025597,
            -0.089344,
            -0.23399,
            -0.34279,
            0.22904611553727328,
            0.095066,
            -0.1336,
            -0.39271,
            -0.072191,
            -0.21644,
            -0.41065,
            0.09808,
            0.37969,
            0.043499,
            -1.4308,
            -0.5,
            0.81,
            -0.69,
            0.9,
            0.34,
            -0.25,
            -1.26,
            -1.47,
            0.0,
            0.0,
            0.09,
            -1.79,
            2.05,
            -1.5,
            -2.1085,
            1.29,
            1.29,
            -1.7,
            0.38,
            1.35,
            0.08
        ],
        "bact": [
            1.6047874689102173,
            0.3224230408668518,
            -0.00488519761711359,
            0.04885197803378105,
            -0.02198338881134987,
            -0.00488519761711359,
            -0.6350756883621216,
            -0.5178309679031372,
            0.00488519761711359,
            0.024425989016890526,
            -0.09281875938177109,
            -0.23693208396434784,
            -0.3468490242958069,
            0.227161705493927,
            0.09281875938177109,
            -0.13678553700447083,
            -0.39570102095603943,
            -0.07572057098150253,
            -0.21983389556407928,
            -0.4152418076992035,
            0.0977039560675621,
            0.3786028325557709,
            0.04152418300509453,
            -1.4338055849075317,
            -0.5080605745315552,
            0.8036150336265564,
            -0.6985832452774048,
            0.898876428604126,
            0.33463606238365173,
            -0.2589154839515686,
            -1.2677088975906372,
            -1.4802148342132568,
            0.0,
            0.0,
            0.08304836601018906,
            -1.797752857208252,
            2.044455051422119,
            -1.5095261335372925,
            -2.1128480434417725,
            1.2848069667816162,
            1.2848069667816162,
            -1.7073765993118286,
            0.37371763586997986,
            1.343429446220398,
            0.07572057098150253
        ]
    },
    "bpms": {
        "names": [
            "MB5L",
            "MB6L",
            "MB7L",
            "MB8L",
            "MB9L",
            "MB10L",
            "MB11L",
            "ML1L",
            "ML2L",
            "ML3L",
            "ML4L",
            "ML5L",
            "ML6L",
            "ML7L",
            "ML8L",
            "ML9L",
            "ML10L",
            "ML11L",
            "ML12L",
            "ML13L",
            "ML14L",
            "ML15L",
            "ML1T",
            "ML2T",
            "ML101T",
            "ML102T",
            "ML103T",
            "ML3T",
            "ML104T",
            "ML4T",
            "ML105T",
            "ML5T",
            "ML6T",
            "ML106T",
            "ML7T",
            "ML8T",
            "ML9T",
            "MB10T",
            "MB11T"
        ],
        "x": [
            [
                -1.1509770154953003,
                0.6656370759010315,
                0.08110308647155762,
                -8.007606506347656,
                1.4040734767913818,
                1.131356120109558,
                -0.03703263774514198,
                -2.442283868789673,
                -0.8314005136489868,
                0.4025207459926605,
                -0.17373022437095642,
                -0.5276932120323181,
                0.5920549631118774,
                -1.1736351251602173,
                0.5108451247215271,
                -6.3557939529418945,
                -2.8446545600891113,
                -0.7750301361083984,
                -1.1402435302734375,
                -0.305654913187027,
                -0.4491424858570099,
                -1.0328283309936523,
                -6.41409158706665,
                2.3528623580932617,
                -3.54956316947937,
                1.0373917818069458,
                0.9252563714981079,
                0.33313918113708496,
                0.7052661180496216,
                -3.3180463314056396,
                -6.208672523498535,
                -2.6844232082366943,
                0.48692506551742554,
                -4.138384819030762,
                -0.25880753993988037,
                -1.6437652111053467,
                -2.6389148235321045,
                1.8813167810440063,
                -3.0601255893707275
            ],
            [
                -1.2347619533538818,
                0.6858644485473633,
                0.10316190123558044,
                -8.024316787719727,
                1.4091274738311768,
                1.1195743083953857,
                -0.03202180936932564,
                -2.4716434478759766,
                -0.8179906606674194,
                0.36561858654022217,
                -0.19420383870601654,
                -0.42429080605506897,
                0.5817315578460693,
                -1.228798747062683,
                0.44861307740211487,
                -6.3495707511901855,
                -2.913289785385132,
                -0.7572960257530212,
                -1.1493993997573853,
                -0.2510372996330261,
                -0.41005682945251465,
                -1.001800537109375,
                -6.395331382751465,
                2.3614449501037598,
                -3.5812418460845947,
                0.9748150706291199,
                0.9141621589660645,
                0.3419901430606842,
                0.7711058855056763,
                -3.374748706817627,
                -6.21909236907959,
                -2.5717241764068604,
                1.2370458841323853,
                -4.151838779449463,
                -0.29810091853141785,
                -1.67538583278656,
                -2.601050853729248,
                1.8328473567962646,
                -3.0555312633514404
            ],
            [
                -1.1305299997329712,
                0.5701520442962646,
                0.11050930619239807,
                -7.923044204711914,
                1.4449297189712524,
                1.1980643272399902,
                0.06380631774663925,
                -2.347233295440674,
                -0.9198054671287537,
                0.26051709055900574,
                -0.24545495212078094,
                -0.4930227994918823,
                0.5471711158752441,
                -1.2095022201538086,
                0.28547877073287964,
                -6.434462070465088,
                -2.9000742435455322,
                -0.6359842419624329,
                -0.8763659000396729,
                -0.15293192863464355,
                -0.17564475536346436,
                -0.8308236598968506,
                -6.393713474273682,
                2.350412607192993,
                -3.41462779045105,
                0.9941104650497437,
                0.9725421071052551,
                0.23676083981990814,
                0.8443672060966492,
                -2.9603288173675537,
                -6.175675392150879,
                -2.651561737060547,
                1.3184514045715332,
                -4.106372356414795,
                -0.3417728543281555,
                -1.749335527420044,
                -2.5601789951324463,
                1.8546675443649292,
                -3.053353786468506
            ]
        ],
        "y": [
            [
                -0.7608610987663269,
                0.7214037179946899,
                3.0322725772857666,
                7.6429667472839355,
                -4.748114109039307,
                -0.8829482197761536,
                0.3303571939468384,
                -0.8620191812515259,
                -0.7490453124046326,
                -1.506656527519226,
                -0.14367112517356873,
                0.35451218485832214,
                0.03888016566634178,
                0.39414942264556885,
                -0.00413077138364315,
                0.9112801551818848,
                -0.06972355395555496,
                -0.48777201771736145,
                -1.1868818998336792,
                -2.092940330505371,
                0.3263493776321411,
                -0.17059896886348724,
                0.4514130651950836,
                -0.648073136806488,
                -4.515397071838379,
                -3.663055419921875,
                1.7077577114105225,
                -1.337863564491272,
                0.0018321677343919873,
                5.179723739624023,
                4.597543716430664,
                2.1672775745391846,
                1.035513997077942,
                -3.525125026702881,
                -1.2766294479370117,
                -2.1566810607910156,
                -1.5303993225097656,
                -0.21087871491909027,
                0.3293399214744568
            ],
            [
                -0.8253176808357239,
                0.644144594669342,
                3.068685293197632,
                7.645086288452148,
                -4.762021541595459,
                -0.8758267164230347,
                0.3443911075592041,
                -0.872165858745575,
                -0.7520767450332642,
                -1.5177745819091797,
                -0.16277149319648743,
                0.33088767528533936,
                0.00014554464723914862,
                0.39036402106285095,
                -0.008866354823112488,
                0.9088463187217712,
                -0.10902033001184464,
                -0.4770796597003937,
                -1.203923225402832,
                -2.12300705909729,
                0.3495396077632904,
                -0.15887267887592316,
                0.4392958879470825,
                -0.6641331315040588,
                -4.499801158905029,
                -3.655850887298584,
                1.6604362726211548,
                -1.2097187042236328,
                -0.03890516236424446,
                5.087474822998047,
                4.2954864501953125,
                1.9821593761444092,
                2.0878524780273438,
                -3.5683460235595703,
                -1.3013153076171875,
                -2.1727335453033447,
                -1.5170828104019165,
                -0.14019976556301117,
                0.43132489919662476
            ],
            [
                -0.7532656788825989,
                0.7092578411102295,
                3.0720698833465576,
                7.6427154541015625,
                -4.651387691497803,
                -0.8731797933578491,
                0.33518511056900024,
                -0.8745005130767822,
                -0.8180428147315979,
                -1.5120911598205566,
                -0.2284339815378189,
                0.32201555371284485,
                0.019402647390961647,
                0.4191589951515198,
                0.014013048261404037,
                0.9295247793197632,
                -0.14159399271011353,
                -0.4161122739315033,
                -1.0842342376708984,
                -2.057651996612549,
                0.2889857590198517,
                -0.19782117009162903,
                0.47278836369514465,
                -0.6064648628234863,
                -4.414249420166016,
                -3.6303765773773193,
                1.6633719205856323,
                -1.223936915397644,
                -0.07950610667467117,
                5.048352241516113,
                4.50294303894043,
                2.0125913619995117,
                2.3067681789398193,
                -3.4662375450134277,
                -1.2203367948532104,
                -2.090078830718994,
                -1.5030138492584229,
                -0.21928489208221436,
                0.3194758892059326
            ]
        ],
        "tmit": [
            [
                0.735470712184906,
                0.8672986030578613,
                0.8568698167800903,
                0.8906189203262329,
                0.9130688309669495,
                0.7814745306968689,
                0.8857206106185913,
                0.5798338651657104,
                0.8570147156715393,
                1.3436000347137451,
                0.8123407363891602,
                1.3153551816940308,
                1.7808514833450317,
                0.870306670665741,
                0.9351169466972351,
                0.8659994006156921,
                0.670652449131012,
                0.863551139831543,
                0.7132153511047363,
                0.533233106136322,
                0.49308761954307556,
                0.5029944777488708,
                0.4408596158027649,
                0.4146287739276886,
                0.09552512317895889,
                0.23497119545936584,
                0.2682455778121948,
                0.27484917640686035,
                0.2622004449367523,
                0.21233341097831726,
                0.23833252489566803,
                0.7911535501480103,
                0.4404895603656769,
                0.2702395021915436,
                0.14754396677017212,
                0.10121659934520721,
                0.215586856007576,
                0.20251068472862244,
                0.22804710268974304
            ],
            [
                0.7181081771850586,
                0.8506936430931091,
                0.8403133153915405,
                0.8734942078590393,
                0.8978895545005798,
                0.7676961421966553,
                0.8705286383628845,
                0.5713022947311401,
                0.8428328037261963,
                1.330333948135376,
                0.8027337193489075,
                1.3089977502822876,
                1.7664605379104614,
                0.85799640417099,
                0.9223038554191589,
                0.8477943539619446,
                0.6651783585548401,
                0.8504173159599304,
                0.7036235928535461,
                0.5272008180618286,
                0.4887712895870209,
                0.498232364654541,
                0.43341588973999023,
                0.40636542439460754,
                0.0931769460439682,
                0.2302202433347702,
                0.26521536707878113,
                0.2664244771003723,
                0.2586137652397156,
                0.20388035476207733,
                0.22844022512435913,
                0.7577544450759888,
                0.3663010597229004,
                0.2653964161872864,
                0.14429204165935516,
                0.09844371676445007,
                0.21173405647277832,
                0.19693678617477417,
                0.22270596027374268
            ],
            [
                0.7941306233406067,
                0.9325417876243591,
                0.9201907515525818,
                0.9573215246200562,
                0.9791930317878723,
                0.8364035487174988,
                0.9466667175292969,
                0.6097598671913147,
                0.9084353446960449,
                1.4060176610946655,
                0.8610306978225708,
                1.3778564929962158,
                1.8468255996704102,
                0.9300228357315063,
                0.9907619953155518,
                0.9381844997406006,
                0.7108805179595947,
                0.9217551350593567,
                0.7577360272407532,
                0.5635496377944946,
                0.5269609093666077,
                0.5384781956672668,
                0.4741039276123047,
                0.4473402202129364,
                0.10169995576143265,
                0.25023922324180603,
                0.29248738288879395,
                0.2920459508895874,
                0.2828693389892578,
                0.2270812839269638,
                0.25626233220100403,
                0.8574129343032837,
                0.4110378324985504,
                0.29355400800704956,
                0.15916559100151062,
                0.10784551501274109,
                0.2316313087940216,
                0.21572290360927582,
                0.24474667012691498
            ]
        ]
    },
    "icts": {
        "names": [
            "gun:GUNcharge",
            "l0:L0charge",
            "linacbt:LNEcharge",
            "linacbt:BTMcharge",
            "ext:EXTcharge",
            "linacbt:BTEcharge",
            "BIM:DR:nparticles",
            "BIM:IP:nparticles"
        ],
        "charge": [
            0.53714135629,
            0.5868242574999999,
            0.4159858333333333,
            0.38073500000000005,
            0.3419255695858333,
            0.32867368055555557,
            0.3300166726112366,
            0.30979710817337036
        ]
    },
    "hcorrectors_names": [
        "ZH1L",
        "ZH2L",
        "ZH3L",
        "ZH4L",
        "ZH5L",
        "ZH6L",
        "ZH7L",
        "ZH8L",
        "ZH9L",
        "ZH10L",
        "ZH11L",
        "ZH12L",
        "ZH30T",
        "ZH40T",
        "ZH50T"
    ],
    "vcorrectors_names": [
        "ZV1L",
        "ZV2L",
        "ZV3L",
        "ZV4L",
        "ZV5L",
        "ZV6L",
        "ZV7L",
        "ZV8L",
        "ZV9L",
        "ZV10L",
        "ZV11L",
        "ZV12L",
        "ZV13L",
        "ZV30T",
        "ZV40T",
        "ZV50T",
        "ZV51T"
    ],
    "timestamp": "2024/05/24, 15:06:55"
}