{
    "sequence": [
        "MB5L",
        "MB6L",
        "MB7L",
        "ZH1L",
        "ZV1L",
        "MB8L",
        "MB9L",
        "MB10L",
        "ZV2L",
        "ZH2L",
        "MB11L",
        "ML1L",
        "ML2L",
        "ZV3L",
        "ZH3L",
        "ML3L",
        "ZH4L",
        "ZV4L",
        "ZH5L",
        "ZV5L",
        "ML4L",
        "ZH6L",
        "ZV6L",
        "ML5L",
        "ZH7L",
        "ZV7L",
        "ML6L",
        "ZH8L",
        "ZV8L",
        "ML7L",
        "ZH9L",
        "ML8L",
        "ZV9L",
        "ML9L",
        "ZH10L",
        "ML10L",
        "ZV10L",
        "ML11L",
        "ZH11L",
        "ML12L",
        "ZV11L",
        "ML13L",
        "ZH12L",
        "ML14L",
        "ZV12L",
        "ML15L",
        "ZX10T",
        "ZX11T",
        "ML1T",
        "ZV13L",
        "ZX12T",
        "ML2T",
        "ZY20T",
        "ZY21T",
        "ML101T",
        "ML102T",
        "ZY22T",
        "ZY23T",
        "ML103T",
        "ZX30T",
        "ML3T",
        "ZX31T",
        "ZV30T",
        "ZH30T",
        "ML104T",
        "ZX32T",
        "ML4T",
        "ML105T",
        "ZV40T",
        "ZH40T",
        "ML5T",
        "ML6T",
        "ZX50T",
        "ML106T",
        "ZX50T",
        "ML7T",
        "ZX51T",
        "ZV50T",
        "ML8T",
        "ZH50T",
        "ZV51T",
        "ML9T",
        "MB10T",
        "MB11T"
    ],
    "correctors": {
        "names": [
            "ZH1L",
            "ZV1L",
            "ZV2L",
            "ZH2L",
            "ZV3L",
            "ZH3L",
            "ZH4L",
            "ZV4L",
            "ZH5L",
            "ZV5L",
            "ZH6L",
            "ZV6L",
            "ZH7L",
            "ZV7L",
            "ZH8L",
            "ZV8L",
            "ZH9L",
            "ZV9L",
            "ZH10L",
            "ZV10L",
            "ZH11L",
            "ZV11L",
            "ZH12L",
            "ZV12L",
            "ZX10T",
            "ZX11T",
            "ZV13L",
            "ZX12T",
            "ZY20T",
            "ZY21T",
            "ZY22T",
            "ZY23T",
            "ZX30T",
            "ZX31T",
            "ZV30T",
            "ZH30T",
            "ZX32T",
            "ZV40T",
            "ZH40T",
            "ZX50T",
            "ZX50T",
            "ZX51T",
            "ZV50T",
            "ZH50T",
            "ZV51T"
        ],
        "bdes": [
            1.6058,
            0.32324,
            -3.694e-05,
            0.05,
            -0.018255,
            -0.0023425,
            -0.7437363341678739,
            -0.51377,
            0.0067611,
            0.025597,
            -0.089344,
            -0.23399,
            -0.34279,
            0.0008922,
            0.095066,
            -0.1336,
            -0.39271,
            -0.072191,
            -0.21644,
            -0.41065,
            0.09808,
            0.37969,
            0.043499,
            -1.4308,
            -0.5,
            0.81,
            -0.69,
            0.9,
            0.34,
            -0.25,
            -1.26,
            -1.47,
            0.0,
            0.0,
            0.09,
            -1.79,
            2.05,
            -1.5,
            -2.1085,
            1.29,
            1.29,
            -1.7,
            0.38,
            1.35,
            0.08
        ],
        "bact": [
            1.6047874689102173,
            0.3224230408668518,
            -0.00488519761711359,
            0.04885197803378105,
            -0.02198338881134987,
            -0.00488519761711359,
            -0.7474352717399597,
            -0.5178309679031372,
            0.00488519761711359,
            0.024425989016890526,
            -0.09281875938177109,
            -0.23693208396434784,
            -0.3468490242958069,
            0.0,
            0.09281875938177109,
            -0.13678553700447083,
            -0.39570102095603943,
            -0.07572057098150253,
            -0.21983389556407928,
            -0.4152418076992035,
            0.0977039560675621,
            0.3786028325557709,
            0.04152418300509453,
            -1.4338055849075317,
            -0.5080605745315552,
            0.8036150336265564,
            -0.6985832452774048,
            0.898876428604126,
            0.33463606238365173,
            -0.2589154839515686,
            -1.2677088975906372,
            -1.4802148342132568,
            0.0,
            0.0,
            0.08304836601018906,
            -1.797752857208252,
            2.044455051422119,
            -1.5095261335372925,
            -2.1128480434417725,
            1.2848069667816162,
            1.2848069667816162,
            -1.7073765993118286,
            0.37371763586997986,
            1.343429446220398,
            0.07572057098150253
        ]
    },
    "bpms": {
        "names": [
            "MB5L",
            "MB6L",
            "MB7L",
            "MB8L",
            "MB9L",
            "MB10L",
            "MB11L",
            "ML1L",
            "ML2L",
            "ML3L",
            "ML4L",
            "ML5L",
            "ML6L",
            "ML7L",
            "ML8L",
            "ML9L",
            "ML10L",
            "ML11L",
            "ML12L",
            "ML13L",
            "ML14L",
            "ML15L",
            "ML1T",
            "ML2T",
            "ML101T",
            "ML102T",
            "ML103T",
            "ML3T",
            "ML104T",
            "ML4T",
            "ML105T",
            "ML5T",
            "ML6T",
            "ML106T",
            "ML7T",
            "ML8T",
            "ML9T",
            "MB10T",
            "MB11T"
        ],
        "x": [
            [
                -1.2053302526474,
                0.6248646974563599,
                0.08525487780570984,
                -7.943733215332031,
                1.4009982347488403,
                1.1485261917114258,
                0.013061470352113247,
                -2.4123997688293457,
                -0.882761538028717,
                0.37046781182289124,
                -0.6084691882133484,
                -0.4270043969154358,
                0.7799946665763855,
                -1.5926616191864014,
                -0.4556543231010437,
                -7.156287670135498,
                -4.726655006408691,
                -0.4086269736289978,
                0.46156254410743713,
                0.8007761836051941,
                1.8226957321166992,
                0.6389331817626953,
                -6.3774237632751465,
                2.5805282592773438,
                -2.6642844676971436,
                1.1170557737350464,
                1.420985460281372,
                0.30316317081451416,
                1.61006498336792,
                -2.3803586959838867,
                -6.584768772125244,
                -2.749647378921509,
                1.0770375728607178,
                -4.288135528564453,
                -0.9353992938995361,
                -2.749361038208008,
                -3.008481740951538,
                2.1946897506713867,
                -3.574796676635742
            ],
            [
                -1.1439673900604248,
                0.6557039618492126,
                0.08461778610944748,
                -7.983145236968994,
                1.4068858623504639,
                1.115120530128479,
                -0.02311253547668457,
                -2.463067054748535,
                -0.8572434186935425,
                0.37592145800590515,
                -0.5629285573959351,
                -0.4216403663158417,
                0.8067628741264343,
                -1.7050083875656128,
                -0.4478892385959625,
                -7.194189071655273,
                -4.848270893096924,
                -0.42094576358795166,
                0.5875182151794434,
                0.8971307873725891,
                1.9552541971206665,
                0.7218600511550903,
                -6.360665321350098,
                2.557070255279541,
                -2.656151294708252,
                1.1709805727005005,
                1.4190210103988647,
                0.25759339332580566,
                1.7287904024124146,
                -2.238635301589966,
                -6.4948554039001465,
                -2.832387685775757,
                -0.26535677909851074,
                -4.327144622802734,
                -0.9817766547203064,
                -2.819035291671753,
                -3.097977638244629,
                2.2699196338653564,
                -3.5447170734405518
            ],
            [
                -1.1462256908416748,
                0.7242625951766968,
                0.1502595692873001,
                -7.9682440757751465,
                1.487345814704895,
                1.1638625860214233,
                0.006737775169312954,
                -2.39864182472229,
                -0.9139786958694458,
                0.29177701473236084,
                -0.5711686015129089,
                -0.5326370596885681,
                0.7954343557357788,
                -1.7624938488006592,
                -0.5623332262039185,
                -7.250186920166016,
                -4.98322868347168,
                -0.39744287729263306,
                0.6918187737464905,
                0.9311142563819885,
                2.102261781692505,
                0.8741050958633423,
                -6.399352550506592,
                2.216853618621826,
                -2.674614667892456,
                1.2312359809875488,
                1.4735835790634155,
                0.11977614462375641,
                1.6189326047897339,
                -2.602369785308838,
                -6.622376441955566,
                -2.787353038787842,
                1.7589865922927856,
                -4.535316467285156,
                -1.1827200651168823,
                -2.9277329444885254,
                -3.219406843185425,
                2.348452091217041,
                -3.6532416343688965
            ]
        ],
        "y": [
            [
                -0.7791928648948669,
                0.6569376587867737,
                3.008711576461792,
                7.592011451721191,
                -4.7252373695373535,
                -0.8437131643295288,
                0.34971919655799866,
                -0.8896428942680359,
                -0.8212447166442871,
                -1.5234856605529785,
                -0.25791826844215393,
                0.2763685882091522,
                -0.05539508908987045,
                -1.368762493133545,
                -0.8278844952583313,
                0.38541972637176514,
                0.2592040002346039,
                1.4203524589538574,
                0.4425497055053711,
                -0.6490131616592407,
                0.6786725521087646,
                -0.15381594002246857,
                -0.7086917161941528,
                -1.4727044105529785,
                -4.839135646820068,
                -3.6540799140930176,
                1.8370044231414795,
                -1.4131863117218018,
                -0.045116156339645386,
                4.909548759460449,
                3.750664710998535,
                1.752794623374939,
                2.8319411277770996,
                -3.984208345413208,
                -1.582486629486084,
                -2.507490873336792,
                -1.7884330749511719,
                -0.004037939943373203,
                0.8342434167861938
            ],
            [
                -0.7471402883529663,
                0.6175574064254761,
                2.9673962593078613,
                7.582633972167969,
                -4.767229080200195,
                -0.8503298759460449,
                0.3694179356098175,
                -0.8406278491020203,
                -0.7497639656066895,
                -1.5027214288711548,
                -0.1923026442527771,
                0.33141154050827026,
                -0.03394513949751854,
                -1.4435347318649292,
                -0.8959003686904907,
                0.3232592046260834,
                0.18311326205730438,
                1.422087550163269,
                0.43203121423721313,
                -0.6659274697303772,
                0.7040905356407166,
                -0.10644782334566116,
                -0.7418711185455322,
                -1.4639582633972168,
                -4.917923450469971,
                -3.6672251224517822,
                1.826151967048645,
                -1.5073513984680176,
                -0.025322964414954185,
                5.117837429046631,
                4.237475872039795,
                1.9569841623306274,
                1.6883368492126465,
                -4.034106731414795,
                -1.582574725151062,
                -2.547327995300293,
                -1.8024135828018188,
                0.00998081173747778,
                0.8567084074020386
            ],
            [
                -0.7322365641593933,
                0.7264055013656616,
                3.1104655265808105,
                7.668978691101074,
                -4.6794891357421875,
                -0.8611109852790833,
                0.3302505910396576,
                -0.9016314148902893,
                -0.824155330657959,
                -1.5413001775741577,
                -0.2133403867483139,
                0.2862839698791504,
                -0.051080357283353806,
                -1.3889163732528687,
                -0.8575789928436279,
                0.36509066820144653,
                0.3257158398628235,
                1.416222095489502,
                0.4358704686164856,
                -0.6652103662490845,
                0.694306492805481,
                -0.17819096148014069,
                -0.7315953373908997,
                -1.4923278093338013,
                -4.928512096405029,
                -3.684302806854248,
                1.801426649093628,
                -1.4706350564956665,
                -0.05232563242316246,
                4.747440338134766,
                4.097355842590332,
                1.7481263875961304,
                3.5269131660461426,
                -3.8630948066711426,
                -1.3453937768936157,
                -2.5314042568206787,
                -1.8206217288970947,
                0.06538685411214828,
                0.920236349105835
            ]
        ],
        "tmit": [
            [
                0.7788636684417725,
                0.9185371398925781,
                0.906812310218811,
                0.9414718151092529,
                0.9657056927680969,
                0.8245677947998047,
                0.9331343173980713,
                0.6032979488372803,
                0.8980415463447571,
                1.391700029373169,
                0.8516360521316528,
                1.3759558200836182,
                1.830249309539795,
                0.9156674146652222,
                0.9820912480354309,
                0.9527908563613892,
                0.6748283505439758,
                0.9055852890014648,
                0.7625651359558105,
                0.5530780553817749,
                0.5228227376937866,
                0.5311000347137451,
                0.45473769307136536,
                0.44238221645355225,
                0.10096070915460587,
                0.23732636868953705,
                0.2747100591659546,
                0.27649936079978943,
                0.2676716148853302,
                0.20424006879329681,
                0.25049182772636414,
                0.9899317622184753,
                0.353625625371933,
                0.2925403118133545,
                0.15650008618831635,
                0.1015198826789856,
                0.2213396430015564,
                0.20359450578689575,
                0.23392914235591888
            ],
            [
                0.7402024865150452,
                0.8700063228607178,
                0.8626241087913513,
                0.8953766822814941,
                0.9184616208076477,
                0.7855851054191589,
                0.8894348740577698,
                0.5805198550224304,
                0.8610860109329224,
                1.3492101430892944,
                0.8164187669754028,
                1.3273591995239258,
                1.7834502458572388,
                0.8703063726425171,
                0.9396647214889526,
                0.9043146371841431,
                0.6482980847358704,
                0.8637182116508484,
                0.730501651763916,
                0.5346413254737854,
                0.5009090900421143,
                0.5068461894989014,
                0.430072546005249,
                0.4192448556423187,
                0.09565557539463043,
                0.2248195856809616,
                0.2576397955417633,
                0.2603447735309601,
                0.24998144805431366,
                0.18679440021514893,
                0.2356533706188202,
                0.9236723780632019,
                0.3871782422065735,
                0.2764905095100403,
                0.14786383509635925,
                0.09584414213895798,
                0.20777572691440582,
                0.1932724565267563,
                0.21966351568698883
            ],
            [
                0.7454565763473511,
                0.8791922926902771,
                0.8695995211601257,
                0.9037448167800903,
                0.9272994995117188,
                0.7929359674453735,
                0.8966328501701355,
                0.5851891040802002,
                0.8680883049964905,
                1.3596221208572388,
                0.8242382407188416,
                1.3251935243606567,
                1.7934787273406982,
                0.8780263662338257,
                0.9481468796730042,
                0.9148989319801331,
                0.6465117335319519,
                0.8693012595176697,
                0.7362518310546875,
                0.5377119779586792,
                0.5053319334983826,
                0.5116367340087891,
                0.4319019317626953,
                0.41662338376045227,
                0.08974165469408035,
                0.20890186727046967,
                0.23905442655086517,
                0.2398475855588913,
                0.2315009981393814,
                0.17636297643184662,
                0.22864630818367004,
                0.8929667472839355,
                0.26899856328964233,
                0.2784615457057953,
                0.1480770707130432,
                0.08986512571573257,
                0.19236460328102112,
                0.17954415082931519,
                0.20451895892620087
            ]
        ]
    },
    "icts": {
        "names": [
            "gun:GUNcharge",
            "l0:L0charge",
            "linacbt:LNEcharge",
            "linacbt:BTMcharge",
            "ext:EXTcharge",
            "linacbt:BTEcharge",
            "BIM:DR:nparticles",
            "BIM:IP:nparticles"
        ],
        "charge": [
            0.55629200071,
            0.5755971325000001,
            0.40872354166666663,
            0.35365250000000004,
            0.1277494082608333,
            0.3067038888888889,
            0.11008758842945099,
            0.0928054079413414
        ]
    },
    "hcorrectors_names": [
        "ZH1L",
        "ZH2L",
        "ZH3L",
        "ZH4L",
        "ZH5L",
        "ZH6L",
        "ZH7L",
        "ZH8L",
        "ZH9L",
        "ZH10L",
        "ZH11L",
        "ZH12L",
        "ZH30T",
        "ZH40T",
        "ZH50T"
    ],
    "vcorrectors_names": [
        "ZV1L",
        "ZV2L",
        "ZV3L",
        "ZV4L",
        "ZV5L",
        "ZV6L",
        "ZV7L",
        "ZV8L",
        "ZV9L",
        "ZV10L",
        "ZV11L",
        "ZV12L",
        "ZV13L",
        "ZV30T",
        "ZV40T",
        "ZV50T",
        "ZV51T"
    ],
    "timestamp": "2024/05/24, 15:05:51"
}