{
    "sequence": [
        "MB5L",
        "MB6L",
        "MB7L",
        "ZH1L",
        "ZV1L",
        "MB8L",
        "MB9L",
        "MB10L",
        "ZV2L",
        "ZH2L",
        "MB11L",
        "ML1L",
        "ML2L",
        "ZV3L",
        "ZH3L",
        "ML3L",
        "ZH4L",
        "ZV4L",
        "ZH5L",
        "ZV5L",
        "ML4L",
        "ZH6L",
        "ZV6L",
        "ML5L",
        "ZH7L",
        "ZV7L",
        "ML6L",
        "ZH8L",
        "ZV8L",
        "ML7L",
        "ZH9L",
        "ML8L",
        "ZV9L",
        "ML9L",
        "ZH10L",
        "ML10L",
        "ZV10L",
        "ML11L",
        "ZH11L",
        "ML12L",
        "ZV11L",
        "ML13L",
        "ZH12L",
        "ML14L",
        "ZV12L",
        "ML15L",
        "ZX10T",
        "ZX11T",
        "ML1T",
        "ZV13L",
        "ZX12T",
        "ML2T",
        "ZY20T",
        "ZY21T",
        "ML101T",
        "ML102T",
        "ZY22T",
        "ZY23T",
        "ML103T",
        "ZX30T",
        "ML3T",
        "ZX31T",
        "ZV30T",
        "ZH30T",
        "ML104T",
        "ZX32T",
        "ML4T",
        "ML105T",
        "ZV40T",
        "ZH40T",
        "ML5T",
        "ML6T",
        "ZX50T",
        "ML106T",
        "ZX50T",
        "ML7T",
        "ZX51T",
        "ZV50T",
        "ML8T",
        "ZH50T",
        "ZV51T",
        "ML9T",
        "MB10T",
        "MB11T"
    ],
    "correctors": {
        "names": [
            "ZH1L",
            "ZV1L",
            "ZV2L",
            "ZH2L",
            "ZV3L",
            "ZH3L",
            "ZH4L",
            "ZV4L",
            "ZH5L",
            "ZV5L",
            "ZH6L",
            "ZV6L",
            "ZH7L",
            "ZV7L",
            "ZH8L",
            "ZV8L",
            "ZH9L",
            "ZV9L",
            "ZH10L",
            "ZV10L",
            "ZH11L",
            "ZV11L",
            "ZH12L",
            "ZV12L",
            "ZX10T",
            "ZX11T",
            "ZV13L",
            "ZX12T",
            "ZY20T",
            "ZY21T",
            "ZY22T",
            "ZY23T",
            "ZX30T",
            "ZX31T",
            "ZV30T",
            "ZH30T",
            "ZX32T",
            "ZV40T",
            "ZH40T",
            "ZX50T",
            "ZX50T",
            "ZX51T",
            "ZV50T",
            "ZH50T",
            "ZV51T"
        ],
        "bdes": [
            1.6058,
            0.32324,
            -3.694e-05,
            0.05,
            -0.018255,
            -0.0023425,
            -0.5205036658321262,
            -0.51377,
            0.0067611,
            0.025597,
            -0.089344,
            -0.23399,
            -0.34279,
            0.0008922,
            0.095066,
            -0.1336,
            -0.39271,
            -0.072191,
            -0.21644,
            -0.41065,
            0.09808,
            0.37969,
            0.043499,
            -1.4308,
            -0.5,
            0.81,
            -0.69,
            0.9,
            0.34,
            -0.25,
            -1.26,
            -1.47,
            0.0,
            0.0,
            0.09,
            -1.79,
            2.05,
            -1.5,
            -2.1085,
            1.29,
            1.29,
            -1.7,
            0.38,
            1.35,
            0.08
        ],
        "bact": [
            1.6047874689102173,
            0.3224230408668518,
            -0.00488519761711359,
            0.04885197803378105,
            -0.02198338881134987,
            -0.00488519761711359,
            -0.5251587629318237,
            -0.5178309679031372,
            0.00488519761711359,
            0.024425989016890526,
            -0.09281875938177109,
            -0.23693208396434784,
            -0.3468490242958069,
            0.0,
            0.09281875938177109,
            -0.13678553700447083,
            -0.39570102095603943,
            -0.07572057098150253,
            -0.21983389556407928,
            -0.4152418076992035,
            0.0977039560675621,
            0.3786028325557709,
            0.04152418300509453,
            -1.4338055849075317,
            -0.5080605745315552,
            0.8036150336265564,
            -0.6985832452774048,
            0.898876428604126,
            0.33463606238365173,
            -0.2589154839515686,
            -1.2677088975906372,
            -1.4802148342132568,
            0.0,
            0.0,
            0.08304836601018906,
            -1.797752857208252,
            2.044455051422119,
            -1.5095261335372925,
            -2.1128480434417725,
            1.2848069667816162,
            1.2848069667816162,
            -1.7073765993118286,
            0.37371763586997986,
            1.343429446220398,
            0.07572057098150253
        ]
    },
    "bpms": {
        "names": [
            "MB5L",
            "MB6L",
            "MB7L",
            "MB8L",
            "MB9L",
            "MB10L",
            "MB11L",
            "ML1L",
            "ML2L",
            "ML3L",
            "ML4L",
            "ML5L",
            "ML6L",
            "ML7L",
            "ML8L",
            "ML9L",
            "ML10L",
            "ML11L",
            "ML12L",
            "ML13L",
            "ML14L",
            "ML15L",
            "ML1T",
            "ML2T",
            "ML101T",
            "ML102T",
            "ML103T",
            "ML3T",
            "ML104T",
            "ML4T",
            "ML105T",
            "ML5T",
            "ML6T",
            "ML106T",
            "ML7T",
            "ML8T",
            "ML9T",
            "MB10T",
            "MB11T"
        ],
        "x": [
            [
                -1.1477235555648804,
                0.6074656844139099,
                0.10381504893302917,
                -8.00739860534668,
                1.4491599798202515,
                1.1423203945159912,
                0.014702131040394306,
                -2.438260555267334,
                -0.8610129952430725,
                0.36606335639953613,
                0.12320995330810547,
                -0.6270573735237122,
                0.3658005893230438,
                -0.8167440295219421,
                1.2728248834609985,
                -5.471581935882568,
                -0.9491298794746399,
                -1.1626473665237427,
                -2.8371880054473877,
                -1.3678488731384277,
                -2.810914993286133,
                -2.6847593784332275,
                -6.486928939819336,
                2.364154577255249,
                -4.167172908782959,
                0.6591286659240723,
                0.39472687244415283,
                0.5456395745277405,
                0.032019127160310745,
                -3.301657199859619,
                -5.4112725257873535,
                -2.1832194328308105,
                1.8069361448287964,
                -3.873488426208496,
                0.42106375098228455,
                -0.5126333832740784,
                -1.889387607574463,
                1.034110426902771,
                -2.5607099533081055
            ],
            [
                -1.1366703510284424,
                0.5988193154335022,
                0.16144506633281708,
                -7.9086713790893555,
                1.4944745302200317,
                1.1888333559036255,
                0.06242414563894272,
                -2.3499350547790527,
                -0.9560585618019104,
                0.22643093764781952,
                0.11723735183477402,
                -0.5858331322669983,
                0.34323298931121826,
                -0.8322266936302185,
                1.1957635879516602,
                -5.463336944580078,
                -0.8582099676132202,
                -1.1464200019836426,
                -2.752065896987915,
                -1.3675422668457031,
                -2.82267689704895,
                -2.6004087924957275,
                -6.459629058837891,
                2.346731185913086,
                -4.261267185211182,
                0.6608175039291382,
                0.41174620389938354,
                0.597464919090271,
                0.033309534192085266,
                -3.352372884750366,
                -5.347423553466797,
                -2.191117763519287,
                1.4539364576339722,
                -3.813741445541382,
                0.41237199306488037,
                -0.48635050654411316,
                -1.8902753591537476,
                1.0720319747924805,
                -2.5457823276519775
            ],
            [
                -1.146854281425476,
                0.7298460006713867,
                0.10912983864545822,
                -7.984137058258057,
                1.4022451639175415,
                1.1315643787384033,
                0.013814709149301052,
                -2.4126195907592773,
                -0.8750116229057312,
                0.360687255859375,
                0.12281181663274765,
                -0.4835878312587738,
                0.3498974144458771,
                -0.678221583366394,
                1.2886552810668945,
                -5.431519031524658,
                -0.7331849932670593,
                -1.1268694400787354,
                -2.911045789718628,
                -1.449041724205017,
                -2.983102798461914,
                -2.7176969051361084,
                -6.497262954711914,
                2.347107410430908,
                -4.263745307922363,
                0.6468247771263123,
                0.3063454329967499,
                0.5989636778831482,
                -0.05038314685225487,
                -3.400092840194702,
                -5.3822431564331055,
                -2.1048052310943604,
                1.740768551826477,
                -3.7970376014709473,
                0.4176066815853119,
                -0.3898271322250366,
                -1.8323699235916138,
                0.9530797004699707,
                -2.4477133750915527
            ]
        ],
        "y": [
            [
                -0.7637438178062439,
                0.7918332815170288,
                3.033066987991333,
                7.6303863525390625,
                -4.764524936676025,
                -0.8761497735977173,
                0.3125004768371582,
                -0.8669919967651367,
                -0.7594625949859619,
                -1.4877169132232666,
                -0.10752459615468979,
                0.35308289527893066,
                -0.027462918311357498,
                -1.3962898254394531,
                -0.8800069689750671,
                0.1865944266319275,
                0.23784366250038147,
                1.402754545211792,
                0.3201262950897217,
                -0.7680246829986572,
                0.6383666396141052,
                -0.1204608604311943,
                -0.6610636115074158,
                -1.454183578491211,
                -4.866559028625488,
                -3.6724143028259277,
                1.7762391567230225,
                -1.38639497756958,
                0.07111795246601105,
                4.984106063842773,
                4.127101421356201,
                1.791513204574585,
                1.7724074125289917,
                -4.003873348236084,
                -1.6880879402160645,
                -2.5510847568511963,
                -1.7758060693740845,
                0.08139199018478394,
                0.7374481558799744
            ],
            [
                -0.7344340682029724,
                0.6851575374603271,
                3.110996961593628,
                7.663106918334961,
                -4.699600696563721,
                -0.8707658052444458,
                0.30950963497161865,
                -0.8925357460975647,
                -0.8171209096908569,
                -1.5186492204666138,
                -0.18593961000442505,
                0.30507388710975647,
                -0.039254896342754364,
                -1.3654253482818604,
                -0.8548375368118286,
                0.19581589102745056,
                0.06103125959634781,
                1.392738938331604,
                0.35942092537879944,
                -0.7101437449455261,
                0.6688917875289917,
                -0.13509057462215424,
                -0.6542797684669495,
                -1.4557769298553467,
                -4.809823989868164,
                -3.687380075454712,
                1.8300387859344482,
                -1.4014796018600464,
                0.047351934015750885,
                4.908775329589844,
                4.082379341125488,
                1.8894672393798828,
                1.186042308807373,
                -3.981480360031128,
                -1.6376627683639526,
                -2.518702983856201,
                -1.8106920719146729,
                0.0025065229274332523,
                0.6653286218643188
            ],
            [
                -0.7809296250343323,
                0.7139322757720947,
                3.064265727996826,
                7.638786315917969,
                -4.6949462890625,
                -0.8822603821754456,
                0.35357558727264404,
                -0.8830221891403198,
                -0.809195339679718,
                -1.514272928237915,
                -0.20638740062713623,
                0.3002720773220062,
                -0.03661728277802467,
                -1.357573390007019,
                -0.8466418385505676,
                0.21713805198669434,
                0.13514244556427002,
                1.3917949199676514,
                0.38976815342903137,
                -0.7234935760498047,
                0.6552245020866394,
                -0.09641589224338531,
                -0.6582103371620178,
                -1.4481593370437622,
                -4.815983772277832,
                -3.680706262588501,
                1.8192495107650757,
                -1.448648452758789,
                0.053505174815654755,
                5.197257041931152,
                3.757963180541992,
                1.9404401779174805,
                1.6893904209136963,
                -3.9668352603912354,
                -1.6103934049606323,
                -2.539890766143799,
                -1.8038856983184814,
                0.08346755802631378,
                0.6696596741676331
            ]
        ],
        "tmit": [
            [
                0.7269853949546814,
                0.8635951280593872,
                0.8523643612861633,
                0.8863468170166016,
                0.9082866311073303,
                0.778465211391449,
                0.8815872073173523,
                0.5765901207923889,
                0.8543070554733276,
                1.3412383794784546,
                0.8107967972755432,
                1.3054593801498413,
                1.7750024795532227,
                0.86697918176651,
                0.9293642640113831,
                0.8321295380592346,
                0.6929948329925537,
                0.8509033918380737,
                0.6912792921066284,
                0.5253798961639404,
                0.4960840344429016,
                0.4987857937812805,
                0.43997645378112793,
                0.41195034980773926,
                0.09556861221790314,
                0.2331439107656479,
                0.26693248748779297,
                0.2708539366722107,
                0.2588569223880768,
                0.2033407986164093,
                0.2119530439376831,
                0.6360095143318176,
                0.41662994027137756,
                0.26973268389701843,
                0.14578473567962646,
                0.10013344883918762,
                0.21009795367717743,
                0.19704000651836395,
                0.2216241955757141
            ],
            [
                0.766665518283844,
                0.9035456776618958,
                0.8926413655281067,
                0.9265540242195129,
                0.9511938095092773,
                0.8129775524139404,
                0.9194859862327576,
                0.5970847010612488,
                0.8866115212440491,
                1.3791691064834595,
                0.8412468433380127,
                1.3447638750076294,
                1.8166987895965576,
                0.9054550528526306,
                0.9601402878761292,
                0.8717148900032043,
                0.7256627082824707,
                0.884662389755249,
                0.7177699208259583,
                0.5395329594612122,
                0.5152968764305115,
                0.5176316499710083,
                0.46117207407951355,
                0.4322952628135681,
                0.09956920892000198,
                0.24329552054405212,
                0.28157857060432434,
                0.28448978066444397,
                0.27107590436935425,
                0.21557074785232544,
                0.22328798472881317,
                0.7055010795593262,
                0.4822438657283783,
                0.2830793857574463,
                0.1526617556810379,
                0.10537592321634293,
                0.2201785296201706,
                0.2062782198190689,
                0.2329825907945633
            ],
            [
                0.7699956297874451,
                0.9065194129943848,
                0.8948454260826111,
                0.9299250841140747,
                0.9535126090049744,
                0.8155859708786011,
                0.9219925403594971,
                0.5979667901992798,
                0.8875417113304138,
                1.3802142143249512,
                0.8421518802642822,
                1.3620249032974243,
                1.820138931274414,
                0.9079732894897461,
                0.9664545655250549,
                0.8770070672035217,
                0.7227295637130737,
                0.8895549774169922,
                0.7163776159286499,
                0.5418312549591064,
                0.5166630744934082,
                0.5203166604042053,
                0.46312761306762695,
                0.43537262082099915,
                0.10022147744894028,
                0.24556948244571686,
                0.28380075097084045,
                0.2849240303039551,
                0.2750273048877716,
                0.21611030399799347,
                0.22493669390678406,
                0.7184298038482666,
                0.430423766374588,
                0.28420570492744446,
                0.15404781699180603,
                0.10593915730714798,
                0.22255352139472961,
                0.20731042325496674,
                0.23595741391181946
            ]
        ]
    },
    "icts": {
        "names": [
            "gun:GUNcharge",
            "l0:L0charge",
            "linacbt:LNEcharge",
            "linacbt:BTMcharge",
            "ext:EXTcharge",
            "linacbt:BTEcharge",
            "BIM:DR:nparticles",
            "BIM:IP:nparticles"
        ],
        "charge": [
            0.5266455599100001,
            0.58092076375,
            0.41279812499999996,
            0.36218000000000006,
            0.318045066185,
            0.31025736111111113,
            0.29482799768447876,
            0.2927694022655487
        ]
    },
    "hcorrectors_names": [
        "ZH1L",
        "ZH2L",
        "ZH3L",
        "ZH4L",
        "ZH5L",
        "ZH6L",
        "ZH7L",
        "ZH8L",
        "ZH9L",
        "ZH10L",
        "ZH11L",
        "ZH12L",
        "ZH30T",
        "ZH40T",
        "ZH50T"
    ],
    "vcorrectors_names": [
        "ZV1L",
        "ZV2L",
        "ZV3L",
        "ZV4L",
        "ZV5L",
        "ZV6L",
        "ZV7L",
        "ZV8L",
        "ZV9L",
        "ZV10L",
        "ZV11L",
        "ZV12L",
        "ZV13L",
        "ZV30T",
        "ZV40T",
        "ZV50T",
        "ZV51T"
    ],
    "timestamp": "2024/05/24, 15:05:47"
}