{
    "sequence": [
        "MB5L",
        "MB6L",
        "MB7L",
        "ZH1L",
        "ZV1L",
        "MB8L",
        "MB9L",
        "MB10L",
        "ZV2L",
        "ZH2L",
        "MB11L",
        "ML1L",
        "ML2L",
        "ZV3L",
        "ZH3L",
        "ML3L",
        "ZH4L",
        "ZV4L",
        "ZH5L",
        "ZV5L",
        "ML4L",
        "ZH6L",
        "ZV6L",
        "ML5L",
        "ZH7L",
        "ZV7L",
        "ML6L",
        "ZH8L",
        "ZV8L",
        "ML7L",
        "ZH9L",
        "ML8L",
        "ZV9L",
        "ML9L",
        "ZH10L",
        "ML10L",
        "ZV10L",
        "ML11L",
        "ZH11L",
        "ML12L",
        "ZV11L",
        "ML13L",
        "ZH12L",
        "ML14L",
        "ZV12L",
        "ML15L",
        "ZX10T",
        "ZX11T",
        "ML1T",
        "ZV13L",
        "ZX12T",
        "ML2T",
        "ZY20T",
        "ZY21T",
        "ML101T",
        "ML102T",
        "ZY22T",
        "ZY23T",
        "ML103T",
        "ZX30T",
        "ML3T",
        "ZX31T",
        "ZV30T",
        "ZH30T",
        "ML104T",
        "ZX32T",
        "ML4T",
        "ML105T",
        "ZV40T",
        "ZH40T",
        "ML5T",
        "ML6T",
        "ZX50T",
        "ML106T",
        "ZX50T",
        "ML7T",
        "ZX51T",
        "ZV50T",
        "ML8T",
        "ZH50T",
        "ZV51T",
        "ML9T",
        "MB10T",
        "MB11T"
    ],
    "correctors": {
        "names": [
            "ZH1L",
            "ZV1L",
            "ZV2L",
            "ZH2L",
            "ZV3L",
            "ZH3L",
            "ZH4L",
            "ZV4L",
            "ZH5L",
            "ZV5L",
            "ZH6L",
            "ZV6L",
            "ZH7L",
            "ZV7L",
            "ZH8L",
            "ZV8L",
            "ZH9L",
            "ZV9L",
            "ZH10L",
            "ZV10L",
            "ZH11L",
            "ZV11L",
            "ZH12L",
            "ZV12L",
            "ZX10T",
            "ZX11T",
            "ZV13L",
            "ZX12T",
            "ZY20T",
            "ZY21T",
            "ZY22T",
            "ZY23T",
            "ZX30T",
            "ZX31T",
            "ZV30T",
            "ZH30T",
            "ZX32T",
            "ZV40T",
            "ZH40T",
            "ZX50T",
            "ZX50T",
            "ZX51T",
            "ZV50T",
            "ZH50T",
            "ZV51T"
        ],
        "bdes": [
            1.6058,
            0.32324,
            -3.694e-05,
            0.05,
            -0.018255,
            -0.0023425,
            -0.63212,
            -0.51377,
            0.10676110000000001,
            0.025597,
            -0.089344,
            -0.23399,
            -0.34279,
            0.0008922,
            0.095066,
            -0.1336,
            -0.39271,
            -0.072191,
            -0.21644,
            -0.41065,
            0.09808,
            0.37969,
            0.043499,
            -1.4308,
            -0.5,
            0.81,
            -0.69,
            0.9,
            0.34,
            -0.25,
            -1.26,
            -1.47,
            0.0,
            0.0,
            0.09,
            -1.79,
            2.05,
            -1.5,
            -2.1085,
            1.29,
            1.29,
            -1.7,
            0.38,
            1.35,
            0.08
        ],
        "bact": [
            1.6047874689102173,
            0.3224230408668518,
            -0.00488519761711359,
            0.04885197803378105,
            -0.02198338881134987,
            -0.00488519761711359,
            -0.6350756883621216,
            -0.5178309679031372,
            0.10503175109624863,
            0.02198338881134987,
            -0.0977039560675621,
            -0.23937468230724335,
            -0.3492916226387024,
            0.0,
            0.08793355524539948,
            -0.14167073369026184,
            -0.40058618783950806,
            -0.08304836601018906,
            -0.2247191071510315,
            -0.4201270043849945,
            0.09281875938177109,
            0.37371763586997986,
            0.036638982594013214,
            -1.4435759782791138,
            -0.5080605745315552,
            0.8036150336265564,
            -0.6985832452774048,
            0.898876428604126,
            0.33463606238365173,
            -0.2589154839515686,
            -1.2677088975906372,
            -1.4802148342132568,
            0.0,
            0.0,
            0.08304836601018906,
            -1.797752857208252,
            2.044455051422119,
            -1.5095261335372925,
            -2.1177332401275635,
            1.2848069667816162,
            1.2848069667816162,
            -1.7073765993118286,
            0.37371763586997986,
            1.343429446220398,
            0.07572057098150253
        ]
    },
    "bpms": {
        "names": [
            "MB5L",
            "MB6L",
            "MB7L",
            "MB8L",
            "MB9L",
            "MB10L",
            "MB11L",
            "ML1L",
            "ML2L",
            "ML3L",
            "ML4L",
            "ML5L",
            "ML6L",
            "ML7L",
            "ML8L",
            "ML9L",
            "ML10L",
            "ML11L",
            "ML12L",
            "ML13L",
            "ML14L",
            "ML15L",
            "ML1T",
            "ML2T",
            "ML101T",
            "ML102T",
            "ML103T",
            "ML3T",
            "ML104T",
            "ML4T",
            "ML105T",
            "ML5T",
            "ML6T",
            "ML106T",
            "ML7T",
            "ML8T",
            "ML9T",
            "MB10T",
            "MB11T"
        ],
        "x": [
            [
                -1.1271229982376099,
                0.7071273922920227,
                0.14779172837734222,
                -7.905596733093262,
                1.4641493558883667,
                1.1530596017837524,
                -0.004519360605627298,
                -2.3894526958465576,
                -0.9365074634552002,
                0.3072933852672577,
                -0.1299591362476349,
                -0.27992329001426697,
                0.43328797817230225,
                -1.443105936050415,
                0.30101481080055237,
                -6.282462120056152,
                -2.623997688293457,
                -0.7110930681228638,
                -1.1151649951934814,
                -0.3840031623840332,
                -0.6201897859573364,
                -1.1102691888809204,
                -6.35169792175293,
                2.5125348567962646,
                -3.2839739322662354,
                0.8986120820045471,
                1.0450283288955688,
                0.3889937996864319,
                0.9908772706985474,
                -2.4242539405822754,
                -5.914209365844727,
                -2.422529697418213,
                1.6134047508239746,
                -3.9184329509735107,
                -0.08542513847351074,
                -1.442767858505249,
                -2.2650485038757324,
                1.640861988067627,
                -2.8683667182922363
            ],
            [
                -1.1672297716140747,
                0.6971656680107117,
                0.09014126658439636,
                -7.963099479675293,
                1.4226553440093994,
                1.1390035152435303,
                0.009040094912052155,
                -2.447479724884033,
                -0.8886321187019348,
                0.2990891933441162,
                -0.12728732824325562,
                -0.13979029655456543,
                0.4509921073913574,
                -1.5484285354614258,
                0.3135446310043335,
                -6.417474269866943,
                -2.878833532333374,
                -0.7560625076293945,
                -1.0547575950622559,
                -0.22620421648025513,
                -0.3721695840358734,
                -1.0291953086853027,
                -6.3642578125,
                2.5798983573913574,
                -3.284374475479126,
                0.8928123116493225,
                1.0044505596160889,
                0.5260287523269653,
                1.147057056427002,
                -1.9819926023483276,
                -5.732372283935547,
                -2.5328211784362793,
                1.6224726438522339,
                -4.008909702301025,
                -0.0680871233344078,
                -1.5020146369934082,
                -2.271515130996704,
                1.663046956062317,
                -2.9536917209625244
            ],
            [
                -1.1848641633987427,
                0.7103492617607117,
                0.16958577930927277,
                -7.9323883056640625,
                1.4762935638427734,
                1.1475675106048584,
                0.011532978154718876,
                -2.4196617603302,
                -0.9457200765609741,
                0.2948136329650879,
                -0.13742318749427795,
                -0.07718084752559662,
                0.43668434023857117,
                -1.505723476409912,
                0.2548169195652008,
                -6.393062114715576,
                -2.7599856853485107,
                -0.7070159316062927,
                -1.0681027173995972,
                -0.2954882085323334,
                -0.47420167922973633,
                -1.035685420036316,
                -6.352227687835693,
                2.486976146697998,
                -3.3396265506744385,
                0.9109220504760742,
                0.9451165199279785,
                0.40309879183769226,
                1.0546153783798218,
                -2.3435606956481934,
                -5.736313343048096,
                -2.5142741203308105,
                1.4019635915756226,
                -4.018912315368652,
                -0.12938694655895233,
                -1.4869004487991333,
                -2.3425862789154053,
                1.700297474861145,
                -2.9320950508117676
            ]
        ],
        "y": [
            [
                -0.7436554431915283,
                0.6467407941818237,
                3.0044538974761963,
                7.576298713684082,
                -4.75937032699585,
                -0.8561980128288269,
                0.387530118227005,
                -0.8571085333824158,
                -0.7989099621772766,
                -1.5270357131958008,
                -0.26478293538093567,
                0.2626093626022339,
                -0.06786953657865524,
                -1.4021917581558228,
                -0.8630111217498779,
                0.20109283924102783,
                0.2618085741996765,
                1.2424061298370361,
                0.24634213745594025,
                -0.7656305432319641,
                0.633107602596283,
                -0.16303910315036774,
                -0.5926082730293274,
                -1.3615124225616455,
                -4.759396553039551,
                -3.6825599670410156,
                1.7304211854934692,
                -1.3770861625671387,
                -0.0016826281789690256,
                5.296226978302002,
                4.329085350036621,
                1.927391767501831,
                2.0578219890594482,
                -4.059606075286865,
                -1.706081748008728,
                -2.4397244453430176,
                -1.7060678005218506,
                -0.0036615857388824224,
                0.632236123085022
            ],
            [
                -0.7603849768638611,
                0.7386347055435181,
                2.996835470199585,
                7.590883255004883,
                -4.73637056350708,
                -0.8447018265724182,
                0.3741414546966553,
                -0.8739215731620789,
                -0.7503281831741333,
                -1.525446891784668,
                -0.18348239362239838,
                0.27878108620643616,
                -0.06016615405678749,
                -1.4405790567398071,
                -0.9259632229804993,
                0.2593388259410858,
                0.2163669615983963,
                1.2448242902755737,
                0.24003145098686218,
                -0.8331426978111267,
                0.6721204519271851,
                -0.15970095992088318,
                -0.5707834362983704,
                -1.3784806728363037,
                -4.759767055511475,
                -3.713575839996338,
                1.782824993133545,
                -1.391798734664917,
                0.04939061030745506,
                5.010725975036621,
                4.244898319244385,
                1.949355959892273,
                2.1471898555755615,
                -4.113403797149658,
                -1.7663580179214478,
                -2.4919750690460205,
                -1.7416404485702515,
                -0.03709612414240837,
                0.5749576687812805
            ],
            [
                -0.7846014499664307,
                0.5633012652397156,
                3.0079915523529053,
                7.5626020431518555,
                -4.729328632354736,
                -0.8358355760574341,
                0.365840882062912,
                -0.8500635623931885,
                -0.7834125757217407,
                -1.508599042892456,
                -0.19389261305332184,
                0.3109009861946106,
                -0.04514192044734955,
                -1.4104063510894775,
                -0.8829684853553772,
                0.19463524222373962,
                0.30768850445747375,
                1.2132136821746826,
                0.2733114957809448,
                -0.7863671779632568,
                0.6199621558189392,
                -0.15791268646717072,
                -0.5848810076713562,
                -1.3722282648086548,
                -4.799363136291504,
                -3.64717960357666,
                1.7974251508712769,
                -1.3845738172531128,
                0.022560594603419304,
                5.004237174987793,
                3.768678665161133,
                1.9653476476669312,
                2.234313726425171,
                -4.0314717292785645,
                -1.7130565643310547,
                -2.4297282695770264,
                -1.7128897905349731,
                0.008920895867049694,
                0.5789310336112976
            ]
        ],
        "tmit": [
            [
                0.7834838032722473,
                0.9251415729522705,
                0.9087218046188354,
                0.9427408576011658,
                0.9689151644706726,
                0.826538622379303,
                0.9363431334495544,
                0.6043505072593689,
                0.8986993432044983,
                1.394739031791687,
                0.8527683019638062,
                1.3688054084777832,
                1.8375948667526245,
                0.9142445921897888,
                0.9813821315765381,
                0.9218845963478088,
                0.7029279470443726,
                0.9044196009635925,
                0.7491763234138489,
                0.5529188513755798,
                0.5183416604995728,
                0.5309703946113586,
                0.45909038186073303,
                0.44392091035842896,
                0.1039176806807518,
                0.25040164589881897,
                0.29289141297340393,
                0.2930881977081299,
                0.2831732928752899,
                0.21736927330493927,
                0.23482900857925415,
                0.824552595615387,
                0.4367614984512329,
                0.2909635007381439,
                0.15650008618831635,
                0.10754222422838211,
                0.23015353083610535,
                0.2146390825510025,
                0.24339447915554047
            ],
            [
                0.7378524541854858,
                0.8704869151115417,
                0.8595103025436401,
                0.8931859135627747,
                0.916918158531189,
                0.7850546836853027,
                0.8885141015052795,
                0.5796099305152893,
                0.8592383861541748,
                1.3467156887054443,
                0.8159207105636597,
                1.3303078413009644,
                1.7870794534683228,
                0.8694362640380859,
                0.9366713762283325,
                0.86578768491745,
                0.6714975237846375,
                0.859100341796875,
                0.7168660759925842,
                0.5318154096603394,
                0.4937545955181122,
                0.5052250623703003,
                0.43240657448768616,
                0.4179341495037079,
                0.09796027094125748,
                0.23371239006519318,
                0.2683466076850891,
                0.27137506008148193,
                0.2619572579860687,
                0.19902433454990387,
                0.2160748392343521,
                0.7459031939506531,
                0.3968711793422699,
                0.2744068503379822,
                0.1481837034225464,
                0.10082666575908661,
                0.21363407373428345,
                0.20013661682605743,
                0.22372008860111237
            ],
            [
                0.7726185321807861,
                0.9119582772254944,
                0.9002863168716431,
                0.9312965869903564,
                0.9570573568344116,
                0.8179624676704407,
                0.9237686991691589,
                0.5988402366638184,
                0.8929286599159241,
                1.3850609064102173,
                0.8431117534637451,
                1.368891954421997,
                1.8229650259017944,
                0.9025456309318542,
                0.9695693850517273,
                0.9077016115188599,
                0.6936540007591248,
                0.8947603702545166,
                0.7434936165809631,
                0.5483951568603516,
                0.5131291151046753,
                0.5242426991462708,
                0.45265600085258484,
                0.43599948287010193,
                0.10174344480037689,
                0.24378280341625214,
                0.28117454051971436,
                0.2845766544342041,
                0.273568332195282,
                0.20927593111991882,
                0.23462291061878204,
                0.8003113269805908,
                0.4173755347728729,
                0.2882603704929352,
                0.15463422238826752,
                0.10507263243198395,
                0.22202573716640472,
                0.20844584703445435,
                0.23575459420681
            ]
        ]
    },
    "icts": {
        "names": [
            "gun:GUNcharge",
            "l0:L0charge",
            "linacbt:LNEcharge",
            "linacbt:BTMcharge",
            "ext:EXTcharge",
            "linacbt:BTEcharge",
            "BIM:DR:nparticles",
            "BIM:IP:nparticles"
        ],
        "charge": [
            0.527476377505,
            0.5709767387500001,
            0.4088747916666666,
            0.3587575,
            0.348740085645,
            0.30684243055555555,
            0.2965874671936035,
            0.3126499354839325
        ]
    },
    "hcorrectors_names": [
        "ZH1L",
        "ZH2L",
        "ZH3L",
        "ZH4L",
        "ZH5L",
        "ZH6L",
        "ZH7L",
        "ZH8L",
        "ZH9L",
        "ZH10L",
        "ZH11L",
        "ZH12L",
        "ZH30T",
        "ZH40T",
        "ZH50T"
    ],
    "vcorrectors_names": [
        "ZV1L",
        "ZV2L",
        "ZV3L",
        "ZV4L",
        "ZV5L",
        "ZV6L",
        "ZV7L",
        "ZV8L",
        "ZV9L",
        "ZV10L",
        "ZV11L",
        "ZV12L",
        "ZV13L",
        "ZV30T",
        "ZV40T",
        "ZV50T",
        "ZV51T"
    ],
    "timestamp": "2024/05/24, 15:02:05"
}