{
    "sequence": [
        "MB5L",
        "MB6L",
        "MB7L",
        "ZH1L",
        "ZV1L",
        "MB8L",
        "MB9L",
        "MB10L",
        "ZV2L",
        "ZH2L",
        "MB11L",
        "ML1L",
        "ML2L",
        "ZV3L",
        "ZH3L",
        "ML3L",
        "ZH4L",
        "ZV4L",
        "ZH5L",
        "ZV5L",
        "ML4L",
        "ZH6L",
        "ZV6L",
        "ML5L",
        "ZH7L",
        "ZV7L",
        "ML6L",
        "ZH8L",
        "ZV8L",
        "ML7L",
        "ZH9L",
        "ML8L",
        "ZV9L",
        "ML9L",
        "ZH10L",
        "ML10L",
        "ZV10L",
        "ML11L",
        "ZH11L",
        "ML12L",
        "ZV11L",
        "ML13L",
        "ZH12L",
        "ML14L",
        "ZV12L",
        "ML15L",
        "ZX10T",
        "ZX11T",
        "ML1T",
        "ZV13L",
        "ZX12T",
        "ML2T",
        "ZY20T",
        "ZY21T",
        "ML101T",
        "ML102T",
        "ZY22T",
        "ZY23T",
        "ML103T",
        "ZX30T",
        "ML3T",
        "ZX31T",
        "ZV30T",
        "ZH30T",
        "ML104T",
        "ZX32T",
        "ML4T",
        "ML105T",
        "ZV40T",
        "ZH40T",
        "ML5T",
        "ML6T",
        "ZX50T",
        "ML106T",
        "ZX50T",
        "ML7T",
        "ZX51T",
        "ZV50T",
        "ML8T",
        "ZH50T",
        "ZV51T",
        "ML9T",
        "MB10T",
        "MB11T"
    ],
    "correctors": {
        "names": [
            "ZH1L",
            "ZV1L",
            "ZV2L",
            "ZH2L",
            "ZV3L",
            "ZH3L",
            "ZH4L",
            "ZV4L",
            "ZH5L",
            "ZV5L",
            "ZH6L",
            "ZV6L",
            "ZH7L",
            "ZV7L",
            "ZH8L",
            "ZV8L",
            "ZH9L",
            "ZV9L",
            "ZH10L",
            "ZV10L",
            "ZH11L",
            "ZV11L",
            "ZH12L",
            "ZV12L",
            "ZX10T",
            "ZX11T",
            "ZV13L",
            "ZX12T",
            "ZY20T",
            "ZY21T",
            "ZY22T",
            "ZY23T",
            "ZX30T",
            "ZX31T",
            "ZV30T",
            "ZH30T",
            "ZX32T",
            "ZV40T",
            "ZH40T",
            "ZX50T",
            "ZX50T",
            "ZX51T",
            "ZV50T",
            "ZH50T",
            "ZV51T"
        ],
        "bdes": [
            1.6058,
            0.32324,
            -3.694e-05,
            0.05,
            -0.018255,
            -0.0023425,
            -0.63212,
            -0.51377,
            0.0067611,
            0.025597,
            -0.089344,
            -0.23399,
            -0.34279,
            0.0008922,
            0.095066,
            -0.1336,
            -0.29271,
            -0.072191,
            -0.21644,
            -0.41065,
            0.09808,
            0.37969,
            0.043499,
            -1.4308,
            -0.5,
            0.81,
            -0.69,
            0.9,
            0.34,
            -0.25,
            -1.26,
            -1.47,
            0.0,
            0.0,
            0.09,
            -1.79,
            2.05,
            -1.5,
            -2.1085,
            1.29,
            1.29,
            -1.7,
            0.38,
            1.35,
            0.08
        ],
        "bact": [
            1.6047874689102173,
            0.3224230408668518,
            -0.00488519761711359,
            0.04885197803378105,
            -0.02198338881134987,
            -0.00488519761711359,
            -0.6350756883621216,
            -0.5178309679031372,
            0.00488519761711359,
            0.024425989016890526,
            -0.09281875938177109,
            -0.23693208396434784,
            -0.3468490242958069,
            0.0,
            0.09281875938177109,
            -0.13678553700447083,
            -0.2955544590950012,
            -0.08304836601018906,
            -0.2247191071510315,
            -0.4201270043849945,
            0.09281875938177109,
            0.37371763586997986,
            0.036638982594013214,
            -1.4435759782791138,
            -0.5080605745315552,
            0.8036150336265564,
            -0.6985832452774048,
            0.898876428604126,
            0.33463606238365173,
            -0.2589154839515686,
            -1.2677088975906372,
            -1.4802148342132568,
            0.0,
            0.0,
            0.08304836601018906,
            -1.797752857208252,
            2.044455051422119,
            -1.5095261335372925,
            -2.1177332401275635,
            1.2848069667816162,
            1.2848069667816162,
            -1.7073765993118286,
            0.37371763586997986,
            1.343429446220398,
            0.07572057098150253
        ]
    },
    "bpms": {
        "names": [
            "MB5L",
            "MB6L",
            "MB7L",
            "MB8L",
            "MB9L",
            "MB10L",
            "MB11L",
            "ML1L",
            "ML2L",
            "ML3L",
            "ML4L",
            "ML5L",
            "ML6L",
            "ML7L",
            "ML8L",
            "ML9L",
            "ML10L",
            "ML11L",
            "ML12L",
            "ML13L",
            "ML14L",
            "ML15L",
            "ML1T",
            "ML2T",
            "ML101T",
            "ML102T",
            "ML103T",
            "ML3T",
            "ML104T",
            "ML4T",
            "ML105T",
            "ML5T",
            "ML6T",
            "ML106T",
            "ML7T",
            "ML8T",
            "ML9T",
            "MB10T",
            "MB11T"
        ],
        "x": [
            [
                -1.1214741468429565,
                0.7515754103660583,
                0.09281471371650696,
                -7.990604877471924,
                1.4343430995941162,
                1.1603518724441528,
                -0.020220192149281502,
                -2.439659357070923,
                -0.8701379299163818,
                0.3405134677886963,
                -0.20792457461357117,
                -0.5514779090881348,
                0.575316846370697,
                -1.2914562225341797,
                0.4807026982307434,
                -5.671786785125732,
                -1.0107512474060059,
                -0.8380976319313049,
                -2.2519640922546387,
                -1.0136198997497559,
                -2.104156017303467,
                -2.2044198513031006,
                -6.345324993133545,
                1.8316367864608765,
                -3.918506383895874,
                1.0500448942184448,
                0.6683253049850464,
                0.2546987235546112,
                0.229851633310318,
                -3.30863618850708,
                -5.462582588195801,
                -2.180026054382324,
                2.5245935916900635,
                -4.1664958000183105,
                0.1685091108083725,
                -0.5665427446365356,
                -2.2430787086486816,
                1.769223690032959,
                -2.532133102416992
            ],
            [
                -1.1467341184616089,
                0.7494661808013916,
                0.14188306033611298,
                -7.935466766357422,
                1.4673930406570435,
                1.1769368648529053,
                0.0015185157535597682,
                -2.445720911026001,
                -0.9191376566886902,
                0.2877393364906311,
                -0.20667867362499237,
                -0.5014051795005798,
                0.5487982034683228,
                -1.275601863861084,
                0.39763376116752625,
                -5.724884986877441,
                -1.0449985265731812,
                -0.8191773295402527,
                -2.191777229309082,
                -1.0214622020721436,
                -2.0457372665405273,
                -2.120974540710449,
                -6.36301326751709,
                1.661987543106079,
                -3.98483943939209,
                1.1091957092285156,
                0.7460809350013733,
                0.19587498903274536,
                0.16363665461540222,
                -3.4341323375701904,
                -5.581661224365234,
                -2.2983455657958984,
                2.2009212970733643,
                -4.2976202964782715,
                0.07608991861343384,
                -0.5971066951751709,
                -2.283895492553711,
                1.854732871055603,
                -2.520843744277954
            ],
            [
                -1.1321415901184082,
                0.7091668248176575,
                0.11781444400548935,
                -7.95527458190918,
                1.4205375909805298,
                1.1467485427856445,
                -0.008588959462940693,
                -2.43918514251709,
                -0.9232973456382751,
                0.31461042165756226,
                -0.25589433312416077,
                -0.5832663774490356,
                0.5556368827819824,
                -1.1872214078903198,
                0.4092755913734436,
                -5.6822829246521,
                -0.9286395311355591,
                -0.8157162666320801,
                -2.2208549976348877,
                -1.0400621891021729,
                -2.177687883377075,
                -2.1711840629577637,
                -6.35940408706665,
                1.8127669095993042,
                -3.8579554557800293,
                1.0425416231155396,
                0.7287769317626953,
                0.23609140515327454,
                0.22942835092544556,
                -3.2258172035217285,
                -5.4567766189575195,
                -2.231360912322998,
                1.978537917137146,
                -4.167193412780762,
                0.20655032992362976,
                -0.5042462944984436,
                -2.177229404449463,
                1.74058997631073,
                -2.5276200771331787
            ]
        ],
        "y": [
            [
                -0.755900502204895,
                0.7199288010597229,
                3.05717134475708,
                7.628442764282227,
                -4.740237712860107,
                -0.8481581807136536,
                0.3392598628997803,
                -0.8668476343154907,
                -0.7690389156341553,
                -1.4869184494018555,
                -0.1364912986755371,
                0.3508200943470001,
                -0.018689097836613655,
                -1.4006307125091553,
                -0.8959900140762329,
                0.1627352386713028,
                0.24626055359840393,
                1.1973117589950562,
                0.1969260722398758,
                -0.8940603733062744,
                0.6581714153289795,
                -0.14259764552116394,
                -0.580539882183075,
                -1.379304051399231,
                -4.815016269683838,
                -3.6952309608459473,
                1.8748894929885864,
                -1.3555169105529785,
                0.05072217807173729,
                5.19575309753418,
                4.094396591186523,
                1.9494221210479736,
                2.397373676300049,
                -3.955252170562744,
                -1.5630155801773071,
                -2.4848828315734863,
                -1.7708171606063843,
                -0.03178756684064865,
                0.7136214375495911
            ],
            [
                -0.714101254940033,
                0.7633262276649475,
                3.082709789276123,
                7.624496936798096,
                -4.709649085998535,
                -0.847843587398529,
                0.3423631191253662,
                -0.9059584736824036,
                -0.8108980059623718,
                -1.5054681301116943,
                -0.20690180361270905,
                0.296377032995224,
                -0.034271225333213806,
                -1.356628179550171,
                -0.8703725337982178,
                0.22622735798358917,
                0.19668588042259216,
                1.2161847352981567,
                0.24594411253929138,
                -0.8455958366394043,
                0.6274120807647705,
                -0.09926681965589523,
                -0.5745666027069092,
                -1.3661824464797974,
                -4.771172523498535,
                -3.6773648262023926,
                1.78987455368042,
                -1.412990689277649,
                -0.06965840607881546,
                4.634149074554443,
                3.7604291439056396,
                1.859923005104065,
                2.461678981781006,
                -3.8580193519592285,
                -1.4207149744033813,
                -2.4778854846954346,
                -1.747004508972168,
                0.002734994515776634,
                0.6434915661811829
            ],
            [
                -0.7578485608100891,
                0.7079013586044312,
                3.0708484649658203,
                7.637135028839111,
                -4.693569183349609,
                -0.877967894077301,
                0.3297170102596283,
                -0.8954538702964783,
                -0.8632938265800476,
                -1.5384739637374878,
                -0.24912822246551514,
                0.28415271639823914,
                -0.0444503091275692,
                -1.3475500345230103,
                -0.846436083316803,
                0.23681528866291046,
                0.1960928738117218,
                1.1762703657150269,
                0.2139512449502945,
                -0.8268282413482666,
                0.6163346767425537,
                -0.14361728727817535,
                -0.5471555590629578,
                -1.3671351671218872,
                -4.733068466186523,
                -3.6643595695495605,
                1.7559900283813477,
                -1.3687182664871216,
                0.005298667121678591,
                5.0885138511657715,
                4.1498284339904785,
                1.9178696870803833,
                1.5992181301116943,
                -3.9123141765594482,
                -1.5154492855072021,
                -2.4113967418670654,
                -1.6944631338119507,
                -0.08188431710004807,
                0.7083261013031006
            ]
        ],
        "tmit": [
            [
                0.7381369471549988,
                0.8668618202209473,
                0.8576989769935608,
                0.8908007740974426,
                0.9138265252113342,
                0.7826884984970093,
                0.8847167491912842,
                0.5788688659667969,
                0.8569889664649963,
                1.3455109596252441,
                0.8127347230911255,
                1.3127936124801636,
                1.7774646282196045,
                0.8671987056732178,
                0.9334089159965515,
                0.8408086895942688,
                0.6899457573890686,
                0.8531786799430847,
                0.6993627548217773,
                0.5249170064926147,
                0.4937272071838379,
                0.5011392831802368,
                0.4327850937843323,
                0.414172887802124,
                0.09456845372915268,
                0.2281087040901184,
                0.2608720660209656,
                0.26824837923049927,
                0.2524738609790802,
                0.19884449243545532,
                0.21071650087833405,
                0.6812598705291748,
                0.3610817790031433,
                0.2731679081916809,
                0.1471174955368042,
                0.09870367497205734,
                0.20840905606746674,
                0.1944594830274582,
                0.21804088354110718
            ],
            [
                0.7525331974029541,
                0.8892989754676819,
                0.8778773546218872,
                0.9112191796302795,
                0.9361286163330078,
                0.8003016710281372,
                0.904694139957428,
                0.587539792060852,
                0.8730430603027344,
                1.3651328086853027,
                0.8296371102333069,
                1.3366416692733765,
                1.8046290874481201,
                0.8863943815231323,
                0.9523234963417053,
                0.8668461441993713,
                0.7035619020462036,
                0.8738901019096375,
                0.7154020071029663,
                0.5352321863174438,
                0.5050163269042969,
                0.5120110511779785,
                0.44622159004211426,
                0.424487829208374,
                0.09369876980781555,
                0.2268093079328537,
                0.2607710361480713,
                0.2644268572330475,
                0.2526562511920929,
                0.1970459669828415,
                0.20515206456184387,
                0.6645603179931641,
                0.36704668402671814,
                0.28138992190361023,
                0.15106244385242462,
                0.09805378317832947,
                0.20666739344596863,
                0.1937885582447052,
                0.21770283579826355
            ],
            [
                0.779347836971283,
                0.917157769203186,
                0.9055867791175842,
                0.9402527213096619,
                0.9626399874687195,
                0.8232561945915222,
                0.9306955933570862,
                0.6009225845336914,
                0.8964198231697083,
                1.39023756980896,
                0.8493232727050781,
                1.3618147373199463,
                1.8331983089447021,
                0.9115367531776428,
                0.9763045907020569,
                0.8930952548980713,
                0.7242661118507385,
                0.8996577262878418,
                0.7323710322380066,
                0.5471571683883667,
                0.5196818709373474,
                0.5269625186920166,
                0.45820721983909607,
                0.43884894251823425,
                0.09926481544971466,
                0.24073731899261475,
                0.2797604501247406,
                0.2800602912902832,
                0.2694345712661743,
                0.21305282413959503,
                0.22349406778812408,
                0.6968820095062256,
                0.434151828289032,
                0.28949931263923645,
                0.15607361495494843,
                0.10390282422304153,
                0.217856302857399,
                0.20555569231510162,
                0.23237411677837372
            ]
        ]
    },
    "icts": {
        "names": [
            "gun:GUNcharge",
            "l0:L0charge",
            "linacbt:LNEcharge",
            "linacbt:BTMcharge",
            "ext:EXTcharge",
            "linacbt:BTEcharge",
            "BIM:DR:nparticles",
            "BIM:IP:nparticles"
        ],
        "charge": [
            0.534373956675,
            0.5811243325000001,
            0.41424416666666664,
            0.35395250000000006,
            0.2961839719591666,
            0.3032525,
            0.2666770815849304,
            0.2710167467594147
        ]
    },
    "hcorrectors_names": [
        "ZH1L",
        "ZH2L",
        "ZH3L",
        "ZH4L",
        "ZH5L",
        "ZH6L",
        "ZH7L",
        "ZH8L",
        "ZH9L",
        "ZH10L",
        "ZH11L",
        "ZH12L",
        "ZH30T",
        "ZH40T",
        "ZH50T"
    ],
    "vcorrectors_names": [
        "ZV1L",
        "ZV2L",
        "ZV3L",
        "ZV4L",
        "ZV5L",
        "ZV6L",
        "ZV7L",
        "ZV8L",
        "ZV9L",
        "ZV10L",
        "ZV11L",
        "ZV12L",
        "ZV13L",
        "ZV30T",
        "ZV40T",
        "ZV50T",
        "ZV51T"
    ],
    "timestamp": "2024/05/24, 15:03:22"
}