{
    "sequence": [
        "MB5L",
        "MB6L",
        "MB7L",
        "ZH1L",
        "ZV1L",
        "MB8L",
        "MB9L",
        "MB10L",
        "ZV2L",
        "ZH2L",
        "MB11L",
        "ML1L",
        "ML2L",
        "ZV3L",
        "ZH3L",
        "ML3L",
        "ZH4L",
        "ZV4L",
        "ZH5L",
        "ZV5L",
        "ML4L",
        "ZH6L",
        "ZV6L",
        "ML5L",
        "ZH7L",
        "ZV7L",
        "ML6L",
        "ZH8L",
        "ZV8L",
        "ML7L",
        "ZH9L",
        "ML8L",
        "ZV9L",
        "ML9L",
        "ZH10L",
        "ML10L",
        "ZV10L",
        "ML11L",
        "ZH11L",
        "ML12L",
        "ZV11L",
        "ML13L",
        "ZH12L",
        "ML14L",
        "ZV12L",
        "ML15L",
        "ZX10T",
        "ZX11T",
        "ML1T",
        "ZV13L",
        "ZX12T",
        "ML2T",
        "ZY20T",
        "ZY21T",
        "ML101T",
        "ML102T",
        "ZY22T",
        "ZY23T",
        "ML103T",
        "ZX30T",
        "ML3T",
        "ZX31T",
        "ZV30T",
        "ZH30T",
        "ML104T",
        "ZX32T",
        "ML4T",
        "ML105T",
        "ZV40T",
        "ZH40T",
        "ML5T",
        "ML6T",
        "ZX50T",
        "ML106T",
        "ZX50T",
        "ML7T",
        "ZX51T",
        "ZV50T",
        "ML8T",
        "ZH50T",
        "ZV51T",
        "ML9T",
        "MB10T",
        "MB11T"
    ],
    "correctors": {
        "names": [
            "ZH1L",
            "ZV1L",
            "ZV2L",
            "ZH2L",
            "ZV3L",
            "ZH3L",
            "ZH4L",
            "ZV4L",
            "ZH5L",
            "ZV5L",
            "ZH6L",
            "ZV6L",
            "ZH7L",
            "ZV7L",
            "ZH8L",
            "ZV8L",
            "ZH9L",
            "ZV9L",
            "ZH10L",
            "ZV10L",
            "ZH11L",
            "ZV11L",
            "ZH12L",
            "ZV12L",
            "ZX10T",
            "ZX11T",
            "ZV13L",
            "ZX12T",
            "ZY20T",
            "ZY21T",
            "ZY22T",
            "ZY23T",
            "ZX30T",
            "ZX31T",
            "ZV30T",
            "ZH30T",
            "ZX32T",
            "ZV40T",
            "ZH40T",
            "ZX50T",
            "ZX50T",
            "ZX51T",
            "ZV50T",
            "ZH50T",
            "ZV51T"
        ],
        "bdes": [
            1.6058,
            0.32324,
            0.09996306,
            0.05,
            -0.018255,
            -0.0023425,
            -0.63212,
            -0.51377,
            0.0067611,
            0.025597,
            -0.089344,
            -0.23399,
            -0.34279,
            0.0008922,
            0.095066,
            -0.1336,
            -0.39271,
            -0.072191,
            -0.21644,
            -0.41065,
            0.09808,
            0.37969,
            0.043499,
            -1.4308,
            -0.5,
            0.81,
            -0.69,
            0.9,
            0.34,
            -0.25,
            -1.26,
            -1.47,
            0.0,
            0.0,
            0.09,
            -1.79,
            2.05,
            -1.5,
            -2.1085,
            1.29,
            1.29,
            -1.7,
            0.38,
            1.35,
            0.08
        ],
        "bact": [
            1.6047874689102173,
            0.3224230408668518,
            0.0977039560675621,
            0.046409379690885544,
            -0.024425989016890526,
            -0.007327795960009098,
            -0.6375182867050171,
            -0.5202735662460327,
            0.002442598808556795,
            0.02198338881134987,
            -0.0977039560675621,
            -0.23937468230724335,
            -0.3492916226387024,
            0.0,
            0.08793355524539948,
            -0.14167073369026184,
            -0.40058618783950806,
            -0.08304836601018906,
            -0.2247191071510315,
            -0.4201270043849945,
            0.09281875938177109,
            0.37371763586997986,
            0.036638982594013214,
            -1.4435759782791138,
            -0.5080605745315552,
            0.8036150336265564,
            -0.6985832452774048,
            0.898876428604126,
            0.33463606238365173,
            -0.2589154839515686,
            -1.2677088975906372,
            -1.4802148342132568,
            0.0,
            0.0,
            0.08304836601018906,
            -1.797752857208252,
            2.044455051422119,
            -1.5095261335372925,
            -2.1177332401275635,
            1.2848069667816162,
            1.2848069667816162,
            -1.7073765993118286,
            0.37371763586997986,
            1.343429446220398,
            0.07572057098150253
        ]
    },
    "bpms": {
        "names": [
            "MB5L",
            "MB6L",
            "MB7L",
            "MB8L",
            "MB9L",
            "MB10L",
            "MB11L",
            "ML1L",
            "ML2L",
            "ML3L",
            "ML4L",
            "ML5L",
            "ML6L",
            "ML7L",
            "ML8L",
            "ML9L",
            "ML10L",
            "ML11L",
            "ML12L",
            "ML13L",
            "ML14L",
            "ML15L",
            "ML1T",
            "ML2T",
            "ML101T",
            "ML102T",
            "ML103T",
            "ML3T",
            "ML104T",
            "ML4T",
            "ML105T",
            "ML5T",
            "ML6T",
            "ML106T",
            "ML7T",
            "ML8T",
            "ML9T",
            "MB10T",
            "MB11T"
        ],
        "x": [
            [
                -1.1296895742416382,
                0.6116406321525574,
                0.09898412972688675,
                -7.937274932861328,
                1.4227643013000488,
                1.1521766185760498,
                0.01367770042270422,
                -2.3583321571350098,
                -0.9369028806686401,
                0.28505927324295044,
                -0.21802383661270142,
                -0.505820631980896,
                0.555719256401062,
                -1.2051489353179932,
                0.3384118676185608,
                -6.505467414855957,
                -3.1132144927978516,
                -0.7900077104568481,
                -0.9619647860527039,
                -0.23219498991966248,
                -0.2794044613838196,
                -0.8928859829902649,
                -6.412097930908203,
                2.2213761806488037,
                -3.418489933013916,
                0.9881798028945923,
                0.9726054668426514,
                0.24717655777931213,
                0.7311434745788574,
                -3.1402645111083984,
                -6.1484503746032715,
                -2.520641803741455,
                1.2886477708816528,
                -4.233534812927246,
                -0.3723587393760681,
                -1.7157447338104248,
                -2.6166882514953613,
                1.8207175731658936,
                -3.032576560974121
            ],
            [
                -1.126240611076355,
                0.6372048258781433,
                0.08196831494569778,
                -7.949216365814209,
                1.4533134698867798,
                1.185851812362671,
                0.0304707158356905,
                -2.3710720539093018,
                -0.9404579997062683,
                0.27236858010292053,
                -0.2459128051996231,
                -0.5407226085662842,
                0.5577902793884277,
                -1.230927586555481,
                0.35464099049568176,
                -6.514441013336182,
                -3.1453185081481934,
                -0.7377058267593384,
                -0.8975368142127991,
                -0.18650133907794952,
                -0.19707633554935455,
                -0.8147374391555786,
                -6.386990547180176,
                2.2574753761291504,
                -3.4422881603240967,
                1.0043691396713257,
                1.0267291069030762,
                0.27907079458236694,
                0.7144705057144165,
                -3.231715679168701,
                -6.2738037109375,
                -2.6133370399475098,
                1.4242842197418213,
                -4.226478576660156,
                -0.43267565965652466,
                -1.7451753616333008,
                -2.7110042572021484,
                1.9126654863357544,
                -3.0906331539154053
            ],
            [
                -1.184385895729065,
                0.6011744141578674,
                0.0997522622346878,
                -7.9811177253723145,
                1.42180335521698,
                1.1629563570022583,
                0.012415528297424316,
                -2.4081931114196777,
                -0.909795343875885,
                0.2862204909324646,
                -0.2199162095785141,
                -0.45679622888565063,
                0.5804810523986816,
                -1.2623696327209473,
                0.36223915219306946,
                -6.524049758911133,
                -3.1822421550750732,
                -0.7539451718330383,
                -0.9685075283050537,
                -0.21644280850887299,
                -0.23818010091781616,
                -0.8355500102043152,
                -6.422645568847656,
                2.2579357624053955,
                -3.4353814125061035,
                1.008787989616394,
                1.0084642171859741,
                0.2620735466480255,
                0.8063845038414001,
                -3.3712337017059326,
                -6.295157432556152,
                -2.5955922603607178,
                1.936152458190918,
                -4.248132705688477,
                -0.41037991642951965,
                -1.7295944690704346,
                -2.685575485229492,
                1.8733906745910645,
                -3.043342351913452
            ]
        ],
        "y": [
            [
                -0.7456316947937012,
                0.7759609818458557,
                3.1374974250793457,
                7.698373317718506,
                -4.638727188110352,
                -0.8741423487663269,
                0.30670708417892456,
                -0.7297175526618958,
                -0.05640125274658203,
                -1.0057508945465088,
                1.077260971069336,
                1.2033241987228394,
                0.39407968521118164,
                -1.134730577468872,
                -1.1699541807174683,
                -0.7868759036064148,
                -0.29954174160957336,
                0.16631433367729187,
                -0.3135799169540405,
                -1.300269603729248,
                0.5873221158981323,
                -0.0448196679353714,
                -0.41385743021965027,
                -1.3419491052627563,
                -5.46921968460083,
                -4.219292163848877,
                2.4472570419311523,
                -1.764884352684021,
                0.9893245697021484,
                5.279425144195557,
                4.285137176513672,
                1.9692548513412476,
                1.7562075853347778,
                -4.0942182540893555,
                -1.9114385843276978,
                -3.110901355743408,
                -2.57637357711792,
                0.24261465668678284,
                -0.0813080221414566
            ],
            [
                -0.7132750153541565,
                0.6951677799224854,
                3.0697720050811768,
                7.596921443939209,
                -4.700023651123047,
                -0.832271933555603,
                0.3187916874885559,
                -0.6529126763343811,
                0.025119539350271225,
                -0.9932674169540405,
                1.138135552406311,
                1.2087479829788208,
                0.37726029753685,
                -1.2188739776611328,
                -1.2128312587738037,
                -0.8344038724899292,
                -0.30129414796829224,
                0.19327735900878906,
                -0.32006096839904785,
                -1.2964088916778564,
                0.5772783756256104,
                -0.015765823423862457,
                -0.4009341895580292,
                -1.361497163772583,
                -5.463066101074219,
                -4.211052894592285,
                2.4640419483184814,
                -1.7777276039123535,
                0.9232218861579895,
                4.958820343017578,
                4.353789329528809,
                1.9323686361312866,
                1.6628934144973755,
                -4.062911510467529,
                -1.939500093460083,
                -3.1020147800445557,
                -2.525150775909424,
                0.2996484041213989,
                -0.014797748997807503
            ],
            [
                -0.7760915160179138,
                0.6394466757774353,
                3.056692361831665,
                7.608283519744873,
                -4.742818355560303,
                -0.8480554223060608,
                0.34159737825393677,
                -0.6552911400794983,
                0.028999073430895805,
                -0.991399884223938,
                1.1046168804168701,
                1.2134820222854614,
                0.3834300935268402,
                -1.2238270044326782,
                -1.2235537767410278,
                -0.7875593900680542,
                -0.21596358716487885,
                0.22747069597244263,
                -0.3304888904094696,
                -1.2923641204833984,
                0.6154990196228027,
                -0.006192263215780258,
                -0.4483594298362732,
                -1.3591609001159668,
                -5.4459686279296875,
                -4.198418140411377,
                2.437095880508423,
                -1.7359791994094849,
                0.906747043132782,
                5.263856410980225,
                4.154207706451416,
                1.9645335674285889,
                2.2874598503112793,
                -4.094297409057617,
                -1.9396978616714478,
                -3.1071066856384277,
                -2.5367379188537598,
                0.17950329184532166,
                -0.13152751326560974
            ]
        ],
        "tmit": [
            [
                0.7805677652359009,
                0.9227251410484314,
                0.9079575538635254,
                0.9432041049003601,
                0.9656232595443726,
                0.8263434171676636,
                0.934913694858551,
                0.6040039658546448,
                0.9008292555809021,
                1.3937554359436035,
                0.8441091179847717,
                1.3503227233886719,
                1.8276159763336182,
                0.9069544672966003,
                0.9695805907249451,
                0.9157457947731018,
                0.6895414590835571,
                0.9007030129432678,
                0.7446707487106323,
                0.5493803024291992,
                0.5107775330543518,
                0.5246446132659912,
                0.45991045236587524,
                0.43770915269851685,
                0.10761387646198273,
                0.24353915452957153,
                0.2765282094478607,
                0.27953919768333435,
                0.26347705721855164,
                0.21593044698238373,
                0.24059952795505524,
                0.8347877860069275,
                0.38643258810043335,
                0.2901187837123871,
                0.15543387830257416,
                0.10728227347135544,
                0.2184368520975113,
                0.205091193318367,
                0.22994017601013184
            ],
            [
                0.7703714370727539,
                0.9103230834007263,
                0.8984475135803223,
                0.9333405494689941,
                0.9560694694519043,
                0.8182157874107361,
                0.9247569441795349,
                0.5992425680160522,
                0.8915687203407288,
                1.383969783782959,
                0.8374829292297363,
                1.334638237953186,
                1.8192307949066162,
                0.8944816589355469,
                0.9578976035118103,
                0.9119354486465454,
                0.6832165718078613,
                0.8879451155662537,
                0.7365385890007019,
                0.5434923768043518,
                0.5059938430786133,
                0.5185375213623047,
                0.4542961120605469,
                0.4324662387371063,
                0.10752691328525543,
                0.24317368865013123,
                0.2770332396030426,
                0.2787575125694275,
                0.26438888907432556,
                0.2170095592737198,
                0.24142387509346008,
                0.7976179122924805,
                0.39910802245140076,
                0.2872467041015625,
                0.15335477888584137,
                0.1067623570561409,
                0.21880629658699036,
                0.20607179403305054,
                0.22973735630512238
            ],
            [
                0.7526625990867615,
                0.8901456594467163,
                0.8773757219314575,
                0.9131826758384705,
                0.9370504021644592,
                0.8002882599830627,
                0.9062974452972412,
                0.5899538993835449,
                0.876166820526123,
                1.3649216890335083,
                0.8225502371788025,
                1.3227273225784302,
                1.7967125177383423,
                0.8787254691123962,
                0.93918776512146,
                0.8848395347595215,
                0.6672168374061584,
                0.8675053715705872,
                0.7210587859153748,
                0.534346878528595,
                0.4960632026195526,
                0.5062955021858215,
                0.44369828701019287,
                0.4216383695602417,
                0.10417858511209488,
                0.2359863519668579,
                0.26713448762893677,
                0.269551157951355,
                0.2537504732608795,
                0.20657813549041748,
                0.23276810348033905,
                0.7755314111709595,
                0.325665146112442,
                0.2804325819015503,
                0.14935652911663055,
                0.1037728562951088,
                0.2122618556022644,
                0.19750449061393738,
                0.2235848754644394
            ]
        ]
    },
    "icts": {
        "names": [
            "gun:GUNcharge",
            "l0:L0charge",
            "linacbt:LNEcharge",
            "linacbt:BTMcharge",
            "ext:EXTcharge",
            "linacbt:BTEcharge",
            "BIM:DR:nparticles",
            "BIM:IP:nparticles"
        ],
        "charge": [
            0.523316312425,
            0.5662761512500001,
            0.40239625,
            0.35434750000000004,
            0.3104584230883333,
            0.3009264583333333,
            0.2842714488506317,
            0.28430014848709106
        ]
    },
    "hcorrectors_names": [
        "ZH1L",
        "ZH2L",
        "ZH3L",
        "ZH4L",
        "ZH5L",
        "ZH6L",
        "ZH7L",
        "ZH8L",
        "ZH9L",
        "ZH10L",
        "ZH11L",
        "ZH12L",
        "ZH30T",
        "ZH40T",
        "ZH50T"
    ],
    "vcorrectors_names": [
        "ZV1L",
        "ZV2L",
        "ZV3L",
        "ZV4L",
        "ZV5L",
        "ZV6L",
        "ZV7L",
        "ZV8L",
        "ZV9L",
        "ZV10L",
        "ZV11L",
        "ZV12L",
        "ZV13L",
        "ZV30T",
        "ZV40T",
        "ZV50T",
        "ZV51T"
    ],
    "timestamp": "2024/05/24, 15:01:07"
}