{
    "sequence": [
        "MB5L",
        "MB6L",
        "MB7L",
        "ZH1L",
        "ZV1L",
        "MB8L",
        "MB9L",
        "MB10L",
        "ZV2L",
        "ZH2L",
        "MB11L",
        "ML1L",
        "ML2L",
        "ZV3L",
        "ZH3L",
        "ML3L",
        "ZH4L",
        "ZV4L",
        "ZH5L",
        "ZV5L",
        "ML4L",
        "ZH6L",
        "ZV6L",
        "ML5L",
        "ZH7L",
        "ZV7L",
        "ML6L",
        "ZH8L",
        "ZV8L",
        "ML7L",
        "ZH9L",
        "ML8L",
        "ZV9L",
        "ML9L",
        "ZH10L",
        "ML10L",
        "ZV10L",
        "ML11L",
        "ZH11L",
        "ML12L",
        "ZV11L",
        "ML13L",
        "ZH12L",
        "ML14L",
        "ZV12L",
        "ML15L",
        "ZX10T",
        "ZX11T",
        "ML1T",
        "ZV13L",
        "ZX12T",
        "ML2T",
        "ZY20T",
        "ZY21T",
        "ML101T",
        "ML102T",
        "ZY22T",
        "ZY23T",
        "ML103T",
        "ZX30T",
        "ML3T",
        "ZX31T",
        "ZV30T",
        "ZH30T",
        "ML104T",
        "ZX32T",
        "ML4T",
        "ML105T",
        "ZV40T",
        "ZH40T",
        "ML5T",
        "ML6T",
        "ZX50T",
        "ML106T",
        "ZX50T",
        "ML7T",
        "ZX51T",
        "ZV50T",
        "ML8T",
        "ZH50T",
        "ZV51T",
        "ML9T",
        "MB10T",
        "MB11T"
    ],
    "correctors": {
        "names": [
            "ZH1L",
            "ZV1L",
            "ZV2L",
            "ZH2L",
            "ZV3L",
            "ZH3L",
            "ZH4L",
            "ZV4L",
            "ZH5L",
            "ZV5L",
            "ZH6L",
            "ZV6L",
            "ZH7L",
            "ZV7L",
            "ZH8L",
            "ZV8L",
            "ZH9L",
            "ZV9L",
            "ZH10L",
            "ZV10L",
            "ZH11L",
            "ZV11L",
            "ZH12L",
            "ZV12L",
            "ZX10T",
            "ZX11T",
            "ZV13L",
            "ZX12T",
            "ZY20T",
            "ZY21T",
            "ZY22T",
            "ZY23T",
            "ZX30T",
            "ZX31T",
            "ZV30T",
            "ZH30T",
            "ZX32T",
            "ZV40T",
            "ZH40T",
            "ZX50T",
            "ZX50T",
            "ZX51T",
            "ZV50T",
            "ZH50T",
            "ZV51T"
        ],
        "bdes": [
            1.6058,
            0.22324000000000002,
            -3.694e-05,
            0.05,
            -0.018255,
            -0.0023425,
            -0.63212,
            -0.51377,
            0.0067611,
            0.025597,
            -0.089344,
            -0.23399,
            -0.34279,
            0.0008922,
            0.095066,
            -0.1336,
            -0.39271,
            -0.072191,
            -0.21644,
            -0.41065,
            0.09808,
            0.37969,
            0.043499,
            -1.4308,
            -0.5,
            0.81,
            -0.69,
            0.9,
            0.34,
            -0.25,
            -1.26,
            -1.47,
            0.0,
            0.0,
            0.09,
            -1.79,
            2.05,
            -1.5,
            -2.1085,
            1.29,
            1.29,
            -1.7,
            0.38,
            1.35,
            0.08
        ],
        "bact": [
            1.6047874689102173,
            0.2222764939069748,
            -0.007327795960009098,
            0.046409379690885544,
            -0.024425989016890526,
            -0.007327795960009098,
            -0.6375182867050171,
            -0.5202735662460327,
            0.002442598808556795,
            0.02198338881134987,
            -0.0977039560675621,
            -0.23937468230724335,
            -0.3492916226387024,
            0.0,
            0.08793355524539948,
            -0.14167073369026184,
            -0.40058618783950806,
            -0.08304836601018906,
            -0.2247191071510315,
            -0.4201270043849945,
            0.09281875938177109,
            0.37371763586997986,
            0.036638982594013214,
            -1.4435759782791138,
            -0.5080605745315552,
            0.8036150336265564,
            -0.6985832452774048,
            0.898876428604126,
            0.33463606238365173,
            -0.2589154839515686,
            -1.2677088975906372,
            -1.4802148342132568,
            0.0,
            0.0,
            0.08304836601018906,
            -1.797752857208252,
            2.044455051422119,
            -1.5095261335372925,
            -2.1177332401275635,
            1.2848069667816162,
            1.2848069667816162,
            -1.7073765993118286,
            0.37371763586997986,
            1.343429446220398,
            0.07572057098150253
        ]
    },
    "bpms": {
        "names": [
            "MB5L",
            "MB6L",
            "MB7L",
            "MB8L",
            "MB9L",
            "MB10L",
            "MB11L",
            "ML1L",
            "ML2L",
            "ML3L",
            "ML4L",
            "ML5L",
            "ML6L",
            "ML7L",
            "ML8L",
            "ML9L",
            "ML10L",
            "ML11L",
            "ML12L",
            "ML13L",
            "ML14L",
            "ML15L",
            "ML1T",
            "ML2T",
            "ML101T",
            "ML102T",
            "ML103T",
            "ML3T",
            "ML104T",
            "ML4T",
            "ML105T",
            "ML5T",
            "ML6T",
            "ML106T",
            "ML7T",
            "ML8T",
            "ML9T",
            "MB10T",
            "MB11T"
        ],
        "x": [
            [
                -1.106924295425415,
                0.6572633981704712,
                0.12845513224601746,
                -7.942920684814453,
                1.4482569694519043,
                1.1693521738052368,
                0.015582120977342129,
                -2.3992578983306885,
                -0.9611566662788391,
                0.2755838632583618,
                -0.21492332220077515,
                -0.5440466403961182,
                0.5574971437454224,
                -1.2417199611663818,
                0.36418694257736206,
                -6.551907062530518,
                -3.0896615982055664,
                -0.8089982867240906,
                -1.0273958444595337,
                -0.26097971200942993,
                -0.29099956154823303,
                -0.9318450689315796,
                -6.4379706382751465,
                2.0100035667419434,
                -3.6762876510620117,
                1.1402161121368408,
                0.9050970077514648,
                0.1375718116760254,
                0.31448128819465637,
                -4.266862869262695,
                -6.363481521606445,
                -2.666483163833618,
                1.7527220249176025,
                -4.402895450592041,
                -0.522209107875824,
                -1.7138333320617676,
                -2.9810235500335693,
                2.0551397800445557,
                -3.095710277557373
            ],
            [
                -1.1193851232528687,
                0.8041607141494751,
                0.14754104614257812,
                -7.951656341552734,
                1.4370239973068237,
                1.144899606704712,
                0.0023598435800522566,
                -2.4241740703582764,
                -0.9358653426170349,
                0.3159959316253662,
                -0.20733094215393066,
                -0.5963712930679321,
                0.572581946849823,
                -1.2319140434265137,
                0.44582152366638184,
                -6.50721549987793,
                -3.0864686965942383,
                -0.8209280967712402,
                -1.0752989053726196,
                -0.23202696442604065,
                -0.36588600277900696,
                -0.9490094780921936,
                -6.418428897857666,
                2.2446906566619873,
                -3.542238712310791,
                1.0888227224349976,
                0.9572558403015137,
                0.1456221342086792,
                0.37516456842422485,
                -4.043957233428955,
                -6.332586288452148,
                -2.60776424407959,
                1.8217045068740845,
                -4.238042831420898,
                -0.3975386917591095,
                -1.6572022438049316,
                -2.8301427364349365,
                1.9576261043548584,
                -3.0530033111572266
            ],
            [
                -1.146935224533081,
                0.7102856040000916,
                0.11863960325717926,
                -7.980447292327881,
                1.457631230354309,
                1.1319886445999146,
                -0.028028447180986404,
                -2.440277576446533,
                -0.8813542127609253,
                0.33577096462249756,
                -0.18330788612365723,
                -0.39437049627304077,
                0.5963994860649109,
                -1.2337286472320557,
                0.480802446603775,
                -6.470046043395996,
                -3.1855549812316895,
                -0.7755512595176697,
                -1.105800747871399,
                -0.24585522711277008,
                -0.3228815793991089,
                -0.9488222002983093,
                -6.410603046417236,
                2.294266700744629,
                -3.5383360385894775,
                1.0989042520523071,
                0.8487526178359985,
                0.17319518327713013,
                0.47723400592803955,
                -3.880784034729004,
                -6.214330673217773,
                -2.712841272354126,
                1.6214137077331543,
                -4.177055835723877,
                -0.38141217827796936,
                -1.6589115858078003,
                -2.8216073513031006,
                1.9249236583709717,
                -3.0235226154327393
            ]
        ],
        "y": [
            [
                -0.7599381804466248,
                0.6844517588615417,
                3.060262441635132,
                7.636985778808594,
                -4.863895416259766,
                -1.3357030153274536,
                -0.17966018617153168,
                -0.9088997840881348,
                0.14675383269786835,
                -0.7792785167694092,
                1.993019461631775,
                1.8040181398391724,
                0.7803534865379333,
                -0.7082679867744446,
                -1.356512188911438,
                -1.5315113067626953,
                -0.7515971660614014,
                -0.9226690530776978,
                -1.0134093761444092,
                -1.9826050996780396,
                0.4930841624736786,
                0.06842254847288132,
                -0.10103747248649597,
                -1.1614001989364624,
                -5.819314479827881,
                -4.588602542877197,
                2.936574935913086,
                -1.9425866603851318,
                1.6236385107040405,
                5.4632720947265625,
                4.750763893127441,
                1.732163429260254,
                1.8012151718139648,
                -4.0667338371276855,
                -2.1198036670684814,
                -3.5218381881713867,
                -3.177395820617676,
                0.3868567943572998,
                -0.6737058758735657
            ],
            [
                -0.7321610450744629,
                0.6752318143844604,
                3.05281925201416,
                7.630732536315918,
                -4.898990154266357,
                -1.3094041347503662,
                -0.15881453454494476,
                -0.8867944478988647,
                0.16793152689933777,
                -0.7390764355659485,
                2.0687427520751953,
                1.8623579740524292,
                0.7868606448173523,
                -0.7591778039932251,
                -1.3802833557128906,
                -1.60408616065979,
                -0.7546634078025818,
                -0.9231283068656921,
                -1.0994995832443237,
                -1.9767909049987793,
                0.48909229040145874,
                0.04023836925625801,
                -0.11203964799642563,
                -1.1849019527435303,
                -5.834931373596191,
                -4.594923496246338,
                2.9493677616119385,
                -1.963335394859314,
                1.6383497714996338,
                5.4787516593933105,
                4.800787925720215,
                1.8715500831604004,
                1.8748250007629395,
                -4.185548782348633,
                -2.2681117057800293,
                -3.5155935287475586,
                -3.1635303497314453,
                0.33164075016975403,
                -0.6390079855918884
            ],
            [
                -0.7855071425437927,
                0.6173695921897888,
                3.010948896408081,
                7.616263389587402,
                -4.928653717041016,
                -1.3170918226242065,
                -0.15438485145568848,
                -0.8715122938156128,
                0.18781498074531555,
                -0.7223666310310364,
                2.0662174224853516,
                1.8743724822998047,
                0.7994908094406128,
                -0.8006877303123474,
                -1.408102035522461,
                -1.611725091934204,
                -0.7172887921333313,
                -0.938407838344574,
                -1.1018534898757935,
                -1.9575713872909546,
                0.4926237463951111,
                0.08656138926744461,
                -0.13970233500003815,
                -1.2088133096694946,
                -5.839644908905029,
                -4.5915422439575195,
                2.9495646953582764,
                -1.9878648519515991,
                1.628846287727356,
                5.5140886306762695,
                4.830524444580078,
                1.8808740377426147,
                1.46989107131958,
                -4.201865196228027,
                -2.3226659297943115,
                -3.5233116149902344,
                -3.178570032119751,
                0.45561403036117554,
                -0.8026041388511658
            ]
        ],
        "tmit": [
            [
                0.7711894512176514,
                0.9125252366065979,
                0.8978813290596008,
                0.9325082898139954,
                0.9586145877838135,
                0.8162798285484314,
                0.9237144589424133,
                0.5973351001739502,
                0.8921481370925903,
                1.3839613199234009,
                0.8351710438728333,
                1.3099687099456787,
                1.8135632276535034,
                0.888001024723053,
                0.9525600075721741,
                0.8998693227767944,
                0.677435576915741,
                0.8799324035644531,
                0.7301627397537231,
                0.5415239334106445,
                0.502565324306488,
                0.5132456421852112,
                0.45379146933555603,
                0.4272802770137787,
                0.11317993700504303,
                0.2444324940443039,
                0.27572014927864075,
                0.2774547338485718,
                0.2600727677345276,
                0.22798052430152893,
                0.2457517683506012,
                0.7739153504371643,
                0.3174634277820587,
                0.28476884961128235,
                0.1516488641500473,
                0.11022846400737762,
                0.217961847782135,
                0.20380094647407532,
                0.22554555535316467
            ],
            [
                0.7563788294792175,
                0.891755223274231,
                0.8813297748565674,
                0.9172689914703369,
                0.9418251514434814,
                0.8037461042404175,
                0.9085763692855835,
                0.5920693874359131,
                0.8811196088790894,
                1.3705387115478516,
                0.8229309320449829,
                1.2936216592788696,
                1.79533851146698,
                0.8766685724258423,
                0.9373840093612671,
                0.8795474171638489,
                0.6688679456710815,
                0.8676119446754456,
                0.7167643904685974,
                0.5338535308837891,
                0.4941169023513794,
                0.5066617131233215,
                0.44388753175735474,
                0.4206125736236572,
                0.11391916871070862,
                0.2471531182527542,
                0.27885138988494873,
                0.27997344732284546,
                0.26372021436691284,
                0.22762084007263184,
                0.24142387509346008,
                0.7728379368782043,
                0.32007303833961487,
                0.278799444437027,
                0.149196594953537,
                0.11144158989191055,
                0.21870073676109314,
                0.20653627812862396,
                0.22770905494689941
            ],
            [
                0.7381473183631897,
                0.8729270100593567,
                0.857874870300293,
                0.8911175727844238,
                0.9174118638038635,
                0.7828225493431091,
                0.8848233819007874,
                0.5791081190109253,
                0.8598196506500244,
                1.347130537033081,
                0.8057838678359985,
                1.2877447605133057,
                1.7694370746612549,
                0.8536794185638428,
                0.9144594073295593,
                0.8554150462150574,
                0.6526150703430176,
                0.8443825840950012,
                0.6995025277137756,
                0.5244505405426025,
                0.48218274116516113,
                0.4942712187767029,
                0.4308295249938965,
                0.40944281220436096,
                0.11131007969379425,
                0.24085913598537445,
                0.27319496870040894,
                0.27293840050697327,
                0.2553918659687042,
                0.21988719701766968,
                0.23235592246055603,
                0.7286649942398071,
                0.3223098814487457,
                0.27114057540893555,
                0.1446119099855423,
                0.10871203988790512,
                0.21384519338607788,
                0.20142687857151031,
                0.2220974564552307
            ]
        ]
    },
    "icts": {
        "names": [
            "gun:GUNcharge",
            "l0:L0charge",
            "linacbt:LNEcharge",
            "linacbt:BTMcharge",
            "ext:EXTcharge",
            "linacbt:BTEcharge",
            "BIM:DR:nparticles",
            "BIM:IP:nparticles"
        ],
        "charge": [
            0.5409786577,
            0.5880024887499999,
            0.4138339583333333,
            0.3739575,
            0.29195113194333333,
            0.3190608333333333,
            0.2666770815849304,
            0.26985782384872437
        ]
    },
    "hcorrectors_names": [
        "ZH1L",
        "ZH2L",
        "ZH3L",
        "ZH4L",
        "ZH5L",
        "ZH6L",
        "ZH7L",
        "ZH8L",
        "ZH9L",
        "ZH10L",
        "ZH11L",
        "ZH12L",
        "ZH30T",
        "ZH40T",
        "ZH50T"
    ],
    "vcorrectors_names": [
        "ZV1L",
        "ZV2L",
        "ZV3L",
        "ZV4L",
        "ZV5L",
        "ZV6L",
        "ZV7L",
        "ZV8L",
        "ZV9L",
        "ZV10L",
        "ZV11L",
        "ZV12L",
        "ZV13L",
        "ZV30T",
        "ZV40T",
        "ZV50T",
        "ZV51T"
    ],
    "timestamp": "2024/05/24, 15:01:02"
}