{
    "sequence": [
        "MB5L",
        "MB6L",
        "MB7L",
        "ZH1L",
        "ZV1L",
        "MB8L",
        "MB9L",
        "MB10L",
        "ZV2L",
        "ZH2L",
        "MB11L",
        "ML1L",
        "ML2L",
        "ZV3L",
        "ZH3L",
        "ML3L",
        "ZH4L",
        "ZV4L",
        "ZH5L",
        "ZV5L",
        "ML4L",
        "ZH6L",
        "ZV6L",
        "ML5L",
        "ZH7L",
        "ZV7L",
        "ML6L",
        "ZH8L",
        "ZV8L",
        "ML7L",
        "ZH9L",
        "ML8L",
        "ZV9L",
        "ML9L",
        "ZH10L",
        "ML10L",
        "ZV10L",
        "ML11L",
        "ZH11L",
        "ML12L",
        "ZV11L",
        "ML13L",
        "ZH12L",
        "ML14L",
        "ZV12L",
        "ML15L",
        "ZX10T",
        "ZX11T",
        "ML1T",
        "ZV13L",
        "ZX12T",
        "ML2T",
        "ZY20T",
        "ZY21T",
        "ML101T",
        "ML102T",
        "ZY22T",
        "ZY23T",
        "ML103T",
        "ZX30T",
        "ML3T",
        "ZX31T",
        "ZV30T",
        "ZH30T",
        "ML104T",
        "ZX32T",
        "ML4T",
        "ML105T",
        "ZV40T",
        "ZH40T",
        "ML5T",
        "ML6T",
        "ZX50T",
        "ML106T",
        "ZX50T",
        "ML7T",
        "ZX51T",
        "ZV50T",
        "ML8T",
        "ZH50T",
        "ZV51T",
        "ML9T",
        "MB10T",
        "MB11T"
    ],
    "correctors": {
        "names": [
            "ZH1L",
            "ZV1L",
            "ZV2L",
            "ZH2L",
            "ZV3L",
            "ZH3L",
            "ZH4L",
            "ZV4L",
            "ZH5L",
            "ZV5L",
            "ZH6L",
            "ZV6L",
            "ZH7L",
            "ZV7L",
            "ZH8L",
            "ZV8L",
            "ZH9L",
            "ZV9L",
            "ZH10L",
            "ZV10L",
            "ZH11L",
            "ZV11L",
            "ZH12L",
            "ZV12L",
            "ZX10T",
            "ZX11T",
            "ZV13L",
            "ZX12T",
            "ZY20T",
            "ZY21T",
            "ZY22T",
            "ZY23T",
            "ZX30T",
            "ZX31T",
            "ZV30T",
            "ZH30T",
            "ZX32T",
            "ZV40T",
            "ZH40T",
            "ZX50T",
            "ZX50T",
            "ZX51T",
            "ZV50T",
            "ZH50T",
            "ZV51T"
        ],
        "bdes": [
            1.6058,
            0.32324,
            -3.694e-05,
            0.05,
            -0.018255,
            -0.0023425,
            -0.63212,
            -0.51377,
            0.0067611,
            0.025597,
            -0.089344,
            -0.23399,
            -0.34279,
            0.0008922,
            0.095066,
            -0.1336,
            -0.39271,
            -0.072191,
            -0.21644,
            -0.41065,
            0.09808,
            0.37969,
            0.14349900000000002,
            -1.4308,
            -0.5,
            0.81,
            -0.69,
            0.9,
            0.34,
            -0.25,
            -1.26,
            -1.47,
            0.0,
            0.0,
            0.09,
            -1.79,
            2.05,
            -1.5,
            -2.1085,
            1.29,
            1.29,
            -1.7,
            0.38,
            1.35,
            0.08
        ],
        "bact": [
            1.6047874689102173,
            0.3224230408668518,
            -0.00488519761711359,
            0.04885197803378105,
            -0.02198338881134987,
            -0.00488519761711359,
            -0.6350756883621216,
            -0.5178309679031372,
            0.00488519761711359,
            0.024425989016890526,
            -0.09281875938177109,
            -0.23693208396434784,
            -0.3468490242958069,
            0.0,
            0.09281875938177109,
            -0.13678553700447083,
            -0.39570102095603943,
            -0.07572057098150253,
            -0.21983389556407928,
            -0.4152418076992035,
            0.0977039560675621,
            0.3786028325557709,
            0.14167073369026184,
            -1.4435759782791138,
            -0.5080605745315552,
            0.8036150336265564,
            -0.6985832452774048,
            0.898876428604126,
            0.33463606238365173,
            -0.2589154839515686,
            -1.2677088975906372,
            -1.4802148342132568,
            0.0,
            0.0,
            0.08304836601018906,
            -1.797752857208252,
            2.044455051422119,
            -1.5095261335372925,
            -2.1177332401275635,
            1.2848069667816162,
            1.2848069667816162,
            -1.7073765993118286,
            0.37371763586997986,
            1.343429446220398,
            0.07572057098150253
        ]
    },
    "bpms": {
        "names": [
            "MB5L",
            "MB6L",
            "MB7L",
            "MB8L",
            "MB9L",
            "MB10L",
            "MB11L",
            "ML1L",
            "ML2L",
            "ML3L",
            "ML4L",
            "ML5L",
            "ML6L",
            "ML7L",
            "ML8L",
            "ML9L",
            "ML10L",
            "ML11L",
            "ML12L",
            "ML13L",
            "ML14L",
            "ML15L",
            "ML1T",
            "ML2T",
            "ML101T",
            "ML102T",
            "ML103T",
            "ML3T",
            "ML104T",
            "ML4T",
            "ML105T",
            "ML5T",
            "ML6T",
            "ML106T",
            "ML7T",
            "ML8T",
            "ML9T",
            "MB10T",
            "MB11T"
        ],
        "x": [
            [
                -1.182490587234497,
                0.6428405046463013,
                0.13883353769779205,
                -7.929558277130127,
                1.483991265296936,
                1.145340085029602,
                0.028055014088749886,
                -2.410656690597534,
                -0.9155434370040894,
                0.24858541786670685,
                -0.21869096159934998,
                -0.5186344981193542,
                0.5641459226608276,
                -1.304457664489746,
                0.33463218808174133,
                -6.454748153686523,
                -3.098860502243042,
                -0.7272430658340454,
                -0.9282957911491394,
                -0.14320071041584015,
                -0.1410304456949234,
                -0.7369699478149414,
                -6.735088348388672,
                3.5931131839752197,
                -3.2927627563476562,
                0.15132246911525726,
                0.6799020171165466,
                1.2628716230392456,
                1.4299834966659546,
                -2.004206657409668,
                -6.319638252258301,
                -2.778801679611206,
                0.6956180930137634,
                -3.5957696437835693,
                -0.5162645578384399,
                -2.562373399734497,
                -2.0432143211364746,
                0.4885413944721222,
                -3.5466716289520264
            ],
            [
                -1.1781022548675537,
                0.6695652008056641,
                0.17211395502090454,
                -7.901244163513184,
                1.5101127624511719,
                1.2087572813034058,
                0.05629827827215195,
                -2.3963305950164795,
                -0.9671760201454163,
                0.22816306352615356,
                -0.2328883856534958,
                -0.3496221601963043,
                0.5376186966896057,
                -1.259002685546875,
                0.2642730474472046,
                -6.458649635314941,
                -3.0597331523895264,
                -0.6492100954055786,
                -0.7823576331138611,
                -0.09818962216377258,
                -0.08215050399303436,
                -0.6935926675796509,
                -6.707975387573242,
                3.6779942512512207,
                -3.2475852966308594,
                0.033290185034275055,
                0.5740594267845154,
                1.3894535303115845,
                1.4402393102645874,
                -1.7349594831466675,
                -6.251062870025635,
                -2.669423818588257,
                1.886188268661499,
                -3.498906135559082,
                -0.44598495960235596,
                -2.5528581142425537,
                -1.9532175064086914,
                0.2846701741218567,
                -3.613569974899292
            ],
            [
                -1.178878903388977,
                0.6418328285217285,
                0.10996740311384201,
                -7.89083194732666,
                1.4628373384475708,
                1.1828668117523193,
                0.024817271158099174,
                -2.3759946823120117,
                -0.9553890824317932,
                0.23911835253238678,
                -0.2554226815700531,
                -0.34134748578071594,
                0.5451987981796265,
                -1.248369574546814,
                0.2659986913204193,
                -6.457295894622803,
                -3.0969011783599854,
                -0.6575862765312195,
                -0.7823576331138611,
                -0.14293180406093597,
                -0.09305428713560104,
                -0.6896039843559265,
                -6.716989040374756,
                3.5567679405212402,
                -3.3665287494659424,
                0.12096232920885086,
                0.5520798563957214,
                1.3960083723068237,
                1.3038291931152344,
                -1.8959095478057861,
                -6.392704963684082,
                -2.801063060760498,
                -0.975847065448761,
                -3.63649845123291,
                -0.5879091024398804,
                -2.6455581188201904,
                -2.023824453353882,
                0.3377290368080139,
                -3.6181228160858154
            ]
        ],
        "y": [
            [
                -0.7474895715713501,
                0.6930100917816162,
                3.0277903079986572,
                7.601406574249268,
                -4.7357258796691895,
                -0.8429845571517944,
                0.35681775212287903,
                -0.8570448160171509,
                -0.7594316601753235,
                -1.5076534748077393,
                -0.17874357104301453,
                0.3186209797859192,
                -0.04992029070854187,
                -1.4218894243240356,
                -0.8861108422279358,
                0.27463299036026,
                0.3248147666454315,
                1.3930085897445679,
                0.37777596712112427,
                -0.6636117696762085,
                0.6826537847518921,
                -0.12368354201316833,
                -0.5816527605056763,
                -1.449499487876892,
                -4.881411075592041,
                -3.6932899951934814,
                1.8944361209869385,
                -1.4108126163482666,
                0.03709344193339348,
                4.722609043121338,
                3.827409029006958,
                1.735663890838623,
                2.263387680053711,
                -3.8665945529937744,
                -1.4339343309402466,
                -2.4987621307373047,
                -1.8292664289474487,
                0.12163950502872467,
                0.8058844804763794
            ],
            [
                -0.7500815391540527,
                0.6440228223800659,
                3.079857349395752,
                7.6101884841918945,
                -4.682038307189941,
                -0.8537198305130005,
                0.3513604700565338,
                -0.9047817587852478,
                -0.8568483591079712,
                -1.5557245016098022,
                -0.29974567890167236,
                0.2459874451160431,
                -0.0532679483294487,
                -1.317674160003662,
                -0.8162459135055542,
                0.2728571593761444,
                0.33269596099853516,
                1.4116102457046509,
                0.41974395513534546,
                -0.6248798370361328,
                0.638361394405365,
                -0.14203867316246033,
                -0.5777096748352051,
                -1.4438831806182861,
                -4.787177085876465,
                -3.641238212585449,
                1.7370144128799438,
                -1.3947938680648804,
                -0.05776933580636978,
                4.754397869110107,
                4.395382881164551,
                1.82072913646698,
                3.683610200881958,
                -3.8812527656555176,
                -1.452714204788208,
                -2.460956573486328,
                -1.7745784521102905,
                -0.04392238333821297,
                0.8085888028144836
            ],
            [
                -0.8010545372962952,
                0.7208549976348877,
                3.0941243171691895,
                7.631146430969238,
                -4.664892196655273,
                -0.8579609990119934,
                0.33694157004356384,
                -0.895600438117981,
                -0.8364909887313843,
                -1.5263898372650146,
                -0.251878947019577,
                0.277354896068573,
                -0.04652871936559677,
                -1.3099714517593384,
                -0.833156168460846,
                0.3095553517341614,
                0.2982785105705261,
                1.4073209762573242,
                0.4142780601978302,
                -0.6565642952919006,
                0.6587133407592773,
                -0.11073607951402664,
                -0.6134272217750549,
                -1.4427613019943237,
                -4.811729431152344,
                -3.662740707397461,
                1.7722420692443848,
                -1.431320309638977,
                -0.04356009513139725,
                4.6608686447143555,
                4.289772987365723,
                1.9975218772888184,
                0.7385158538818359,
                -3.802354574203491,
                -1.360412836074829,
                -2.4625167846679688,
                -1.7576391696929932,
                0.022794820368289948,
                0.8883354663848877
            ]
        ],
        "tmit": [
            [
                0.7425470352172852,
                0.8740717172622681,
                0.8645190000534058,
                0.8969704508781433,
                0.9212132096290588,
                0.7873177528381348,
                0.8920861482620239,
                0.5833174586296082,
                0.862343966960907,
                1.3496235609054565,
                0.8182255029678345,
                1.321246862411499,
                1.7874850034713745,
                0.8736032247543335,
                0.9410170316696167,
                0.8787005543708801,
                0.6668656468391418,
                0.8591992855072021,
                0.7214467525482178,
                0.5342803001403809,
                0.49675503373146057,
                0.5075428485870361,
                0.4698774516582489,
                0.4243738353252411,
                0.09152451902627945,
                0.21714496612548828,
                0.2466299831867218,
                0.25235435366630554,
                0.24347682297229767,
                0.18139883875846863,
                0.21896009147167206,
                0.8110852241516113,
                0.31373530626296997,
                0.27170372009277344,
                0.14834362268447876,
                0.09307126700878143,
                0.1957423985004425,
                0.1841374635696411,
                0.2122940719127655
            ],
            [
                0.7855185270309448,
                0.9244859218597412,
                0.9118422865867615,
                0.9452972412109375,
                0.9685888886451721,
                0.8285542726516724,
                0.9356239438056946,
                0.6050274968147278,
                0.9004567265510559,
                1.3938490152359009,
                0.8531297445297241,
                1.375117301940918,
                1.8349536657333374,
                0.9184912443161011,
                0.982580840587616,
                0.9267534017562866,
                0.6945928931236267,
                0.9047349691390991,
                0.7550632953643799,
                0.5534152984619141,
                0.5196723937988281,
                0.5325072407722473,
                0.49788594245910645,
                0.44802409410476685,
                0.09704709053039551,
                0.23176328837871552,
                0.2658213973045349,
                0.2676404118537903,
                0.25770190358161926,
                0.19147054851055145,
                0.23256200551986694,
                0.8794994354248047,
                0.2906213104724884,
                0.28651461005210876,
                0.157193124294281,
                0.09909361600875854,
                0.20904240012168884,
                0.1938401758670807,
                0.22723577916622162
            ],
            [
                0.7830060124397278,
                0.9222725033760071,
                0.9108343720436096,
                0.9457262754440308,
                0.9692559242248535,
                0.8288233876228333,
                0.9366593360900879,
                0.6037093997001648,
                0.9003439545631409,
                1.3972300291061401,
                0.8551956415176392,
                1.37909734249115,
                1.8387482166290283,
                0.9176529049873352,
                0.9827354550361633,
                0.9261183738708496,
                0.69820636510849,
                0.9057802557945251,
                0.7558184266090393,
                0.5526597499847412,
                0.518700361251831,
                0.5320851802825928,
                0.49958914518356323,
                0.44785311818122864,
                0.09513375908136368,
                0.22672809660434723,
                0.25875088572502136,
                0.26347148418426514,
                0.2528386414051056,
                0.19183026254177094,
                0.22720368206501007,
                0.8768060207366943,
                0.4408623278141022,
                0.287134051322937,
                0.15687325596809387,
                0.09684064984321594,
                0.2047674059867859,
                0.19058872759342194,
                0.22290876507759094
            ]
        ]
    },
    "icts": {
        "names": [
            "gun:GUNcharge",
            "l0:L0charge",
            "linacbt:LNEcharge",
            "linacbt:BTMcharge",
            "ext:EXTcharge",
            "linacbt:BTEcharge",
            "BIM:DR:nparticles",
            "BIM:IP:nparticles"
        ],
        "charge": [
            0.53055458658,
            0.5783915762500002,
            0.40817583333333335,
            0.3546675,
            0.019817927295833333,
            0.3049636111111111,
            0.00452161580324173,
            0.006864569149911404
        ]
    },
    "hcorrectors_names": [
        "ZH1L",
        "ZH2L",
        "ZH3L",
        "ZH4L",
        "ZH5L",
        "ZH6L",
        "ZH7L",
        "ZH8L",
        "ZH9L",
        "ZH10L",
        "ZH11L",
        "ZH12L",
        "ZH30T",
        "ZH40T",
        "ZH50T"
    ],
    "vcorrectors_names": [
        "ZV1L",
        "ZV2L",
        "ZV3L",
        "ZV4L",
        "ZV5L",
        "ZV6L",
        "ZV7L",
        "ZV8L",
        "ZV9L",
        "ZV10L",
        "ZV11L",
        "ZV12L",
        "ZV13L",
        "ZV30T",
        "ZV40T",
        "ZV50T",
        "ZV51T"
    ],
    "timestamp": "2024/05/24, 15:04:20"
}