{
    "sequence": [
        "MB5L",
        "MB6L",
        "MB7L",
        "ZH1L",
        "ZV1L",
        "MB8L",
        "MB9L",
        "MB10L",
        "ZV2L",
        "ZH2L",
        "MB11L",
        "ML1L",
        "ML2L",
        "ZV3L",
        "ZH3L",
        "ML3L",
        "ZH4L",
        "ZV4L",
        "ZH5L",
        "ZV5L",
        "ML4L",
        "ZH6L",
        "ZV6L",
        "ML5L",
        "ZH7L",
        "ZV7L",
        "ML6L",
        "ZH8L",
        "ZV8L",
        "ML7L",
        "ZH9L",
        "ML8L",
        "ZV9L",
        "ML9L",
        "ZH10L",
        "ML10L",
        "ZV10L",
        "ML11L",
        "ZH11L",
        "ML12L",
        "ZV11L",
        "ML13L",
        "ZH12L",
        "ML14L",
        "ZV12L",
        "ML15L",
        "ZX10T",
        "ZX11T",
        "ML1T",
        "ZV13L",
        "ZX12T",
        "ML2T",
        "ZY20T",
        "ZY21T",
        "ML101T",
        "ML102T",
        "ZY22T",
        "ZY23T",
        "ML103T",
        "ZX30T",
        "ML3T",
        "ZX31T",
        "ZV30T",
        "ZH30T",
        "ML104T",
        "ZX32T",
        "ML4T",
        "ML105T",
        "ZV40T",
        "ZH40T",
        "ML5T",
        "ML6T",
        "ZX50T",
        "ML106T",
        "ZX50T",
        "ML7T",
        "ZX51T",
        "ZV50T",
        "ML8T",
        "ZH50T",
        "ZV51T",
        "ML9T",
        "MB10T",
        "MB11T"
    ],
    "correctors": {
        "names": [
            "ZH1L",
            "ZV1L",
            "ZV2L",
            "ZH2L",
            "ZV3L",
            "ZH3L",
            "ZH4L",
            "ZV4L",
            "ZH5L",
            "ZV5L",
            "ZH6L",
            "ZV6L",
            "ZH7L",
            "ZV7L",
            "ZH8L",
            "ZV8L",
            "ZH9L",
            "ZV9L",
            "ZH10L",
            "ZV10L",
            "ZH11L",
            "ZV11L",
            "ZH12L",
            "ZV12L",
            "ZX10T",
            "ZX11T",
            "ZV13L",
            "ZX12T",
            "ZY20T",
            "ZY21T",
            "ZY22T",
            "ZY23T",
            "ZX30T",
            "ZX31T",
            "ZV30T",
            "ZH30T",
            "ZX32T",
            "ZV40T",
            "ZH40T",
            "ZX50T",
            "ZX50T",
            "ZX51T",
            "ZV50T",
            "ZH50T",
            "ZV51T"
        ],
        "bdes": [
            1.6058,
            0.32324,
            -3.694e-05,
            0.05,
            -0.018255,
            0.21418226485301098,
            -0.63212,
            -0.51377,
            0.0067611,
            0.025597,
            -0.089344,
            -0.23399,
            -0.34279,
            0.0008922,
            0.095066,
            -0.1336,
            -0.39271,
            -0.072191,
            -0.21644,
            -0.41065,
            0.09808,
            0.37969,
            0.043499,
            -1.4308,
            -0.5,
            0.81,
            -0.69,
            0.9,
            0.34,
            -0.25,
            -1.26,
            -1.47,
            0.0,
            0.0,
            0.09,
            -1.79,
            2.05,
            -1.5,
            -2.1085,
            1.29,
            1.29,
            -1.7,
            0.38,
            1.35,
            0.08
        ],
        "bact": [
            1.6047874689102173,
            0.3224230408668518,
            -0.00488519761711359,
            0.04885197803378105,
            -0.02198338881134987,
            0.21250610053539276,
            -0.6350756883621216,
            -0.5178309679031372,
            0.00488519761711359,
            0.024425989016890526,
            -0.09281875938177109,
            -0.23693208396434784,
            -0.3468490242958069,
            0.0,
            0.09281875938177109,
            -0.13678553700447083,
            -0.39570102095603943,
            -0.07572057098150253,
            -0.21983389556407928,
            -0.4152418076992035,
            0.0977039560675621,
            0.3786028325557709,
            0.04152418300509453,
            -1.4338055849075317,
            -0.5080605745315552,
            0.8036150336265564,
            -0.6985832452774048,
            0.898876428604126,
            0.33463606238365173,
            -0.2589154839515686,
            -1.2677088975906372,
            -1.4802148342132568,
            0.0,
            0.0,
            0.08304836601018906,
            -1.797752857208252,
            2.044455051422119,
            -1.5095261335372925,
            -2.1128480434417725,
            1.2848069667816162,
            1.2848069667816162,
            -1.7073765993118286,
            0.37371763586997986,
            1.343429446220398,
            0.07572057098150253
        ]
    },
    "bpms": {
        "names": [
            "MB5L",
            "MB6L",
            "MB7L",
            "MB8L",
            "MB9L",
            "MB10L",
            "MB11L",
            "ML1L",
            "ML2L",
            "ML3L",
            "ML4L",
            "ML5L",
            "ML6L",
            "ML7L",
            "ML8L",
            "ML9L",
            "ML10L",
            "ML11L",
            "ML12L",
            "ML13L",
            "ML14L",
            "ML15L",
            "ML1T",
            "ML2T",
            "ML101T",
            "ML102T",
            "ML103T",
            "ML3T",
            "ML104T",
            "ML4T",
            "ML105T",
            "ML5T",
            "ML6T",
            "ML106T",
            "ML7T",
            "ML8T",
            "ML9T",
            "MB10T",
            "MB11T"
        ],
        "x": [
            [
                -1.1388113498687744,
                0.6330822110176086,
                0.1878533959388733,
                -7.876466274261475,
                1.498670220375061,
                1.2209206819534302,
                0.059571221470832825,
                -2.3334100246429443,
                -0.9754947423934937,
                0.7676669359207153,
                0.025088395923376083,
                -0.9005183577537537,
                0.46384263038635254,
                -0.35283195972442627,
                1.2369718551635742,
                -5.470467567443848,
                -1.14322030544281,
                -1.073628544807434,
                -2.6248066425323486,
                -1.2840402126312256,
                -2.6499345302581787,
                -2.4727108478546143,
                -6.508411884307861,
                2.277728796005249,
                -4.283680438995361,
                0.6527426838874817,
                0.3606969714164734,
                0.6175963282585144,
                0.01853148452937603,
                -3.4955782890319824,
                -5.647009372711182,
                -2.3833773136138916,
                2.1455416679382324,
                -3.857517957687378,
                0.2540675103664398,
                -0.6281346678733826,
                -1.9572101831436157,
                0.9627264738082886,
                -2.6497085094451904
            ],
            [
                -1.1263772249221802,
                0.7088257074356079,
                0.1587151437997818,
                -7.9167094230651855,
                1.4947113990783691,
                1.1710143089294434,
                0.03474273532629013,
                -2.4152238368988037,
                -0.897567629814148,
                0.789946436882019,
                0.04840514436364174,
                -0.9435344338417053,
                0.47070619463920593,
                -0.3994491994380951,
                1.340489387512207,
                -5.566889762878418,
                -1.1463818550109863,
                -1.1928596496582031,
                -2.7401363849639893,
                -1.374060869216919,
                -2.7452871799468994,
                -2.5530362129211426,
                -6.525514125823975,
                2.3736255168914795,
                -4.184040546417236,
                0.6148992776870728,
                0.4013756811618805,
                0.6540363430976868,
                0.04648783430457115,
                -3.365251064300537,
                -5.56374454498291,
                -2.2798514366149902,
                1.9075554609298706,
                -3.8672611713409424,
                0.3212125301361084,
                -0.6155673861503601,
                -1.854190707206726,
                0.9133870005607605,
                -2.6096882820129395
            ],
            [
                -1.1463819742202759,
                0.5354474782943726,
                0.18739134073257446,
                -7.891210556030273,
                1.5042824745178223,
                1.2275066375732422,
                0.08436378836631775,
                -2.28347110748291,
                -0.9852827191352844,
                0.7153733968734741,
                0.005304767284542322,
                -0.7111851572990417,
                0.46436601877212524,
                -0.38072213530540466,
                1.1836293935775757,
                -5.539454460144043,
                -1.1460928916931152,
                -1.0627171993255615,
                -2.5378665924072266,
                -1.2881042957305908,
                -2.5790767669677734,
                -2.4125888347625732,
                -6.50266170501709,
                2.317403554916382,
                -4.027932167053223,
                0.6228123307228088,
                0.3718603551387787,
                0.6501705646514893,
                0.11447994410991669,
                -3.2555410861968994,
                -5.477594375610352,
                -2.250272035598755,
                0.47595271468162537,
                -3.8448472023010254,
                0.295535147190094,
                -0.6823428273200989,
                -1.9107993841171265,
                1.022255778312683,
                -2.627931833267212
            ]
        ],
        "y": [
            [
                -0.7569469213485718,
                0.781269371509552,
                3.110436201095581,
                7.677638530731201,
                -4.6393890380859375,
                -0.8814132809638977,
                0.3112761378288269,
                -0.902251660823822,
                -0.855037271976471,
                -1.5327543020248413,
                -0.20153750479221344,
                0.3059471547603607,
                -0.034012917429208755,
                -1.2951606512069702,
                -0.8328538537025452,
                0.22039340436458588,
                0.1388162225484848,
                1.3545819520950317,
                0.3442568778991699,
                -0.6899966597557068,
                0.6345236897468567,
                -0.12497749924659729,
                -0.6190154552459717,
                -1.4261605739593506,
                -4.815136909484863,
                -3.631439447402954,
                1.8268624544143677,
                -1.451991081237793,
                0.06332790106534958,
                4.609330177307129,
                3.7527647018432617,
                2.0524086952209473,
                1.9168729782104492,
                -3.9137840270996094,
                -1.4943995475769043,
                -2.5179150104522705,
                -1.9012643098831177,
                0.09008608013391495,
                0.7204751968383789
            ],
            [
                -0.7116118669509888,
                0.6949336528778076,
                3.069235324859619,
                7.615900039672852,
                -4.7320556640625,
                -0.8539142608642578,
                0.3646257221698761,
                -0.8845775723457336,
                -0.7756997346878052,
                -1.5246880054473877,
                -0.21270182728767395,
                0.3007805645465851,
                -0.05432049185037613,
                -1.353790283203125,
                -0.8594743013381958,
                0.2297474443912506,
                0.19452059268951416,
                1.3700337409973145,
                0.3652973771095276,
                -0.7524585723876953,
                0.655377984046936,
                -0.10357015579938889,
                -0.6102170944213867,
                -1.4165657758712769,
                -4.848926067352295,
                -3.690492630004883,
                1.8187036514282227,
                -1.4657257795333862,
                0.06277244538068771,
                4.9594879150390625,
                3.797274112701416,
                1.8434455394744873,
                1.8754394054412842,
                -3.9181158542633057,
                -1.5825294256210327,
                -2.501258611679077,
                -1.8110491037368774,
                -0.003892455017194152,
                0.6192535758018494
            ],
            [
                -0.7224145531654358,
                0.6784231066703796,
                3.049924850463867,
                7.6236252784729,
                -4.669241905212402,
                -0.8644403219223022,
                0.3587435185909271,
                -0.9011526107788086,
                -0.8464043140411377,
                -1.536386489868164,
                -0.2636845111846924,
                0.2809702754020691,
                -0.0451517328619957,
                -1.2780463695526123,
                -0.8183414936065674,
                0.2512071430683136,
                0.1466498225927353,
                1.3564919233322144,
                0.401140034198761,
                -0.6547669172286987,
                0.6523318886756897,
                -0.11235330253839493,
                -0.6418007612228394,
                -1.4542243480682373,
                -4.80364990234375,
                -3.6907901763916016,
                1.7497748136520386,
                -1.3804101943969727,
                -0.01846432313323021,
                4.864619255065918,
                4.02387809753418,
                1.8097786903381348,
                0.39805588126182556,
                -3.914598226547241,
                -1.5326086282730103,
                -2.4874448776245117,
                -1.747295618057251,
                -0.02811831794679165,
                0.8101793527603149
            ]
        ],
        "tmit": [
            [
                0.7967386245727539,
                0.9390460848808289,
                0.925209105014801,
                0.9599416255950928,
                0.9838598370552063,
                0.8406052589416504,
                0.9499962329864502,
                0.6123923063278198,
                0.913968563079834,
                1.4065908193588257,
                0.862909197807312,
                1.3776580095291138,
                1.8504525423049927,
                0.9357461333274841,
                0.9914069175720215,
                0.9155340194702148,
                0.7374826669692993,
                0.9176701307296753,
                0.7400230169296265,
                0.5543360710144043,
                0.5301107168197632,
                0.5359371304512024,
                0.48236769437789917,
                0.44979071617126465,
                0.10113465785980225,
                0.24650342762470245,
                0.2847098112106323,
                0.2869216501712799,
                0.2759391963481903,
                0.215750589966774,
                0.22823411226272583,
                0.7512901425361633,
                0.426322877407074,
                0.2942861020565033,
                0.15884573757648468,
                0.10658905655145645,
                0.2236090898513794,
                0.2075168639421463,
                0.23683635890483856
            ],
            [
                0.757817804813385,
                0.894024670124054,
                0.8821499347686768,
                0.9160677194595337,
                0.9403377175331116,
                0.803472638130188,
                0.9101171493530273,
                0.5913398265838623,
                0.87740159034729,
                1.3657984733581543,
                0.8336532711982727,
                1.3389850854873657,
                1.807369351387024,
                0.8982281684875488,
                0.9543439149856567,
                0.8693863153457642,
                0.7101290225982666,
                0.8814719915390015,
                0.711419939994812,
                0.5351797342300415,
                0.5110861659049988,
                0.5151329040527344,
                0.45991045236587524,
                0.4284200072288513,
                0.09691663086414337,
                0.2358645349740982,
                0.2721848785877228,
                0.27502286434173584,
                0.26341623067855835,
                0.2062184363603592,
                0.2138078361749649,
                0.6941885352134705,
                0.41849398612976074,
                0.2815025746822357,
                0.15159554779529572,
                0.10177984088659286,
                0.21310628950595856,
                0.19987855851650238,
                0.22459901869297028
            ],
            [
                0.8101016879081726,
                0.954839289188385,
                0.938826858997345,
                0.9712844491004944,
                0.9978311657905579,
                0.8519031405448914,
                0.96329665184021,
                0.6181363463401794,
                0.9258275628089905,
                1.4180854558944702,
                0.8731676936149597,
                1.401763677597046,
                1.8646855354309082,
                0.9483212828636169,
                1.000327229499817,
                0.9347975254058838,
                0.7458761930465698,
                0.9291368126869202,
                0.7489506602287292,
                0.5585708022117615,
                0.5387596487998962,
                0.5429614782333374,
                0.4876035153865814,
                0.45480573177337646,
                0.10300450026988983,
                0.250442236661911,
                0.2915783226490021,
                0.2922196686267853,
                0.28068089485168457,
                0.22384394705295563,
                0.23503509163856506,
                0.7512901425361633,
                0.5784279704093933,
                0.29963603615760803,
                0.1618310958147049,
                0.10871203988790512,
                0.2264590859413147,
                0.21236823499202728,
                0.24386775493621826
            ]
        ]
    },
    "icts": {
        "names": [
            "gun:GUNcharge",
            "l0:L0charge",
            "linacbt:LNEcharge",
            "linacbt:BTMcharge",
            "ext:EXTcharge",
            "linacbt:BTEcharge",
            "BIM:DR:nparticles",
            "BIM:IP:nparticles"
        ],
        "charge": [
            0.558975720855,
            0.59901987625,
            0.4293508333333333,
            0.36760750000000003,
            0.31463582834250003,
            0.31654034722222224,
            0.280752569437027,
            0.29330432415008545
        ]
    },
    "hcorrectors_names": [
        "ZH1L",
        "ZH2L",
        "ZH3L",
        "ZH4L",
        "ZH5L",
        "ZH6L",
        "ZH7L",
        "ZH8L",
        "ZH9L",
        "ZH10L",
        "ZH11L",
        "ZH12L",
        "ZH30T",
        "ZH40T",
        "ZH50T"
    ],
    "vcorrectors_names": [
        "ZV1L",
        "ZV2L",
        "ZV3L",
        "ZV4L",
        "ZV5L",
        "ZV6L",
        "ZV7L",
        "ZV8L",
        "ZV9L",
        "ZV10L",
        "ZV11L",
        "ZV12L",
        "ZV13L",
        "ZV30T",
        "ZV40T",
        "ZV50T",
        "ZV51T"
    ],
    "timestamp": "2024/05/24, 15:05:37"
}