{
    "sequence": [
        "MB5L",
        "MB6L",
        "MB7L",
        "ZH1L",
        "ZV1L",
        "MB8L",
        "MB9L",
        "MB10L",
        "ZV2L",
        "ZH2L",
        "MB11L",
        "ML1L",
        "ML2L",
        "ZV3L",
        "ZH3L",
        "ML3L",
        "ZH4L",
        "ZV4L",
        "ZH5L",
        "ZV5L",
        "ML4L",
        "ZH6L",
        "ZV6L",
        "ML5L",
        "ZH7L",
        "ZV7L",
        "ML6L",
        "ZH8L",
        "ZV8L",
        "ML7L",
        "ZH9L",
        "ML8L",
        "ZV9L",
        "ML9L",
        "ZH10L",
        "ML10L",
        "ZV10L",
        "ML11L",
        "ZH11L",
        "ML12L",
        "ZV11L",
        "ML13L",
        "ZH12L",
        "ML14L",
        "ZV12L",
        "ML15L",
        "ZX10T",
        "ZX11T",
        "ML1T",
        "ZV13L",
        "ZX12T",
        "ML2T",
        "ZY20T",
        "ZY21T",
        "ML101T",
        "ML102T",
        "ZY22T",
        "ZY23T",
        "ML103T",
        "ZX30T",
        "ML3T",
        "ZX31T",
        "ZV30T",
        "ZH30T",
        "ML104T",
        "ZX32T",
        "ML4T",
        "ML105T",
        "ZV40T",
        "ZH40T",
        "ML5T",
        "ML6T",
        "ZX50T",
        "ML106T",
        "ZX50T",
        "ML7T",
        "ZX51T",
        "ZV50T",
        "ML8T",
        "ZH50T",
        "ZV51T",
        "ML9T",
        "MB10T",
        "MB11T"
    ],
    "correctors": {
        "names": [
            "ZH1L",
            "ZV1L",
            "ZV2L",
            "ZH2L",
            "ZV3L",
            "ZH3L",
            "ZH4L",
            "ZV4L",
            "ZH5L",
            "ZV5L",
            "ZH6L",
            "ZV6L",
            "ZH7L",
            "ZV7L",
            "ZH8L",
            "ZV8L",
            "ZH9L",
            "ZV9L",
            "ZH10L",
            "ZV10L",
            "ZH11L",
            "ZV11L",
            "ZH12L",
            "ZV12L",
            "ZX10T",
            "ZX11T",
            "ZV13L",
            "ZX12T",
            "ZY20T",
            "ZY21T",
            "ZY22T",
            "ZY23T",
            "ZX30T",
            "ZX31T",
            "ZV30T",
            "ZH30T",
            "ZX32T",
            "ZV40T",
            "ZH40T",
            "ZX50T",
            "ZX50T",
            "ZX51T",
            "ZV50T",
            "ZH50T",
            "ZV51T"
        ],
        "bdes": [
            1.6058,
            0.32324,
            -3.694e-05,
            0.05,
            -0.018255,
            -0.0023425,
            -0.63212,
            -0.51377,
            0.0067611,
            0.025597,
            0.044504114442448645,
            -0.23399,
            -0.34279,
            0.0008922,
            0.095066,
            -0.1336,
            -0.39271,
            -0.072191,
            -0.21644,
            -0.41065,
            0.09808,
            0.37969,
            0.043499,
            -1.4308,
            -0.5,
            0.81,
            -0.69,
            0.9,
            0.34,
            -0.25,
            -1.26,
            -1.47,
            0.0,
            0.0,
            0.09,
            -1.79,
            2.05,
            -1.5,
            -2.1085,
            1.29,
            1.29,
            -1.7,
            0.38,
            1.35,
            0.08
        ],
        "bact": [
            1.6047874689102173,
            0.3224230408668518,
            -0.00488519761711359,
            0.04885197803378105,
            -0.02198338881134987,
            -0.00488519761711359,
            -0.6350756883621216,
            -0.5178309679031372,
            0.00488519761711359,
            0.024425989016890526,
            0.04396677762269974,
            -0.23693208396434784,
            -0.3468490242958069,
            0.0,
            0.09281875938177109,
            -0.13678553700447083,
            -0.39570102095603943,
            -0.07572057098150253,
            -0.21983389556407928,
            -0.4152418076992035,
            0.0977039560675621,
            0.3786028325557709,
            0.04152418300509453,
            -1.4338055849075317,
            -0.5080605745315552,
            0.8036150336265564,
            -0.6985832452774048,
            0.898876428604126,
            0.33463606238365173,
            -0.2589154839515686,
            -1.2677088975906372,
            -1.4802148342132568,
            0.0,
            0.0,
            0.08304836601018906,
            -1.797752857208252,
            2.044455051422119,
            -1.5095261335372925,
            -2.1128480434417725,
            1.2848069667816162,
            1.2848069667816162,
            -1.7073765993118286,
            0.37371763586997986,
            1.343429446220398,
            0.07572057098150253
        ]
    },
    "bpms": {
        "names": [
            "MB5L",
            "MB6L",
            "MB7L",
            "MB8L",
            "MB9L",
            "MB10L",
            "MB11L",
            "ML1L",
            "ML2L",
            "ML3L",
            "ML4L",
            "ML5L",
            "ML6L",
            "ML7L",
            "ML8L",
            "ML9L",
            "ML10L",
            "ML11L",
            "ML12L",
            "ML13L",
            "ML14L",
            "ML15L",
            "ML1T",
            "ML2T",
            "ML101T",
            "ML102T",
            "ML103T",
            "ML3T",
            "ML104T",
            "ML4T",
            "ML105T",
            "ML5T",
            "ML6T",
            "ML106T",
            "ML7T",
            "ML8T",
            "ML9T",
            "MB10T",
            "MB11T"
        ],
        "x": [
            [
                -1.160254716873169,
                0.681694746017456,
                0.10640543699264526,
                -7.938976764678955,
                1.4779572486877441,
                1.1733098030090332,
                0.03297939896583557,
                -2.3909058570861816,
                -0.9042699933052063,
                0.3382508158683777,
                -0.19882728159427643,
                -0.3552674651145935,
                0.7383294701576233,
                -1.699168086051941,
                -0.498380571603775,
                -7.124402046203613,
                -4.601554870605469,
                -0.36107662320137024,
                0.4864468276500702,
                0.8398488163948059,
                1.826697587966919,
                0.6522688865661621,
                -6.347805023193359,
                2.3400681018829346,
                -2.8240280151367188,
                1.229610562324524,
                1.5865734815597534,
                0.12554869055747986,
                1.4774218797683716,
                -2.7727620601654053,
                -6.62169885635376,
                -2.8486766815185547,
                1.8008073568344116,
                -4.399388313293457,
                -0.9947052597999573,
                -2.722200632095337,
                -3.16340708732605,
                2.4166834354400635,
                -3.5000338554382324
            ],
            [
                -1.1265820264816284,
                0.6880875825881958,
                0.1257711797952652,
                -7.941659927368164,
                1.4627245664596558,
                1.1827962398529053,
                0.018053149804472923,
                -2.3994009494781494,
                -0.886283814907074,
                0.3671824038028717,
                -0.2157970815896988,
                -0.31234434247016907,
                0.7294715046882629,
                -1.7530386447906494,
                -0.43812963366508484,
                -7.0439043045043945,
                -4.544938564300537,
                -0.3486235439777374,
                0.4226931631565094,
                0.7672173380851746,
                1.7392804622650146,
                0.5619368553161621,
                -6.316107749938965,
                2.484680652618408,
                -2.6860694885253906,
                1.2130095958709717,
                1.504743218421936,
                0.15966001152992249,
                1.5146757364273071,
                -2.486633777618408,
                -6.466525554656982,
                -2.7450900077819824,
                1.3367037773132324,
                -4.302544593811035,
                -0.8792201280593872,
                -2.621260166168213,
                -3.0238895416259766,
                2.3617732524871826,
                -3.4732017517089844
            ],
            [
                -1.1133700609207153,
                0.6440538167953491,
                0.13376398384571075,
                -7.9229254722595215,
                1.4934704303741455,
                1.1818150281906128,
                0.028133848682045937,
                -2.3933589458465576,
                -0.9022800922393799,
                0.3290137052536011,
                -0.19109763205051422,
                -0.31718602776527405,
                0.7340785264968872,
                -1.7935154438018799,
                -0.47285282611846924,
                -7.100022315979004,
                -4.594112396240234,
                -0.35019099712371826,
                0.48755931854248047,
                0.8262845277786255,
                1.8112393617630005,
                0.6319873332977295,
                -6.349009990692139,
                2.5684375762939453,
                -2.66611647605896,
                1.2210612297058105,
                1.3630743026733398,
                0.08919272571802139,
                1.5861053466796875,
                -2.470452308654785,
                -6.57440710067749,
                -2.761091470718384,
                1.2956918478012085,
                -4.269493579864502,
                -0.8802037239074707,
                -2.717319965362549,
                -3.037665843963623,
                2.376753330230713,
                -3.5077803134918213
            ]
        ],
        "y": [
            [
                -0.7496100068092346,
                0.6831293106079102,
                3.0989444255828857,
                7.639537811279297,
                -4.723991870880127,
                -0.8699105978012085,
                0.33131143450737,
                -0.901395320892334,
                -0.8087810277938843,
                -1.5145596265792847,
                -0.1808142364025116,
                0.3299599587917328,
                -0.030831865966320038,
                -1.3837194442749023,
                -0.8498610854148865,
                0.3203505873680115,
                0.2562587559223175,
                1.3825998306274414,
                0.4040195643901825,
                -0.6720558404922485,
                0.7190369963645935,
                -0.12816789746284485,
                -0.6996248364448547,
                -1.4310243129730225,
                -4.885406017303467,
                -3.6673386096954346,
                1.8160884380340576,
                -1.4059572219848633,
                -0.001856575720012188,
                4.350376605987549,
                3.9961390495300293,
                1.7578450441360474,
                3.529139518737793,
                -3.973416805267334,
                -1.5206283330917358,
                -2.501476287841797,
                -1.8450794219970703,
                0.07249294966459274,
                0.9124060273170471
            ],
            [
                -0.754089891910553,
                0.6923173069953918,
                3.080219268798828,
                7.635739803314209,
                -4.707991600036621,
                -0.8965438008308411,
                0.3200760781764984,
                -0.8754485845565796,
                -0.7917464375495911,
                -1.512459397315979,
                -0.1497911661863327,
                0.3218540549278259,
                -0.023005014285445213,
                -1.3429069519042969,
                -0.8634527921676636,
                0.29435133934020996,
                0.24214553833007812,
                1.3537747859954834,
                0.3998941481113434,
                -0.6674143075942993,
                0.6833336353302002,
                -0.12662175297737122,
                -0.6820192933082581,
                -1.466755986213684,
                -4.882170677185059,
                -3.6890408992767334,
                1.8096126317977905,
                -1.4986668825149536,
                0.03819432854652405,
                5.06902551651001,
                3.917073965072632,
                1.7173274755477905,
                2.8450801372528076,
                -4.005093574523926,
                -1.6103934049606323,
                -2.5141091346740723,
                -1.82670259475708,
                0.06325695663690567,
                0.8174282908439636
            ],
            [
                -0.7230710983276367,
                0.7330449223518372,
                3.0540785789489746,
                7.635249137878418,
                -4.714780330657959,
                -0.8896885514259338,
                0.32996606826782227,
                -0.8820151686668396,
                -0.7664400339126587,
                -1.5026061534881592,
                -0.1275467872619629,
                0.3526204228401184,
                -0.026352304965257645,
                -1.3803503513336182,
                -0.887179970741272,
                0.28832006454467773,
                0.2721749246120453,
                1.373856544494629,
                0.36936646699905396,
                -0.6756325960159302,
                0.6776479482650757,
                -0.11042161285877228,
                -0.720031201839447,
                -1.5104535818099976,
                -4.913008213043213,
                -3.673640489578247,
                1.807186484336853,
                -1.439510464668274,
                0.059770043939352036,
                5.039431095123291,
                4.132002353668213,
                1.9222450256347656,
                2.9282467365264893,
                -4.07429838180542,
                -1.6928017139434814,
                -2.537963628768921,
                -1.828364372253418,
                0.029362579807639122,
                0.7130090594291687
            ]
        ],
        "tmit": [
            [
                0.772594690322876,
                0.9103067517280579,
                0.8956602811813354,
                0.9302990436553955,
                0.9541277885437012,
                0.8152619004249573,
                0.922579824924469,
                0.597328245639801,
                0.8878337740898132,
                1.3815491199493408,
                0.8424476385116577,
                1.3585723638534546,
                1.8180737495422363,
                0.9052329659461975,
                0.9709576368331909,
                0.9352208971977234,
                0.6672989726066589,
                0.8917248845100403,
                0.7535285353660583,
                0.5496532917022705,
                0.5168166160583496,
                0.5247004628181458,
                0.44735708832740784,
                0.4344608187675476,
                0.09869951009750366,
                0.23168206214904785,
                0.26713448762893677,
                0.26972484588623047,
                0.259829580783844,
                0.20316094160079956,
                0.24719439446926117,
                0.9608423113822937,
                0.31858181953430176,
                0.28859826922416687,
                0.15404781699180603,
                0.09939689189195633,
                0.21606186032295227,
                0.19936247169971466,
                0.22939929366111755
            ],
            [
                0.7730812430381775,
                0.906882107257843,
                0.8977230191230774,
                0.9323284029960632,
                0.9549181461334229,
                0.8159793615341187,
                0.9241037368774414,
                0.5987839102745056,
                0.8901121616363525,
                1.3827663660049438,
                0.8429080247879028,
                1.3618168830871582,
                1.820700764656067,
                0.9034613966941833,
                0.9718990325927734,
                0.9468636512756348,
                0.6711310148239136,
                0.8951953053474426,
                0.7531483769416809,
                0.5510793924331665,
                0.517098069190979,
                0.5253845453262329,
                0.4491233825683594,
                0.43674033880233765,
                0.10169995576143265,
                0.23862576484680176,
                0.27632617950439453,
                0.2759782373905182,
                0.266698956489563,
                0.20567888021469116,
                0.2558501660823822,
                0.9861609935760498,
                0.3584721088409424,
                0.289105087518692,
                0.15452760457992554,
                0.10212644934654236,
                0.22165630757808685,
                0.2051427960395813,
                0.23501089215278625
            ],
            [
                0.7662248611450195,
                0.8998337984085083,
                0.8894414901733398,
                0.92097407579422,
                0.9450624585151672,
                0.8077758550643921,
                0.9150497317314148,
                0.594602644443512,
                0.8833130598068237,
                1.3770254850387573,
                0.8370453119277954,
                1.3544762134552002,
                1.8106778860092163,
                0.8946988582611084,
                0.9620368480682373,
                0.929928719997406,
                0.6644167304039001,
                0.8843104839324951,
                0.7461550235748291,
                0.5459551215171814,
                0.5132555961608887,
                0.5212809443473816,
                0.44193199276924133,
                0.4326941668987274,
                0.10113465785980225,
                0.23817910254001617,
                0.27541711926460266,
                0.2760651111602783,
                0.2667597234249115,
                0.1983049362897873,
                0.2502857446670532,
                0.9764644503593445,
                0.357726514339447,
                0.2864583134651184,
                0.15298160910606384,
                0.10164986550807953,
                0.2207062989473343,
                0.20560729503631592,
                0.23332065343856812
            ]
        ]
    },
    "icts": {
        "names": [
            "gun:GUNcharge",
            "l0:L0charge",
            "linacbt:LNEcharge",
            "linacbt:BTMcharge",
            "ext:EXTcharge",
            "linacbt:BTEcharge",
            "BIM:DR:nparticles",
            "BIM:IP:nparticles"
        ],
        "charge": [
            0.5414807345199999,
            0.5907167387500001,
            0.42042020833333327,
            0.36478,
            0.14807020803749998,
            0.3112125694444444,
            0.13120079040527344,
            0.1404116451740265
        ]
    },
    "hcorrectors_names": [
        "ZH1L",
        "ZH2L",
        "ZH3L",
        "ZH4L",
        "ZH5L",
        "ZH6L",
        "ZH7L",
        "ZH8L",
        "ZH9L",
        "ZH10L",
        "ZH11L",
        "ZH12L",
        "ZH30T",
        "ZH40T",
        "ZH50T"
    ],
    "vcorrectors_names": [
        "ZV1L",
        "ZV2L",
        "ZV3L",
        "ZV4L",
        "ZV5L",
        "ZV6L",
        "ZV7L",
        "ZV8L",
        "ZV9L",
        "ZV10L",
        "ZV11L",
        "ZV12L",
        "ZV13L",
        "ZV30T",
        "ZV40T",
        "ZV50T",
        "ZV51T"
    ],
    "timestamp": "2024/05/24, 15:06:26"
}