{
    "sequence": [
        "MB5L",
        "MB6L",
        "MB7L",
        "ZH1L",
        "ZV1L",
        "MB8L",
        "MB9L",
        "MB10L",
        "ZV2L",
        "ZH2L",
        "MB11L",
        "ML1L",
        "ML2L",
        "ZV3L",
        "ZH3L",
        "ML3L",
        "ZH4L",
        "ZV4L",
        "ZH5L",
        "ZV5L",
        "ML4L",
        "ZH6L",
        "ZV6L",
        "ML5L",
        "ZH7L",
        "ZV7L",
        "ML6L",
        "ZH8L",
        "ZV8L",
        "ML7L",
        "ZH9L",
        "ML8L",
        "ZV9L",
        "ML9L",
        "ZH10L",
        "ML10L",
        "ZV10L",
        "ML11L",
        "ZH11L",
        "ML12L",
        "ZV11L",
        "ML13L",
        "ZH12L",
        "ML14L",
        "ZV12L",
        "ML15L",
        "ZX10T",
        "ZX11T",
        "ML1T",
        "ZV13L",
        "ZX12T",
        "ML2T",
        "ZY20T",
        "ZY21T",
        "ML101T",
        "ML102T",
        "ZY22T",
        "ZY23T",
        "ML103T",
        "ZX30T",
        "ML3T",
        "ZX31T",
        "ZV30T",
        "ZH30T",
        "ML104T",
        "ZX32T",
        "ML4T",
        "ML105T",
        "ZV40T",
        "ZH40T",
        "ML5T",
        "ML6T",
        "ZX50T",
        "ML106T",
        "ZX50T",
        "ML7T",
        "ZX51T",
        "ZV50T",
        "ML8T",
        "ZH50T",
        "ZV51T",
        "ML9T",
        "MB10T",
        "MB11T"
    ],
    "correctors": {
        "names": [
            "ZH1L",
            "ZV1L",
            "ZV2L",
            "ZH2L",
            "ZV3L",
            "ZH3L",
            "ZH4L",
            "ZV4L",
            "ZH5L",
            "ZV5L",
            "ZH6L",
            "ZV6L",
            "ZH7L",
            "ZV7L",
            "ZH8L",
            "ZV8L",
            "ZH9L",
            "ZV9L",
            "ZH10L",
            "ZV10L",
            "ZH11L",
            "ZV11L",
            "ZH12L",
            "ZV12L",
            "ZX10T",
            "ZX11T",
            "ZV13L",
            "ZX12T",
            "ZY20T",
            "ZY21T",
            "ZY22T",
            "ZY23T",
            "ZX30T",
            "ZX31T",
            "ZV30T",
            "ZH30T",
            "ZX32T",
            "ZV40T",
            "ZH40T",
            "ZX50T",
            "ZX50T",
            "ZX51T",
            "ZV50T",
            "ZH50T",
            "ZV51T"
        ],
        "bdes": [
            1.6058,
            0.32324,
            -3.694e-05,
            0.05,
            -0.018255,
            -0.0023425,
            -0.63212,
            -0.51377,
            0.0067611,
            0.025597,
            -0.089344,
            -0.23399,
            -0.34279,
            0.0008922,
            0.095066,
            -0.1336,
            -0.39271,
            -0.072191,
            -0.21644,
            -0.41065,
            0.09808,
            0.37969,
            0.043499,
            -1.9481138705009369,
            -0.5,
            0.81,
            -0.69,
            0.9,
            0.34,
            -0.25,
            -1.26,
            -1.47,
            0.0,
            0.0,
            0.09,
            -1.79,
            2.05,
            -1.5,
            -2.1085,
            1.29,
            1.29,
            -1.7,
            0.38,
            1.35,
            0.08
        ],
        "bact": [
            1.6047874689102173,
            0.3224230408668518,
            -0.00488519761711359,
            0.04885197803378105,
            -0.02198338881134987,
            -0.00488519761711359,
            -0.6350756883621216,
            -0.5178309679031372,
            0.00488519761711359,
            0.024425989016890526,
            -0.09281875938177109,
            -0.23693208396434784,
            -0.3468490242958069,
            0.0,
            0.09281875938177109,
            -0.13678553700447083,
            -0.39570102095603943,
            -0.07572057098150253,
            -0.21983389556407928,
            -0.4152418076992035,
            0.0977039560675621,
            0.3786028325557709,
            0.04152418300509453,
            -1.9516364336013794,
            -0.5080605745315552,
            0.8036150336265564,
            -0.6985832452774048,
            0.898876428604126,
            0.33463606238365173,
            -0.2589154839515686,
            -1.2677088975906372,
            -1.4802148342132568,
            0.0,
            0.0,
            0.08304836601018906,
            -1.797752857208252,
            2.044455051422119,
            -1.5095261335372925,
            -2.1128480434417725,
            1.2848069667816162,
            1.2848069667816162,
            -1.7073765993118286,
            0.37371763586997986,
            1.343429446220398,
            0.07572057098150253
        ]
    },
    "bpms": {
        "names": [
            "MB5L",
            "MB6L",
            "MB7L",
            "MB8L",
            "MB9L",
            "MB10L",
            "MB11L",
            "ML1L",
            "ML2L",
            "ML3L",
            "ML4L",
            "ML5L",
            "ML6L",
            "ML7L",
            "ML8L",
            "ML9L",
            "ML10L",
            "ML11L",
            "ML12L",
            "ML13L",
            "ML14L",
            "ML15L",
            "ML1T",
            "ML2T",
            "ML101T",
            "ML102T",
            "ML103T",
            "ML3T",
            "ML104T",
            "ML4T",
            "ML105T",
            "ML5T",
            "ML6T",
            "ML106T",
            "ML7T",
            "ML8T",
            "ML9T",
            "MB10T",
            "MB11T"
        ],
        "x": [
            [
                -1.1440571546554565,
                0.5780210494995117,
                0.05612734705209732,
                -7.980521202087402,
                1.4553797245025635,
                1.1644113063812256,
                0.041863713413476944,
                -2.3622310161590576,
                -0.8563827872276306,
                0.3603020906448364,
                -0.19916747510433197,
                -0.5355932116508484,
                0.5597859621047974,
                -1.192423939704895,
                0.42455142736434937,
                -6.432636260986328,
                -2.7694509029388428,
                -0.709050178527832,
                -1.0363441705703735,
                -0.24599727988243103,
                -0.39761146903038025,
                -0.9581588506698608,
                -6.425312519073486,
                2.2461628913879395,
                -3.4809391498565674,
                1.0192331075668335,
                1.0118986368179321,
                0.4051837623119354,
                0.977744996547699,
                -2.7515945434570312,
                -6.116870403289795,
                -2.634270668029785,
                0.7235038876533508,
                -4.202296257019043,
                -0.35891443490982056,
                -1.68873929977417,
                -2.448824167251587,
                1.8261191844940186,
                -3.1392767429351807
            ],
            [
                -1.165632724761963,
                0.7041311860084534,
                0.07780663669109344,
                -7.973122596740723,
                1.4404667615890503,
                1.141579270362854,
                0.0009814574150368571,
                -2.4486751556396484,
                -0.8390110731124878,
                0.3882249593734741,
                -0.17524603009223938,
                -0.4456479251384735,
                0.566813051700592,
                -1.2597812414169312,
                0.463248610496521,
                -6.425523281097412,
                -2.8994815349578857,
                -0.7240359783172607,
                -1.053821086883545,
                -0.24319173395633698,
                -0.3624263405799866,
                -0.9832639098167419,
                -6.452780246734619,
                2.2434232234954834,
                -3.6225178241729736,
                0.9564804434776306,
                0.9938730001449585,
                0.42780381441116333,
                1.0706919431686401,
                -2.504800796508789,
                -6.33065938949585,
                -2.4581148624420166,
                1.1343083381652832,
                -4.264307022094727,
                -0.3743777573108673,
                -1.6656036376953125,
                -2.48260760307312,
                1.8115262985229492,
                -3.0288193225860596
            ],
            [
                -1.153952956199646,
                0.6282537579536438,
                0.11994893103837967,
                -7.923981189727783,
                1.5012694597244263,
                1.2000316381454468,
                0.04978879168629646,
                -2.36125111579895,
                -0.9295104146003723,
                0.2867995798587799,
                -0.21964208781719208,
                -0.33719703555107117,
                0.5552219748497009,
                -1.255772590637207,
                0.34280410408973694,
                -6.40741491317749,
                -2.8644275665283203,
                -0.6968306303024292,
                -0.9502032399177551,
                -0.18943284451961517,
                -0.2841503322124481,
                -0.9114930033683777,
                -6.416494369506836,
                2.224534511566162,
                -3.4327144622802734,
                0.9854153990745544,
                0.9953474402427673,
                0.40793484449386597,
                1.1030173301696777,
                -2.548100471496582,
                -6.089285373687744,
                -2.630527973175049,
                0.37682610750198364,
                -4.2194623947143555,
                -0.41119077801704407,
                -1.6996197700500488,
                -2.454557180404663,
                1.8193624019622803,
                -3.1245875358581543
            ]
        ],
        "y": [
            [
                -0.733102560043335,
                0.7372320294380188,
                3.0573925971984863,
                7.617985725402832,
                -4.712325572967529,
                -0.875717282295227,
                0.3081348240375519,
                -0.8792955279350281,
                -0.7498246431350708,
                -1.4883688688278198,
                -0.10605934262275696,
                0.36804473400115967,
                -0.024608256295323372,
                -1.362029790878296,
                -0.8514261841773987,
                0.2371138334274292,
                0.19190771877765656,
                1.3344186544418335,
                0.36216649413108826,
                -0.6929855346679688,
                0.6865078806877136,
                -0.2990361750125885,
                -1.0325759649276733,
                -1.5768250226974487,
                -3.6929128170013428,
                -2.8474998474121094,
                0.8129372596740723,
                -1.0065813064575195,
                -1.351243019104004,
                4.339369297027588,
                3.5172066688537598,
                1.7030518054962158,
                2.3160054683685303,
                -3.6870462894439697,
                -0.8842843770980835,
                -1.6931685209274292,
                -0.643487811088562,
                -0.3431010842323303,
                2.056720733642578
            ],
            [
                -0.7689655423164368,
                0.7149078249931335,
                3.0839834213256836,
                7.632713794708252,
                -4.772773265838623,
                -0.8761231303215027,
                0.3438452482223511,
                -0.8813437223434448,
                -0.7860057353973389,
                -1.5085198879241943,
                -0.15873752534389496,
                0.3350178897380829,
                -0.02803095057606697,
                -1.3938068151474,
                -0.854046642780304,
                0.2728489637374878,
                0.22868244349956512,
                1.3943547010421753,
                0.3508285582065582,
                -0.7267774343490601,
                0.6711559891700745,
                -0.2785108983516693,
                -1.0409047603607178,
                -1.5497075319290161,
                -3.673502206802368,
                -2.813127279281616,
                0.7916443943977356,
                -1.029348373413086,
                -1.3953276872634888,
                4.448826313018799,
                3.41998291015625,
                1.7876793146133423,
                2.581251859664917,
                -3.665074348449707,
                -0.8412235975265503,
                -1.6825964450836182,
                -0.5275497436523438,
                -0.37063607573509216,
                2.233668327331543
            ],
            [
                -0.7481958270072937,
                0.7621700167655945,
                3.0861458778381348,
                7.6518731117248535,
                -4.704282283782959,
                -0.8946489095687866,
                0.32312092185020447,
                -0.8694048523902893,
                -0.7966232895851135,
                -1.5061626434326172,
                -0.1719590723514557,
                0.3293078541755676,
                -0.025597412139177322,
                -1.3551326990127563,
                -0.8466418385505676,
                0.2616584300994873,
                0.12301092594861984,
                1.377219557762146,
                0.3673018515110016,
                -0.6823643445968628,
                0.6696229577064514,
                -0.277030348777771,
                -1.0696959495544434,
                -1.5839601755142212,
                -3.651174783706665,
                -2.8335537910461426,
                0.8159019947052002,
                -0.9346769452095032,
                -1.4072426557540894,
                4.471057891845703,
                3.784759283065796,
                1.9399614334106445,
                1.5437407493591309,
                -3.696925640106201,
                -0.8171373605728149,
                -1.6652933359146118,
                -0.5768231749534607,
                -0.30660268664360046,
                2.050931215286255
            ]
        ],
        "tmit": [
            [
                0.766707181930542,
                0.8989890813827515,
                0.8885969519615173,
                0.9219293594360352,
                0.94649338722229,
                0.8083217144012451,
                0.9146720767021179,
                0.5949325561523438,
                0.8816007375717163,
                1.3747422695159912,
                0.8370375633239746,
                1.347435712814331,
                1.8131864070892334,
                0.8963577747344971,
                0.9628298282623291,
                0.8935186266899109,
                0.691414475440979,
                0.8831826448440552,
                0.7380038499832153,
                0.5421255826950073,
                0.5084373950958252,
                0.5194830298423767,
                0.4483664035797119,
                0.4309844970703125,
                0.07800076901912689,
                0.19537992775440216,
                0.2241053283214569,
                0.2272539585828781,
                0.22602982819080353,
                0.1596367359161377,
                0.1816578358411789,
                0.6413964629173279,
                0.35921773314476013,
                0.28127729892730713,
                0.15244850516319275,
                0.08531586825847626,
                0.1843423843383789,
                0.1687059998512268,
                0.19424232840538025
            ],
            [
                0.7298105955123901,
                0.8587008714675903,
                0.8499857783317566,
                0.8819732666015625,
                0.9062210917472839,
                0.775334894657135,
                0.8782970309257507,
                0.5757904648780823,
                0.8504881262779236,
                1.3382714986801147,
                0.8070594072341919,
                1.3141494989395142,
                1.7730525732040405,
                0.8639662861824036,
                0.9298197627067566,
                0.8549916744232178,
                0.6657021045684814,
                0.8471233248710632,
                0.711329460144043,
                0.5268272757530212,
                0.4907538890838623,
                0.5011149644851685,
                0.4296940565109253,
                0.41098153591156006,
                0.07295653969049454,
                0.18262949585914612,
                0.20885318517684937,
                0.2101440280675888,
                0.21247343719005585,
                0.14902545511722565,
                0.1659950166940689,
                0.5880657434463501,
                0.3260379433631897,
                0.27001428604125977,
                0.14626452326774597,
                0.07998674362897873,
                0.17151737213134766,
                0.1592097282409668,
                0.18058517575263977
            ],
            [
                0.7645514607429504,
                0.9035509824752808,
                0.8919693827629089,
                0.9253337383270264,
                0.9488871693611145,
                0.8111755847930908,
                0.9175156354904175,
                0.5964037775993347,
                0.8854864835739136,
                1.3788565397262573,
                0.8379713296890259,
                1.358058214187622,
                1.8153140544891357,
                0.9006253480911255,
                0.963836669921875,
                0.9053730368614197,
                0.6969074010848999,
                0.8874576687812805,
                0.7397801280021667,
                0.54510098695755,
                0.5109743475914001,
                0.5221878886222839,
                0.4498172700405121,
                0.4311554729938507,
                0.07739198207855225,
                0.19347141683101654,
                0.2241053283214569,
                0.2276882380247116,
                0.22274711728096008,
                0.15873748064041138,
                0.18124566972255707,
                0.6360095143318176,
                0.4173755347728729,
                0.28324830532073975,
                0.1531415432691574,
                0.08449266850948334,
                0.1820201575756073,
                0.16591905057430267,
                0.19275490939617157
            ]
        ]
    },
    "icts": {
        "names": [
            "gun:GUNcharge",
            "l0:L0charge",
            "linacbt:LNEcharge",
            "linacbt:BTMcharge",
            "ext:EXTcharge",
            "linacbt:BTEcharge",
            "BIM:DR:nparticles",
            "BIM:IP:nparticles"
        ],
        "charge": [
            0.53243139755,
            0.58143277,
            0.4127339583333333,
            0.30576000000000003,
            0.21542740308833333,
            0.2554945138888889,
            0.19278092682361603,
            0.1910489946603775
        ]
    },
    "hcorrectors_names": [
        "ZH1L",
        "ZH2L",
        "ZH3L",
        "ZH4L",
        "ZH5L",
        "ZH6L",
        "ZH7L",
        "ZH8L",
        "ZH9L",
        "ZH10L",
        "ZH11L",
        "ZH12L",
        "ZH30T",
        "ZH40T",
        "ZH50T"
    ],
    "vcorrectors_names": [
        "ZV1L",
        "ZV2L",
        "ZV3L",
        "ZV4L",
        "ZV5L",
        "ZV6L",
        "ZV7L",
        "ZV8L",
        "ZV9L",
        "ZV10L",
        "ZV11L",
        "ZV12L",
        "ZV13L",
        "ZV30T",
        "ZV40T",
        "ZV50T",
        "ZV51T"
    ],
    "timestamp": "2024/05/24, 15:08:36"
}