{
    "sequence": [
        "MB5L",
        "MB6L",
        "MB7L",
        "ZH1L",
        "ZV1L",
        "MB8L",
        "MB9L",
        "MB10L",
        "ZV2L",
        "ZH2L",
        "MB11L",
        "ML1L",
        "ML2L",
        "ZV3L",
        "ZH3L",
        "ML3L",
        "ZH4L",
        "ZV4L",
        "ZH5L",
        "ZV5L",
        "ML4L",
        "ZH6L",
        "ZV6L",
        "ML5L",
        "ZH7L",
        "ZV7L",
        "ML6L",
        "ZH8L",
        "ZV8L",
        "ML7L",
        "ZH9L",
        "ML8L",
        "ZV9L",
        "ML9L",
        "ZH10L",
        "ML10L",
        "ZV10L",
        "ML11L",
        "ZH11L",
        "ML12L",
        "ZV11L",
        "ML13L",
        "ZH12L",
        "ML14L",
        "ZV12L",
        "ML15L",
        "ZX10T",
        "ZX11T",
        "ML1T",
        "ZV13L",
        "ZX12T",
        "ML2T",
        "ZY20T",
        "ZY21T",
        "ML101T",
        "ML102T",
        "ZY22T",
        "ZY23T",
        "ML103T",
        "ZX30T",
        "ML3T",
        "ZX31T",
        "ZV30T",
        "ZH30T",
        "ML104T",
        "ZX32T",
        "ML4T",
        "ML105T",
        "ZV40T",
        "ZH40T",
        "ML5T",
        "ML6T",
        "ZX50T",
        "ML106T",
        "ZX50T",
        "ML7T",
        "ZX51T",
        "ZV50T",
        "ML8T",
        "ZH50T",
        "ZV51T",
        "ML9T",
        "MB10T",
        "MB11T"
    ],
    "correctors": {
        "names": [
            "ZH1L",
            "ZV1L",
            "ZV2L",
            "ZH2L",
            "ZV3L",
            "ZH3L",
            "ZH4L",
            "ZV4L",
            "ZH5L",
            "ZV5L",
            "ZH6L",
            "ZV6L",
            "ZH7L",
            "ZV7L",
            "ZH8L",
            "ZV8L",
            "ZH9L",
            "ZV9L",
            "ZH10L",
            "ZV10L",
            "ZH11L",
            "ZV11L",
            "ZH12L",
            "ZV12L",
            "ZX10T",
            "ZX11T",
            "ZV13L",
            "ZX12T",
            "ZY20T",
            "ZY21T",
            "ZY22T",
            "ZY23T",
            "ZX30T",
            "ZX31T",
            "ZV30T",
            "ZH30T",
            "ZX32T",
            "ZV40T",
            "ZH40T",
            "ZX50T",
            "ZX50T",
            "ZX51T",
            "ZV50T",
            "ZH50T",
            "ZV51T"
        ],
        "bdes": [
            1.6058,
            0.32324,
            -3.694e-05,
            0.05,
            -0.018255,
            -0.0023425,
            -0.63212,
            -0.51377,
            0.0067611,
            0.025597,
            -0.089344,
            -0.23399,
            -0.34279,
            0.0008922,
            0.095066,
            -0.1336,
            -0.39271,
            -0.072191,
            -0.3278333278745176,
            -0.41065,
            0.09808,
            0.37969,
            0.043499,
            -1.4308,
            -0.5,
            0.81,
            -0.69,
            0.9,
            0.34,
            -0.25,
            -1.26,
            -1.47,
            0.0,
            0.0,
            0.09,
            -1.79,
            2.05,
            -1.5,
            -2.1085,
            1.29,
            1.29,
            -1.7,
            0.38,
            1.35,
            0.08
        ],
        "bact": [
            1.6047874689102173,
            0.3224230408668518,
            -0.00488519761711359,
            0.04885197803378105,
            -0.02198338881134987,
            -0.00488519761711359,
            -0.6350756883621216,
            -0.5178309679031372,
            0.00488519761711359,
            0.024425989016890526,
            -0.09281875938177109,
            -0.23693208396434784,
            -0.3468490242958069,
            0.0,
            0.09281875938177109,
            -0.13678553700447083,
            -0.39570102095603943,
            -0.07572057098150253,
            -0.3321934640407562,
            -0.4152418076992035,
            0.0977039560675621,
            0.3786028325557709,
            0.04152418300509453,
            -1.4338055849075317,
            -0.5080605745315552,
            0.8036150336265564,
            -0.6985832452774048,
            0.898876428604126,
            0.33463606238365173,
            -0.2589154839515686,
            -1.2677088975906372,
            -1.4802148342132568,
            0.0,
            0.0,
            0.08304836601018906,
            -1.797752857208252,
            2.044455051422119,
            -1.5095261335372925,
            -2.1128480434417725,
            1.2848069667816162,
            1.2848069667816162,
            -1.7073765993118286,
            0.37371763586997986,
            1.343429446220398,
            0.07572057098150253
        ]
    },
    "bpms": {
        "names": [
            "MB5L",
            "MB6L",
            "MB7L",
            "MB8L",
            "MB9L",
            "MB10L",
            "MB11L",
            "ML1L",
            "ML2L",
            "ML3L",
            "ML4L",
            "ML5L",
            "ML6L",
            "ML7L",
            "ML8L",
            "ML9L",
            "ML10L",
            "ML11L",
            "ML12L",
            "ML13L",
            "ML14L",
            "ML15L",
            "ML1T",
            "ML2T",
            "ML101T",
            "ML102T",
            "ML103T",
            "ML3T",
            "ML104T",
            "ML4T",
            "ML105T",
            "ML5T",
            "ML6T",
            "ML106T",
            "ML7T",
            "ML8T",
            "ML9T",
            "MB10T",
            "MB11T"
        ],
        "x": [
            [
                -1.1531078815460205,
                0.6496992111206055,
                0.091702401638031,
                -7.943875312805176,
                1.4839198589324951,
                1.1953730583190918,
                0.03646598756313324,
                -2.3384957313537598,
                -0.9129413366317749,
                0.3207513093948364,
                -0.2307766228914261,
                -0.32739877700805664,
                0.5371736884117126,
                -1.1700843572616577,
                0.3517954647541046,
                -6.365539073944092,
                -2.8316080570220947,
                -1.6094881296157837,
                -2.541461706161499,
                -1.1842588186264038,
                -2.3464484214782715,
                -2.2014293670654297,
                -6.7099738121032715,
                3.4737000465393066,
                -4.193305969238281,
                -0.04315374046564102,
                0.09588143974542618,
                1.347731590270996,
                0.5250182151794434,
                -2.7527220249176025,
                -5.942192554473877,
                -2.5411109924316406,
                1.1829211711883545,
                -3.316254138946533,
                0.14547981321811676,
                -1.5346359014511108,
                -1.5385750532150269,
                -0.18286912143230438,
                -3.135425329208374
            ],
            [
                -1.1611526012420654,
                0.6281690001487732,
                0.12897585332393646,
                -7.920997619628906,
                1.4821207523345947,
                1.1814254522323608,
                0.04950929060578346,
                -2.375685453414917,
                -0.9285892844200134,
                0.27760186791419983,
                -0.23154564201831818,
                -0.4634706676006317,
                0.542732298374176,
                -1.2334723472595215,
                0.31825894117355347,
                -6.4484124183654785,
                -2.9043781757354736,
                -1.6217833757400513,
                -2.556379556655884,
                -1.2329012155532837,
                -2.348238945007324,
                -2.2115557193756104,
                -6.714107513427734,
                3.4783239364624023,
                -4.0786027908325195,
                -0.05864569917321205,
                0.09123943001031876,
                1.4624366760253906,
                0.541629433631897,
                -2.806755781173706,
                -5.772377014160156,
                -2.4292664527893066,
                1.392976999282837,
                -3.2844345569610596,
                0.16217225790023804,
                -1.5085822343826294,
                -1.4869064092636108,
                -0.20596033334732056,
                -3.119079351425171
            ],
            [
                -1.132744312286377,
                0.5966978073120117,
                0.12671005725860596,
                -7.894158363342285,
                1.4643434286117554,
                1.196228265762329,
                0.05054088309407234,
                -2.346790075302124,
                -0.943062961101532,
                0.28528696298599243,
                -0.24436888098716736,
                -0.4494653642177582,
                0.5312256217002869,
                -1.176665186882019,
                0.36482492089271545,
                -6.3049516677856445,
                -2.659294843673706,
                -1.6050364971160889,
                -2.7075297832489014,
                -1.2837494611740112,
                -2.556307077407837,
                -2.3266139030456543,
                -6.7252349853515625,
                3.535820484161377,
                -4.151142597198486,
                -0.05661945417523384,
                0.06155255064368248,
                1.5288608074188232,
                0.49154266715049744,
                -2.6768813133239746,
                -5.723694801330566,
                -2.42020583152771,
                1.3657890558242798,
                -3.2035882472991943,
                0.2902292013168335,
                -1.4045064449310303,
                -1.3862918615341187,
                -0.2448032796382904,
                -3.0705034732818604
            ]
        ],
        "y": [
            [
                -0.7383838295936584,
                0.6629942655563354,
                3.0306293964385986,
                7.590946674346924,
                -4.707974910736084,
                -0.860725998878479,
                0.3470718264579773,
                -0.8829459547996521,
                -0.8305988311767578,
                -1.5261551141738892,
                -0.21516573429107666,
                0.2986231744289398,
                -0.040815457701683044,
                -1.2941166162490845,
                -0.8370962142944336,
                0.2837005853652954,
                0.32816603779792786,
                1.3869006633758545,
                0.3780158758163452,
                -0.6699166893959045,
                0.6781283617019653,
                -0.16003482043743134,
                -0.5750115513801575,
                -1.414836049079895,
                -4.841383457183838,
                -3.649915933609009,
                1.8928619623184204,
                -1.4252300262451172,
                -0.0789198949933052,
                4.975498676300049,
                4.116375923156738,
                1.9596705436706543,
                2.2904038429260254,
                -3.8770322799682617,
                -1.474673867225647,
                -2.5447192192077637,
                -1.7502461671829224,
                0.06428037583827972,
                0.7112459540367126
            ],
            [
                -0.8057335019111633,
                0.7250440716743469,
                3.0889699459075928,
                7.632654666900635,
                -4.654167175292969,
                -0.8816189765930176,
                0.31024783849716187,
                -0.9240370988845825,
                -0.8160710334777832,
                -1.5146973133087158,
                -0.19206684827804565,
                0.3121299743652344,
                -0.03735525161027908,
                -1.3168976306915283,
                -0.8338391184806824,
                0.27181416749954224,
                0.26876235008239746,
                1.3577659130096436,
                0.37118053436279297,
                -0.6810768842697144,
                0.6621376276016235,
                -0.12058208882808685,
                -0.5637071132659912,
                -1.4633079767227173,
                -4.813523769378662,
                -3.64717960357666,
                1.80283522605896,
                -1.3958384990692139,
                0.03322139382362366,
                5.007430553436279,
                4.026854515075684,
                1.9150211811065674,
                2.6010167598724365,
                -3.836698055267334,
                -1.5190879106521606,
                -2.5078094005584717,
                -1.7703707218170166,
                0.02106883004307747,
                0.8754657506942749
            ],
            [
                -0.7602123618125916,
                0.7099159359931946,
                3.0879945755004883,
                7.6129069328308105,
                -4.65950345993042,
                -0.8772174119949341,
                0.32387983798980713,
                -0.9046015739440918,
                -0.848716139793396,
                -1.5276976823806763,
                -0.23514416813850403,
                0.30948084592819214,
                -0.03628206625580788,
                -1.29952073097229,
                -0.7877330780029297,
                0.2697872221469879,
                0.16215163469314575,
                1.3898253440856934,
                0.37624332308769226,
                -0.6406552791595459,
                0.6388159394264221,
                -0.14619426429271698,
                -0.5812800526618958,
                -1.429080843925476,
                -4.823610305786133,
                -3.6200482845306396,
                1.7822046279907227,
                -1.4267284870147705,
                0.05292854085564613,
                5.080896377563477,
                3.859098196029663,
                1.9030381441116333,
                2.3975656032562256,
                -3.869734764099121,
                -1.556093692779541,
                -2.50048828125,
                -1.7626057863235474,
                0.038693662732839584,
                0.6996275782585144
            ]
        ],
        "tmit": [
            [
                0.792303204536438,
                0.9340330362319946,
                0.9204270839691162,
                0.9534131288528442,
                0.979116678237915,
                0.836001992225647,
                0.9455815553665161,
                0.6102520823478699,
                0.9100054502487183,
                1.4043705463409424,
                0.8588421940803528,
                1.3879342079162598,
                1.8459361791610718,
                0.9280197024345398,
                0.9894685745239258,
                0.9436883330345154,
                0.7068489789962769,
                0.9091625809669495,
                0.738857090473175,
                0.5525019764900208,
                0.5293633937835693,
                0.533359169960022,
                0.5055819749832153,
                0.45093050599098206,
                0.09965617209672928,
                0.24370159208774567,
                0.27895238995552063,
                0.28422921895980835,
                0.27022483944892883,
                0.20657813549041748,
                0.22699759900569916,
                0.7922309041023254,
                0.40544575452804565,
                0.2884293496608734,
                0.15788614749908447,
                0.10398947447538376,
                0.21780352294445038,
                0.20555569231510162,
                0.23568697273731232
            ],
            [
                0.7870246767997742,
                0.9262545108795166,
                0.9145278334617615,
                0.9483628273010254,
                0.972888708114624,
                0.8312071561813354,
                0.9404923319816589,
                0.6060150861740112,
                0.9033641219139099,
                1.3994780778884888,
                0.8542544841766357,
                1.3742955923080444,
                1.8417487144470215,
                0.9227564930915833,
                0.9835655689239502,
                0.9286586046218872,
                0.7030998468399048,
                0.9020557403564453,
                0.7324656844139099,
                0.5506015419960022,
                0.5265727043151855,
                0.5304964184761047,
                0.5024909377098083,
                0.44705528020858765,
                0.0993952602148056,
                0.2420773208141327,
                0.27622517943382263,
                0.28040772676467896,
                0.27004244923591614,
                0.20513932406902313,
                0.23132547736167908,
                0.7863052487373352,
                0.37860366702079773,
                0.2867961525917053,
                0.15697987377643585,
                0.10372952371835709,
                0.21611462533473969,
                0.20545245707035065,
                0.23440240323543549
            ],
            [
                0.8008931875228882,
                0.9414252042770386,
                0.9272400736808777,
                0.9611072540283203,
                0.98509681224823,
                0.8417863845825195,
                0.9520840048789978,
                0.6118148565292358,
                0.9117966294288635,
                1.4098974466323853,
                0.8648155927658081,
                1.3851679563522339,
                1.8543282747268677,
                0.9312466979026794,
                0.9958223700523376,
                0.941994845867157,
                0.719598650932312,
                0.9164254665374756,
                0.7391957640647888,
                0.5561314225196838,
                0.5322074890136719,
                0.5364539623260498,
                0.5077267289161682,
                0.4535519480705261,
                0.10270010679960251,
                0.25052347779273987,
                0.2874370217323303,
                0.2926539182662964,
                0.27745896577835083,
                0.21341250836849213,
                0.23606553673744202,
                0.7981564998626709,
                0.41364747285842896,
                0.29113245010375977,
                0.15900565683841705,
                0.10749891400337219,
                0.22440074384212494,
                0.21138764917850494,
                0.24258317053318024
            ]
        ]
    },
    "icts": {
        "names": [
            "gun:GUNcharge",
            "l0:L0charge",
            "linacbt:LNEcharge",
            "linacbt:BTMcharge",
            "ext:EXTcharge",
            "linacbt:BTEcharge",
            "BIM:DR:nparticles",
            "BIM:IP:nparticles"
        ],
        "charge": [
            0.528325126415,
            0.5841100075000001,
            0.40811395833333336,
            0.34525,
            0.15630227014499998,
            0.29111430555555556,
            0.1153659000992775,
            0.1459389626979828
        ]
    },
    "hcorrectors_names": [
        "ZH1L",
        "ZH2L",
        "ZH3L",
        "ZH4L",
        "ZH5L",
        "ZH6L",
        "ZH7L",
        "ZH8L",
        "ZH9L",
        "ZH10L",
        "ZH11L",
        "ZH12L",
        "ZH30T",
        "ZH40T",
        "ZH50T"
    ],
    "vcorrectors_names": [
        "ZV1L",
        "ZV2L",
        "ZV3L",
        "ZV4L",
        "ZV5L",
        "ZV6L",
        "ZV7L",
        "ZV8L",
        "ZV9L",
        "ZV10L",
        "ZV11L",
        "ZV12L",
        "ZV13L",
        "ZV30T",
        "ZV40T",
        "ZV50T",
        "ZV51T"
    ],
    "timestamp": "2024/05/24, 15:07:47"
}