{
    "sequence": [
        "MB5L",
        "MB6L",
        "MB7L",
        "ZH1L",
        "ZV1L",
        "MB8L",
        "MB9L",
        "MB10L",
        "ZV2L",
        "ZH2L",
        "MB11L",
        "ML1L",
        "ML2L",
        "ZV3L",
        "ZH3L",
        "ML3L",
        "ZH4L",
        "ZV4L",
        "ZH5L",
        "ZV5L",
        "ML4L",
        "ZH6L",
        "ZV6L",
        "ML5L",
        "ZH7L",
        "ZV7L",
        "ML6L",
        "ZH8L",
        "ZV8L",
        "ML7L",
        "ZH9L",
        "ML8L",
        "ZV9L",
        "ML9L",
        "ZH10L",
        "ML10L",
        "ZV10L",
        "ML11L",
        "ZH11L",
        "ML12L",
        "ZV11L",
        "ML13L",
        "ZH12L",
        "ML14L",
        "ZV12L",
        "ML15L",
        "ZX10T",
        "ZX11T",
        "ML1T",
        "ZV13L",
        "ZX12T",
        "ML2T",
        "ZY20T",
        "ZY21T",
        "ML101T",
        "ML102T",
        "ZY22T",
        "ZY23T",
        "ML103T",
        "ZX30T",
        "ML3T",
        "ZX31T",
        "ZV30T",
        "ZH30T",
        "ML104T",
        "ZX32T",
        "ML4T",
        "ML105T",
        "ZV40T",
        "ZH40T",
        "ML5T",
        "ML6T",
        "ZX50T",
        "ML106T",
        "ZX50T",
        "ML7T",
        "ZX51T",
        "ZV50T",
        "ML8T",
        "ZH50T",
        "ZV51T",
        "ML9T",
        "MB10T",
        "MB11T"
    ],
    "correctors": {
        "names": [
            "ZH1L",
            "ZV1L",
            "ZV2L",
            "ZH2L",
            "ZV3L",
            "ZH3L",
            "ZH4L",
            "ZV4L",
            "ZH5L",
            "ZV5L",
            "ZH6L",
            "ZV6L",
            "ZH7L",
            "ZV7L",
            "ZH8L",
            "ZV8L",
            "ZH9L",
            "ZV9L",
            "ZH10L",
            "ZV10L",
            "ZH11L",
            "ZV11L",
            "ZH12L",
            "ZV12L",
            "ZX10T",
            "ZX11T",
            "ZV13L",
            "ZX12T",
            "ZY20T",
            "ZY21T",
            "ZY22T",
            "ZY23T",
            "ZX30T",
            "ZX31T",
            "ZV30T",
            "ZH30T",
            "ZX32T",
            "ZV40T",
            "ZH40T",
            "ZX50T",
            "ZX50T",
            "ZX51T",
            "ZV50T",
            "ZH50T",
            "ZV51T"
        ],
        "bdes": [
            1.6058,
            0.32324,
            -3.694e-05,
            0.05,
            -0.018255,
            -0.0023425,
            -0.63212,
            -0.51377,
            0.0067611,
            0.025597,
            -0.089344,
            -0.3422296767462032,
            -0.34279,
            0.0008922,
            0.095066,
            -0.1336,
            -0.39271,
            -0.072191,
            -0.21644,
            -0.41065,
            0.09808,
            0.37969,
            0.043499,
            -1.4308,
            -0.5,
            0.81,
            -0.69,
            0.9,
            0.34,
            -0.25,
            -1.26,
            -1.47,
            0.0,
            0.0,
            0.09,
            -1.79,
            2.05,
            -1.5,
            -2.1085,
            1.29,
            1.29,
            -1.7,
            0.38,
            1.35,
            0.08
        ],
        "bact": [
            1.6047874689102173,
            0.3224230408668518,
            -0.00488519761711359,
            0.04885197803378105,
            -0.02198338881134987,
            -0.00488519761711359,
            -0.6350756883621216,
            -0.5178309679031372,
            0.00488519761711359,
            0.024425989016890526,
            -0.09281875938177109,
            -0.3468490242958069,
            -0.3468490242958069,
            0.0,
            0.09281875938177109,
            -0.13678553700447083,
            -0.39570102095603943,
            -0.07572057098150253,
            -0.21983389556407928,
            -0.4152418076992035,
            0.0977039560675621,
            0.3786028325557709,
            0.04152418300509453,
            -1.4338055849075317,
            -0.5080605745315552,
            0.8036150336265564,
            -0.6985832452774048,
            0.898876428604126,
            0.33463606238365173,
            -0.2589154839515686,
            -1.2677088975906372,
            -1.4802148342132568,
            0.0,
            0.0,
            0.08304836601018906,
            -1.797752857208252,
            2.044455051422119,
            -1.5095261335372925,
            -2.1128480434417725,
            1.2848069667816162,
            1.2848069667816162,
            -1.7073765993118286,
            0.37371763586997986,
            1.343429446220398,
            0.07572057098150253
        ]
    },
    "bpms": {
        "names": [
            "MB5L",
            "MB6L",
            "MB7L",
            "MB8L",
            "MB9L",
            "MB10L",
            "MB11L",
            "ML1L",
            "ML2L",
            "ML3L",
            "ML4L",
            "ML5L",
            "ML6L",
            "ML7L",
            "ML8L",
            "ML9L",
            "ML10L",
            "ML11L",
            "ML12L",
            "ML13L",
            "ML14L",
            "ML15L",
            "ML1T",
            "ML2T",
            "ML101T",
            "ML102T",
            "ML103T",
            "ML3T",
            "ML104T",
            "ML4T",
            "ML105T",
            "ML5T",
            "ML6T",
            "ML106T",
            "ML7T",
            "ML8T",
            "ML9T",
            "MB10T",
            "MB11T"
        ],
        "x": [
            [
                -1.1113520860671997,
                0.7194144129753113,
                0.16697606444358826,
                -7.922063827514648,
                1.4916177988052368,
                1.1886727809906006,
                0.03508045896887779,
                -2.3921313285827637,
                -0.9226921200752258,
                0.2988387644290924,
                -0.22635029256343842,
                -0.3364458680152893,
                0.5509923100471497,
                -1.2766642570495605,
                0.3595304489135742,
                -6.41115665435791,
                -2.871742010116577,
                -0.7242894172668457,
                -0.9762173891067505,
                -0.21752133965492249,
                -0.34511590003967285,
                -0.9283743500709534,
                -6.427916049957275,
                2.122797966003418,
                -3.405089855194092,
                1.002716302871704,
                0.9627383947372437,
                0.4047102630138397,
                0.9657307863235474,
                -2.886681079864502,
                -6.109042167663574,
                -2.637700080871582,
                1.3744101524353027,
                -4.344369888305664,
                -0.44519731402397156,
                -1.6825474500656128,
                -2.5541324615478516,
                1.8000054359436035,
                -3.064438819885254
            ],
            [
                -1.1526850461959839,
                0.7409185767173767,
                0.07517803460359573,
                -7.95503044128418,
                1.4252910614013672,
                1.1295663118362427,
                -0.011617683805525303,
                -2.4153316020965576,
                -0.8737253546714783,
                0.39016497135162354,
                -0.21545900404453278,
                -0.47921353578567505,
                0.5574971437454224,
                -1.1868314743041992,
                0.432919442653656,
                -6.338871955871582,
                -2.8287906646728516,
                -0.7879791855812073,
                -1.108576774597168,
                -0.28120261430740356,
                -0.49401965737342834,
                -1.0285251140594482,
                -6.42069673538208,
                2.407881259918213,
                -3.3667056560516357,
                0.9217329025268555,
                1.0308221578598022,
                0.4950273931026459,
                1.0198501348495483,
                -2.609433650970459,
                -6.037145614624023,
                -2.5568625926971436,
                1.6200889348983765,
                -4.118006706237793,
                -0.2524077594280243,
                -1.599218487739563,
                -2.4427711963653564,
                1.710145115852356,
                -3.0929114818573
            ],
            [
                -1.1561154127120972,
                0.6913437247276306,
                0.06260644644498825,
                -8.012290954589844,
                1.3949239253997803,
                1.1280540227890015,
                -0.020217157900333405,
                -2.42071270942688,
                -0.8287770748138428,
                0.40349557995796204,
                -0.19414949417114258,
                -0.5105708837509155,
                0.580655574798584,
                -1.2374414205551147,
                0.46484375,
                -6.296453952789307,
                -2.8694920539855957,
                -0.7686649560928345,
                -1.0922905206680298,
                -0.2584037184715271,
                -0.45174041390419006,
                -1.014701247215271,
                -6.41407585144043,
                2.3329825401306152,
                -3.4268641471862793,
                0.94969242811203,
                0.888777494430542,
                0.3383258581161499,
                0.897887110710144,
                -2.871776580810547,
                -6.218123912811279,
                -2.6085569858551025,
                1.5986649990081787,
                -4.216315746307373,
                -0.3300025761127472,
                -1.6425776481628418,
                -2.5558276176452637,
                1.819632649421692,
                -3.0771243572235107
            ]
        ],
        "y": [
            [
                -0.7843702435493469,
                0.755276083946228,
                3.1370038986206055,
                7.660165786743164,
                -4.688573837280273,
                -0.8796539306640625,
                0.3248850703239441,
                -0.9070277214050293,
                -0.8532213568687439,
                -1.5365248918533325,
                -0.228622168302536,
                0.2783215641975403,
                -0.32284456491470337,
                -2.772733211517334,
                -1.3845630884170532,
                0.23843206465244293,
                0.6895211338996887,
                3.322294235229492,
                1.9388610124588013,
                0.7075475454330444,
                0.9829108715057373,
                -0.1650330126285553,
                -1.7242376804351807,
                -2.1044998168945312,
                -4.966188907623291,
                -3.5353500843048096,
                1.8134181499481201,
                -1.4938156604766846,
                -0.2895503342151642,
                4.1978864669799805,
                3.594618082046509,
                1.6218245029449463,
                2.4703333377838135,
                -4.240184783935547,
                -1.553790807723999,
                -2.771066427230835,
                -1.7540602684020996,
                0.07890825718641281,
                1.4491794109344482
            ],
            [
                -0.7415731549263,
                0.7662379145622253,
                3.0956013202667236,
                7.693490028381348,
                -4.6781206130981445,
                -0.8728318214416504,
                0.3147205114364624,
                -0.8961780667304993,
                -0.8587806820869446,
                -1.550796389579773,
                -0.22085362672805786,
                0.26822224259376526,
                -0.3284837603569031,
                -2.8000876903533936,
                -1.364267349243164,
                0.2736060917377472,
                0.7025243639945984,
                3.2946763038635254,
                1.9537076950073242,
                0.7251522541046143,
                0.9789089560508728,
                -0.1274992823600769,
                -1.7317320108413696,
                -2.102510452270508,
                -4.938033580780029,
                -3.547410011291504,
                1.8180092573165894,
                -1.530120849609375,
                -0.25004202127456665,
                4.435621738433838,
                3.44932222366333,
                1.7814748287200928,
                2.6057801246643066,
                -4.276755332946777,
                -1.717960000038147,
                -2.7090539932250977,
                -1.7587052583694458,
                0.22222666442394257,
                1.2857290506362915
            ],
            [
                -0.7686046957969666,
                0.7111003398895264,
                3.075289249420166,
                7.655714511871338,
                -4.747074604034424,
                -0.9048886299133301,
                0.3170183002948761,
                -0.8780872821807861,
                -0.7562682628631592,
                -1.4971498250961304,
                -0.13426357507705688,
                0.3522043526172638,
                -0.30625197291374207,
                -2.8502957820892334,
                -1.4034467935562134,
                0.1401142179965973,
                0.6716054081916809,
                3.304318428039551,
                1.9516502618789673,
                0.6876322031021118,
                1.0274850130081177,
                -0.11709973961114883,
                -1.6901895999908447,
                -2.1317861080169678,
                -4.937218189239502,
                -3.4988086223602295,
                1.8366222381591797,
                -1.4244741201400757,
                -0.30101093649864197,
                4.783519268035889,
                3.7809507846832275,
                1.6994410753250122,
                2.682936668395996,
                -4.272251129150391,
                -1.6689163446426392,
                -2.722170114517212,
                -1.7917532920837402,
                0.06359957158565521,
                1.4490402936935425
            ]
        ],
        "tmit": [
            [
                0.7688015103340149,
                0.9032806754112244,
                0.8919031023979187,
                0.9268126487731934,
                0.949897825717926,
                0.8128077983856201,
                0.9186863899230957,
                0.5960193872451782,
                0.8873904943466187,
                1.3789812326431274,
                0.8410949110984802,
                1.3618786334991455,
                1.8144304752349854,
                0.8956664800643921,
                0.9662810564041138,
                0.9060081243515015,
                0.6934691071510315,
                0.8699559569358826,
                0.7392054796218872,
                0.5487294793128967,
                0.5125484466552734,
                0.5247333645820618,
                0.4450230300426483,
                0.42836302518844604,
                0.0893068015575409,
                0.20833337306976318,
                0.2385493814945221,
                0.24097667634487152,
                0.23283842206001282,
                0.1704278588294983,
                0.1936110407114029,
                0.7001141905784607,
                0.35250720381736755,
                0.28555724024772644,
                0.1517554670572281,
                0.09164150059223175,
                0.1905173808336258,
                0.17727328836917877,
                0.20235547423362732
            ],
            [
                0.7640053033828735,
                0.8971579670906067,
                0.8849087953567505,
                0.9181294441223145,
                0.9415061473846436,
                0.8046072721481323,
                0.9116414189338684,
                0.5920976400375366,
                0.8804517388343811,
                1.3712105751037598,
                0.8352835774421692,
                1.3483699560165405,
                1.8065515756607056,
                0.890697717666626,
                0.9584506154060364,
                0.8952121138572693,
                0.6900702714920044,
                0.863850474357605,
                0.7333624362945557,
                0.5436728000640869,
                0.5082882642745972,
                0.5201475620269775,
                0.44010260701179504,
                0.42500069737434387,
                0.09230724722146988,
                0.21495221555233002,
                0.24440781772136688,
                0.2477511614561081,
                0.24025489389896393,
                0.17654283344745636,
                0.19670239090919495,
                0.7157363295555115,
                0.3480335474014282,
                0.2824036180973053,
                0.15079589188098907,
                0.09497761726379395,
                0.1967979520559311,
                0.18258914351463318,
                0.2090488076210022
            ],
            [
                0.748952329158783,
                0.8852747678756714,
                0.8706416487693787,
                0.9060458540916443,
                0.9301162362098694,
                0.7951434850692749,
                0.8996928334236145,
                0.5866215825080872,
                0.8679627776145935,
                1.3594893217086792,
                0.8242462277412415,
                1.3340872526168823,
                1.7918037176132202,
                0.8753069043159485,
                0.9443825483322144,
                0.8858978748321533,
                0.680814802646637,
                0.8508557081222534,
                0.7255849838256836,
                0.5394570231437683,
                0.5012860894203186,
                0.5123056173324585,
                0.4329112470149994,
                0.4170222878456116,
                0.09104619175195694,
                0.21146006882190704,
                0.24168060719966888,
                0.2434953898191452,
                0.23508767783641815,
                0.17366519570350647,
                0.19690848886966705,
                0.7275875806808472,
                0.34132298827171326,
                0.2773352265357971,
                0.14850355684757233,
                0.09359118342399597,
                0.19215349853038788,
                0.17866677045822144,
                0.20614159107208252
            ]
        ]
    },
    "icts": {
        "names": [
            "gun:GUNcharge",
            "l0:L0charge",
            "linacbt:LNEcharge",
            "linacbt:BTMcharge",
            "ext:EXTcharge",
            "linacbt:BTEcharge",
            "BIM:DR:nparticles",
            "BIM:IP:nparticles"
        ],
        "charge": [
            0.5350613237499999,
            0.58212983875,
            0.41457416666666663,
            0.3373625,
            0.186902258585,
            0.28680979166666665,
            0.14703568816184998,
            0.16947463154792786
        ]
    },
    "hcorrectors_names": [
        "ZH1L",
        "ZH2L",
        "ZH3L",
        "ZH4L",
        "ZH5L",
        "ZH6L",
        "ZH7L",
        "ZH8L",
        "ZH9L",
        "ZH10L",
        "ZH11L",
        "ZH12L",
        "ZH30T",
        "ZH40T",
        "ZH50T"
    ],
    "vcorrectors_names": [
        "ZV1L",
        "ZV2L",
        "ZV3L",
        "ZV4L",
        "ZV5L",
        "ZV6L",
        "ZV7L",
        "ZV8L",
        "ZV9L",
        "ZV10L",
        "ZV11L",
        "ZV12L",
        "ZV13L",
        "ZV30T",
        "ZV40T",
        "ZV50T",
        "ZV51T"
    ],
    "timestamp": "2024/05/24, 15:06:40"
}